ruleName,matchURL,header,scheme,host,path,result.redirectURL,result.statusCode
CH20190930_008,,,https,www.bmw.ch,/fr/bmw-nouvelles-voitures/m/m4-cabrio/2017/caracteristiques-techniques.html,https://www.bmw.ch/fr/bmw-nouvelles-voitures/m/m4-cabrio/2019/bmw-m4-cabrio-inspirer.html,301
CH20190930_007,,,https,www.bmw.ch,/fr/bmw-nouvelles-voitures/m/m4-cabrio/2017/images-videos.html,https://www.bmw.ch/fr/bmw-nouvelles-voitures/m/m4-cabrio/2019/bmw-m4-cabrio-inspirer.html,301
CH20190930_005,,,https,www.bmw.ch,/fr/bmw-nouvelles-voitures/m/m4-cabrio/2017/connectivite.html,https://www.bmw.ch/fr/bmw-nouvelles-voitures/m/m4-cabrio/2019/bmw-m4-cabrio-inspirer.html,301
CH20190930_004,,,https,www.bmw.ch,/fr/bmw-nouvelles-voitures/m/m4-cabrio/2017/moteur.html,https://www.bmw.ch/fr/bmw-nouvelles-voitures/m/m4-cabrio/2019/bmw-m4-cabrio-inspirer.html,301
CH20190930_003,,,https,www.bmw.ch,/fr/bmw-nouvelles-voitures/m/m4-cabrio/2017/dynamique-de-conduite.html,https://www.bmw.ch/fr/bmw-nouvelles-voitures/m/m4-cabrio/2019/bmw-m4-cabrio-inspirer.html,301
CH20190930_002,,,https,www.bmw.ch,/fr/bmw-nouvelles-voitures/m/m4-cabrio/2017/design.html,https://www.bmw.ch/fr/bmw-nouvelles-voitures/m/m4-cabrio/2019/bmw-m4-cabrio-inspirer.html,301
CH20190930_001,,,https,www.bmw.ch,/fr/bmw-nouvelles-voitures/m/m4-cabrio/2017/apercu.html,https://www.bmw.ch/fr/bmw-nouvelles-voitures/m/m4-cabrio/2019/bmw-m4-cabrio-inspirer.html,301
CH20190904_001,,,https,www.bmw.ch,/de/bmw-neuwagen/m/m4-coupe/2017.html,https://www.bmw.ch/de/bmw-neuwagen/m/m4-coupe/2019/bmw-m4-coupe-inspirieren.html,301
BMW CH Language Redirect sweepstake-serie-1-mailing fr,,Accept-Language=fr-ch*,,www.bmw.ch,/theoneandonly,https://www.bmw.ch/fr/ssl/campaign-forms/2019/sweepstake-serie-1-mailing.html,301
BMW CH Language Redirect sweepstake-serie-1-mailing it,,Accept-Language=it-ch*,,www.bmw.ch,/theoneandonly,https://www.bmw.ch/it/ssl/campaign-forms/2019/sweepstake-serie-1-mailing.html,301
BMW CH Language Redirect sweepstake-serie-1-mailing fallback,,,,www.bmw.ch,/theoneandonly,https://www.bmw.ch/de/ssl/campaign-forms/2019/sweepstake-serie-1-mailing.html,301
BMW CH Language Redirect bmw-m-town fr,,Accept-Language=fr-ch*,,www.bmw.ch,/m-town,https://www.bmw.ch/fr/topics/fascination-bmw/BMW-M-Town.html,301
BMW CH Language Redirect bmw-m-town it,,Accept-Language=it-ch*,,www.bmw.ch,/m-town,https://www.bmw.ch/it/topics/fascinazione-bmw/BMW-M-Town.html,301
BMW CH Language Redirect bmw-m-town fallback,,,,www.bmw.ch,/m-town,https://www.bmw.ch/de/topics/faszination-bmw/BMW-M-Town.html,301
BMW CH Language Redirect all-models/1-series/5-door fr,,Accept-Language=fr-ch*,,www.bmw.ch,/theone,https://www.bmw.ch/fr/bmw-nouvelles-voitures/serie-1/5-portes/2019/bmw-serie-1-inspirer.html,301
BMW CH Language Redirect all-models/1-series/5-door it,,Accept-Language=it-ch*,,www.bmw.ch,/theone,https://www.bmw.ch/it/bmw-auto-nuove/serie-1/5-porte/2019/bmw-serie1-ispirazione.html,301
BMW CH Language Redirect all-models/1-series/5-door fallback,,,,www.bmw.ch,/theone,https://www.bmw.ch/de/bmw-neuwagen/1er/5-tuerer/2019/bmw-1er-inspirieren.html,301
BMW CH Language Redirect all-models/1-series/5-door fr,,Accept-Language=fr-ch*,,www.bmw.ch,/the-one,https://www.bmw.ch/fr/bmw-nouvelles-voitures/serie-1/5-portes/2019/bmw-serie-1-inspirer.html,301
BMW CH Language Redirect all-models/1-series/5-door it,,Accept-Language=it-ch*,,www.bmw.ch,/the-one,https://www.bmw.ch/it/bmw-auto-nuove/serie-1/5-porte/2019/bmw-serie1-ispirazione.html,301
BMW CH Language Redirect all-models/1-series/5-door fallback,,,,www.bmw.ch,/the-one,https://www.bmw.ch/de/bmw-neuwagen/1er/5-tuerer/2019/bmw-1er-inspirieren.html,301
BMW CH Language Redirect all-models/1-series/5-door fr,,Accept-Language=fr-ch*,,www.bmw.ch,/the1,https://www.bmw.ch/fr/bmw-nouvelles-voitures/serie-1/5-portes/2019/bmw-serie-1-inspirer.html,301
BMW CH Language Redirect all-models/1-series/5-door it,,Accept-Language=it-ch*,,www.bmw.ch,/the1,https://www.bmw.ch/it/bmw-auto-nuove/serie-1/5-porte/2019/bmw-serie1-ispirazione.html,301
BMW CH Language Redirect all-models/1-series/5-door fallback,,,,www.bmw.ch,/the1,https://www.bmw.ch/de/bmw-neuwagen/1er/5-tuerer/2019/bmw-1er-inspirieren.html,301
BMW CH Language Redirect all-models/1-series/5-door fr,,Accept-Language=fr-ch*,,www.bmw.ch,/the-1,https://www.bmw.ch/fr/bmw-nouvelles-voitures/serie-1/5-portes/2019/bmw-serie-1-inspirer.html,301
BMW CH Language Redirect all-models/1-series/5-door it,,Accept-Language=it-ch*,,www.bmw.ch,/the-1,https://www.bmw.ch/it/bmw-auto-nuove/serie-1/5-porte/2019/bmw-serie1-ispirazione.html,301
BMW CH Language Redirect all-models/1-series/5-door fallback,,,,www.bmw.ch,/the-1,https://www.bmw.ch/de/bmw-neuwagen/1er/5-tuerer/2019/bmw-1er-inspirieren.html,301
CH20190904_002,,,https,www.bmw.ch,/de/bmw-neuwagen/m/m4-coupe/2017/auf-einen-blick.html,https://www.bmw.ch/de/bmw-neuwagen/m/m4-coupe/2019/bmw-m4-coupe-inspirieren.html,301
CH20190904_003,,,https,www.bmw.ch,/de/bmw-neuwagen/m/m4-coupe/2017/design.html,https://www.bmw.ch/de/bmw-neuwagen/m/m4-coupe/2019/bmw-m4-coupe-inspirieren.html,301
CH20190904_004,,,https,www.bmw.ch,/de/bmw-neuwagen/m/m4-coupe/2017/fahrdynamik.html,https://www.bmw.ch/de/bmw-neuwagen/m/m4-coupe/2019/bmw-m4-coupe-inspirieren.html,301
CH20190904_005,,,https,www.bmw.ch,/de/bmw-neuwagen/m/m4-coupe/2017/bmw-m4-cs.html,https://www.bmw.ch/de/bmw-neuwagen/m/m4-coupe/2019/bmw-m4-coupe-inspirieren.html,301
CH20190904_006,,,https,www.bmw.ch,/de/bmw-neuwagen/m/m4-coupe/2017/motor.html,https://www.bmw.ch/de/bmw-neuwagen/m/m4-coupe/2019/bmw-m4-coupe-inspirieren.html,301
CH20190904_007,,,https,www.bmw.ch,/de/bmw-neuwagen/m/m4-coupe/2017/connectivity.html,https://www.bmw.ch/de/bmw-neuwagen/m/m4-coupe/2019/bmw-m4-coupe-inspirieren.html,301
CH20190904_008,,,https,www.bmw.ch,/de/bmw-neuwagen/m/m4-coupe/2017/bilder-videos.html,https://www.bmw.ch/de/bmw-neuwagen/m/m4-coupe/2019/bmw-m4-coupe-inspirieren.html,301
CH20190904_009,,,https,www.bmw.ch,/de/bmw-neuwagen/m/m4-coupe/2017/technische-daten.html,https://www.bmw.ch/de/bmw-neuwagen/m/m4-coupe/2019/bmw-m4-coupe-inspirieren.html,301
CH20190904_010,,,https,www.bmw.ch,/de/bmw-neuwagen/m/m4-cabrio/2017/auf-einen-blick.html,https://www.bmw.ch/de/bmw-neuwagen/m/m4-cabrio/2019/bmw-m4-cabrio-inspirieren.html,301
CH20190904_011,,,https,www.bmw.ch,/de/bmw-neuwagen/m/m4-cabrio/2017/design.html,https://www.bmw.ch/de/bmw-neuwagen/m/m4-cabrio/2019/bmw-m4-cabrio-inspirieren.html,301
CH20190904_012,,,https,www.bmw.ch,/de/bmw-neuwagen/m/m4-cabrio/2017/fahrdynamik.html,https://www.bmw.ch/de/bmw-neuwagen/m/m4-cabrio/2019/bmw-m4-cabrio-inspirieren.html,301
CH20190904_013,,,https,www.bmw.ch,/de/bmw-neuwagen/m/m4-cabrio/2017/motor.html,https://www.bmw.ch/de/bmw-neuwagen/m/m4-cabrio/2019/bmw-m4-cabrio-inspirieren.html,301
CH20190904_014,,,https,www.bmw.ch,/de/bmw-neuwagen/m/m4-cabrio/2017/connectivity.html,https://www.bmw.ch/de/bmw-neuwagen/m/m4-cabrio/2019/bmw-m4-cabrio-inspirieren.html,301
CH20190904_015,,,https,www.bmw.ch,/de/bmw-neuwagen/m/m4-cabrio/2017/bilder-videos.html,https://www.bmw.ch/de/bmw-neuwagen/m/m4-cabrio/2019/bmw-m4-cabrio-inspirieren.html,301
CH20190904_016,,,https,www.bmw.ch,/de/bmw-neuwagen/m/m4-cabrio/2017/technische-daten.html,https://www.bmw.ch/de/bmw-neuwagen/m/m4-cabrio/2019/bmw-m4-cabrio-inspirieren.html,301
CH20191014_001,,,https,www.bmw.ch,/fr/bmw-nouvelles-voitures/m/m850i-gran-coupe/2019/m850i-xDrive-gran-coupe-inspirer.html,https://www.bmw.com.cy/en/all-models/m-series/m8-gran-coupe/2019/bmw-8-series-gran-coupe-m-automobiles-highlights.html,301
CH20191014_002,,,https,www.bmw.ch,/fr/bmw-nouvelles-voitures/m/m850i-gran-coupe/2019/bmw-m850i-xdrive-gran-coupe-informer.html,https://www.bmw.com.cy/en/all-models/m-series/m8-gran-coupe/2019/bmw-8-series-gran-coupe-m-automobiles-models-equipment.html,301
CH20191014_003,,,https,www.bmw.ch,/fr/bmw-nouvelles-voitures/m/m850i-gran-coupe/2019/bmw-m850i-xdrive-gran-coupe-caracteristiques-techniques.html,https://www.bmw.com.cy/en/all-models/m-series/m8-gran-coupe/2019/bmw-8-series-gran-coupe-m-automobiles-technical-data.html,301
CH20191014_004,,,https,www.bmw.ch,/de/bmw-neuwagen/m/m850i-gran-coupe/2019/bmw-m850i-xdrive-gran-coupe-inspirieren.html,https://www.bmw.ch/de/bmw-neuwagen/m/m8-gran-coupe/2019/bmw-8er-gran-coupe-m-automobile-ueberblick.html,301
CH20191014_005,,,https,www.bmw.ch,/de/bmw-neuwagen/m/m850i-gran-coupe/2019/bmw-m850i-xdrive-gran-coupe-informieren.html,https://www.bmw.ch/de/bmw-neuwagen/m/m8-gran-coupe/2019/bmw-8er-gran-coupe-m-automobile-modelle-ausstattungen.html,301
CH20191014_006,,,https,www.bmw.ch,/de/bmw-neuwagen/m/m850i-gran-coupe/2019/bmw-m850i-xdrive-gran-coupe-technische-daten.html,https://www.bmw.ch/de/bmw-neuwagen/m/m8-gran-coupe/2019/bmw-8er-gran-coupe-m-automobile-modelle-ausstattungen.html,301
CH20191014_007,,,https,www.bmw.ch,/de/topics/faszination-bmw/bmw-concept-cars/bmw-concept-m8-grancoupe.html,https://www.bmw.ch/de/bmw-neuwagen/m/m8-gran-coupe/2019/bmw-8er-gran-coupe-m-automobile-ueberblick.html,301
CH20191108_001,,,https,www.bmw.ch,/de/bmw-neuwagen/8-series/coupe/2018/the-8-auf-einen-Blick.html,https://www.bmw.ch/de/bmw-neuwagen/8-series/coupe/2019/bmw-8er-coupe-inspirieren.html,301
CH20191108_002,,,https,www.bmw.ch,/de/bmw-neuwagen/8-series/coupe/2018/the-8-bilder-videos.html,https://www.bmw.ch/de/bmw-neuwagen/8-series/coupe/2019/bmw-8er-coupe-inspirieren.html,301
CH20191108_003,,,https,www.bmw.ch,/de/bmw-neuwagen/8-series/coupe/2018/the-8-technical-data.html,https://www.bmw.ch/de/bmw-neuwagen/8-series/coupe/2019/bmw-8er-coupe-technische-daten.html#tab-0,301
CH20191108_004,,,https,www.bmw.ch,/de/topics/angebote-und-services/bmw-lifestyle.html,https://www.bmw.ch/de/topics/angebote-und-services/bmw-lifestyle/bmw-lifestyle.html,301
CH20191108_005,,,https,www.bmw.ch,/fr/bmw-nouvelles-voitures/8-series/coupe/2018/the-8-en-un-clin-doeil.html,https://www.bmw.ch/fr/bmw-nouvelles-voitures/8-series/coupe/2019/bmw-serie-8-coupe-inspirer.html,301
CH20191108_006,,,https,www.bmw.ch,/fr/bmw-nouvelles-voitures/8-series/coupe/2018/the-8-images-videos.html,https://www.bmw.ch/fr/bmw-nouvelles-voitures/8-series/coupe/2019/bmw-serie-8-coupe-inspirer.html,301
CH20191108_007,,,https,www.bmw.ch,/fr/bmw-nouvelles-voitures/8-series/coupe/2018/the-8-technical-data.html,https://www.bmw.ch/fr/bmw-nouvelles-voitures/8-series/coupe/2019/bmw-8er-coupe-caracteristiques-techniques.html#tab-0,301
CH20191108_008,,,https,www.bmw.ch,/fr/topics/offres-et-services/bmw-lifestyle.html,https://www.bmw.ch/fr/topics/offres-et-services/bmw-lifestyle/bmw-lifestyle.html,301
CH20191108_009,,,https,www.bmw.ch,/it/bmw-auto-nuove/8-series/coupe/2018/the-8-in-sintesi.html,https://www.bmw.ch/it/bmw-auto-nuove/8-series/coupe/2019/bmw-Serie-8-coupe-ispirazione.html,301
CH20191108_010,,,https,www.bmw.ch,/it/bmw-auto-nuove/8-series/coupe/2018/the-8-immagini-video.html,https://www.bmw.ch/it/bmw-auto-nuove/8-series/coupe/2019/bmw-Serie-8-coupe-ispirazione.html,301
CH20191108_011,,,https,www.bmw.ch,/it/bmw-auto-nuove/8-series/coupe/2018/the-8-technical-data.html,https://www.bmw.ch/it/bmw-auto-nuove/8-series/coupe/2019/bmw-serie-8-coupe-dati-tecnici.html#tab-0,301
CH20191108_012,,,https,www.bmw.ch,/it/topics/offerte-e-servizi/bmw-lifestyle.html,https://www.bmw.ch/it/topics/offerte-e-servizi/bmw-lifestyle/bmw-lifestyle.html,301
CH20191108_013,,,https,www.bmw.ch,/de/bmw-neuwagen/m/m2-coupe/2018/bmw-m2-competition.html,https://www.bmw.ch/de/bmw-neuwagen/m/m2-coupe/2019/bmw-2er-coupe-m-automobile-ueberblick.html,301
CH20191108_014,,,https,www.bmw.ch,/de/bmw-neuwagen/m/m2-coupe/2018/m-240i-coupe.html,https://www.bmw.ch/de/bmw-neuwagen/m/m2-coupe/2019/bmw-2er-coupe-m-automobile-ueberblick.html,301
CH20191108_015,,,https,www.bmw.ch,/de/bmw-neuwagen/m/m2-coupe/2018/bilder-videos.html,https://www.bmw.ch/de/bmw-neuwagen/m/m2-coupe/2019/bmw-2er-coupe-m-automobile-ueberblick.html,301
CH20191108_016,,,https,www.bmw.ch,/de/bmw-neuwagen/m/m2-coupe/2018/bmw-2er-m-coupe-automobile-technische-daten.html,https://www.bmw.ch/de/bmw-neuwagen/m/m2-coupe/2019/bmw-2er-coupe-m-automobile-technische-daten.html#tab-0,301
CH20191108_017,,,https,www.bmw.ch,/it/bmw-auto-nuove/m/m2-coupe/2018/bmw-m2-competition.html,https://www.bmw.ch/it/bmw-auto-nuove/m/m2-coupe/2019/bmw-Serie-2r-coupe-m-automobili-panoramica.html,301
CH20191108_018,,,https,www.bmw.ch,/it/bmw-auto-nuove/m/m2-coupe/2018/m-240i-coupe.html,https://www.bmw.ch/it/bmw-auto-nuove/m/m2-coupe/2019/bmw-Serie-2r-coupe-m-automobili-panoramica.html,301
CH20191108_019,,,https,www.bmw.ch,/it/bmw-auto-nuove/m/m2-coupe/2018/immagini-video.html,https://www.bmw.ch/it/bmw-auto-nuove/m/m2-coupe/2019/bmw-Serie-2r-coupe-m-automobili-panoramica.html,301
CH20191108_020,,,https,www.bmw.ch,/it/bmw-auto-nuove/m/m2-coupe/2018/bmw-m2-coupe-dati-tecnici.html,https://www.bmw.ch/it/bmw-auto-nuove/m/m2-coupe/2019/bmw-Serie-2-coupe-m-automobili-dati-tecnici.html#tab-0,301
CH20191108_021,,,https,www.bmw.ch,/fr/bmw-nouvelles-voitures/m/m2-coupe/2018/bmw-m2-competition.html,https://www.bmw.ch/fr/bmw-nouvelles-voitures/m/m2-coupe/2019/voitures-m-bmw-serie-2-apercu.html,301
CH20191108_022,,,https,www.bmw.ch,/fr/bmw-nouvelles-voitures/m/m2-coupe/2018/m-240i-coupe.html,https://www.bmw.ch/fr/bmw-nouvelles-voitures/m/m2-coupe/2019/voitures-m-bmw-serie-2-apercu.html,301
CH20191108_023,,,https,www.bmw.ch,/fr/bmw-nouvelles-voitures/m/m2-coupe/2018/images-videos.html,https://www.bmw.ch/fr/bmw-nouvelles-voitures/m/m2-coupe/2019/voitures-m-bmw-serie-2-apercu.html,301
CH20191108_024,,,https,www.bmw.ch,/fr/bmw-nouvelles-voitures/m/m2-coupe/2018/bmw-serie-2--m-coupe-caracteristiques-techniques.html,https://www.bmw.ch/fr/bmw-nouvelles-voitures/m/m2-coupe/2019/voitures-m-bmw-serie-2-caracteristiques-techniques.html,301
CH20191113_001,,,https,www.bmw.ch,/it/bmw-auto-nuove/m/m4-coupe/2017.html,https://www.bmw.ch/it/bmw-auto-nuove/m/m4-coupe/2019/bmw-m4-coupe-ispirazione.html,301
CH20191113_002,,,https,www.bmw.ch,/it/bmw-auto-nuove/m/m4-coupe/2017/in-sintesi.html,https://www.bmw.ch/it/bmw-auto-nuove/m/m4-coupe/2019/bmw-m4-coupe-ispirazione.html,301
CH20191113_003,,,https,www.bmw.ch,/it/bmw-auto-nuove/m/m4-coupe/2017/design.html,https://www.bmw.ch/it/bmw-auto-nuove/m/m4-coupe/2019/bmw-m4-coupe-ispirazione.html,301
CH20191113_004,,,https,www.bmw.ch,/it/bmw-auto-nuove/m/m4-coupe/2017/dinamica-di-guida.html,https://www.bmw.ch/it/bmw-auto-nuove/m/m4-coupe/2019/bmw-m4-coupe-ispirazione.html,301
CH20191113_005,,,https,www.bmw.ch,/it/bmw-auto-nuove/m/m4-coupe/2017/bmw-m4-cs.html,https://www.bmw.ch/it/bmw-auto-nuove/m/m4-coupe/2019/bmw-m4-coupe-ispirazione.html,301
CH20191113_006,,,https,www.bmw.ch,/it/bmw-auto-nuove/m/m4-coupe/2017/motore.html,https://www.bmw.ch/it/bmw-auto-nuove/m/m4-coupe/2019/bmw-m4-coupe-dati-tecnici.html#tab-0,301
CH20191113_007,,,https,www.bmw.ch,/it/bmw-auto-nuove/m/m4-coupe/2017/connettivita.html,https://www.bmw.ch/it/bmw-auto-nuove/m/m4-coupe/2019/bmw-m4-coupe-ispirazione.html,301
CH20191113_008,,,https,www.bmw.ch,/it/bmw-auto-nuove/m/m4-coupe/2017/immagini-video.html,https://www.bmw.ch/it/bmw-auto-nuove/m/m4-coupe/2019/bmw-m4-coupe-ispirazione.html,301
CH20191113_009,,,https,www.bmw.ch,/it/bmw-auto-nuove/m/m4-coupe/2017/dati-tecnici.html,https://www.bmw.ch/it/bmw-auto-nuove/m/m4-coupe/2019/bmw-m4-coupe-dati-tecnici.html#tab-0,301
CH20191115_001,,,https,www.bmw.ch,/it/bmw-auto-nuove/m/m4-cabrio/2017.html,https://www.bmw.ch/it/bmw-auto-nuove/m/m4-cabrio/2019/bmw-m4-cabrio-ispirazione.html,301
CH20191115_002,,,https,www.bmw.ch,/it/bmw-auto-nuove/m/m4-cabrio/2017/in-sintesi.html,https://www.bmw.ch/it/bmw-auto-nuove/m/m4-cabrio/2019/bmw-m4-cabrio-ispirazione.html,301
CH20191115_003,,,https,www.bmw.ch,/it/bmw-auto-nuove/m/m4-cabrio/2017/design.html,https://www.bmw.ch/it/bmw-auto-nuove/m/m4-cabrio/2019/bmw-m4-cabrio-ispirazione.html,301
CH20191115_004,,,https,www.bmw.ch,/it/bmw-auto-nuove/m/m4-cabrio/2017/dinamica-di-guida.html,https://www.bmw.ch/it/bmw-auto-nuove/m/m4-cabrio/2019/bmw-m4-cabrio-ispirazione.html,301
CH20191115_005,,,https,www.bmw.ch,/it/bmw-auto-nuove/m/m4-cabrio/2017/motore.html,https://www.bmw.ch/it/bmw-auto-nuove/m/m4-cabrio/2019/bmw-m4-cabrio-ispirazione.html,301
CH20191115_006,,,https,www.bmw.ch,/it/bmw-auto-nuove/m/m4-cabrio/2017/connettivita.html,https://www.bmw.ch/it/bmw-auto-nuove/m/m4-cabrio/2019/bmw-m4-cabrio-ispirazione.html,301
CH20191115_007,,,https,www.bmw.ch,/it/bmw-auto-nuove/m/m4-cabrio/2017/immagini-video.html,https://www.bmw.ch/it/bmw-auto-nuove/m/m4-cabrio/2019/bmw-m4-cabrio-ispirazione.html,301
CH20191115_008,,,https,www.bmw.ch,/it/bmw-auto-nuove/m/m4-cabrio/2017/dati-tecnici.html,https://www.bmw.ch/it/bmw-auto-nuove/m/m4-cabrio/2019/bmw-m4-cabrio-ispirazione.html,301
CH20191128_001,https://www.bmw.ch/it/bmw-auto-nuove/serie-6/gran-turismo/2017/in-sintesi.html,,,,,https://www.bmw.ch/it/bmw-auto-nuove/serie-6/gran-turismo/2019/bmw-Serie-6-gran-turismo-panoramica.html,301
CH20191128_002,https://www.bmw.ch/it/bmw-auto-nuove/serie-6/gran-turismo/2017/design.html,,,,,https://www.bmw.ch/it/bmw-auto-nuove/serie-6/gran-turismo/2019/bmw-Serie-6-gran-turismo-panoramica.html,301
CH20191128_003,https://www.bmw.ch/it/bmw-auto-nuove/serie-6/gran-turismo/2017/dinamica-di-guida-efficienza.html,,,,,https://www.bmw.ch/it/bmw-auto-nuove/serie-6/gran-turismo/2019/bmw-Serie-6-gran-turismo-panoramica.html,301
CH20191128_004,https://www.bmw.ch/it/bmw-auto-nuove/serie-6/gran-turismo/2017/connettivita-assistenza-alla-guida.html,,,,,https://www.bmw.ch/it/bmw-auto-nuove/serie-6/gran-turismo/2019/bmw-Serie-6-gran-turismo-panoramica.html,301
CH20191128_005,https://www.bmw.ch/it/bmw-auto-nuove/serie-6/gran-turismo/2017/immagini-video.html,,,,,https://www.bmw.ch/it/bmw-auto-nuove/serie-6/gran-turismo/2019/bmw-Serie-6-gran-turismo-panoramica.html,301
CH20191128_006,https://www.bmw.ch/it/bmw-auto-nuove/serie-6/gran-turismo/2017/dati-tecnici.html,,,,,https://www.bmw.ch/it/bmw-auto-nuove/serie-6/gran-turismo/2019/bmw-serie-6-gran-turismo-dati-tecnici.html,301
CH20191128_007,https://www.bmw.ch/de/bmw-neuwagen/6er/gran-turismo/2017/auf-einen-blick.html,,,,,https://www.bmw.ch/de/bmw-neuwagen/6er/gran-turismo/2019/bmw-6er-gran-turismo-ueberblick.html,301
CH20191128_008,https://www.bmw.ch/de/bmw-neuwagen/6er/gran-turismo/2017/design.html,,,,,https://www.bmw.ch/de/bmw-neuwagen/6er/gran-turismo/2019/bmw-6er-gran-turismo-ueberblick.html,301
CH20191128_009,https://www.bmw.ch/de/bmw-neuwagen/6er/gran-turismo/2017/fahrdynamik-effizienz.html,,,,,https://www.bmw.ch/de/bmw-neuwagen/6er/gran-turismo/2019/bmw-6er-gran-turismo-ueberblick.html,301
CH20191128_010,https://www.bmw.ch/de/bmw-neuwagen/6er/gran-turismo/2017/connectivity-fahrerassistenz.html,,,,,https://www.bmw.ch/de/bmw-neuwagen/6er/gran-turismo/2019/bmw-6er-gran-turismo-ueberblick.html,301
CH20191128_011,https://www.bmw.ch/de/bmw-neuwagen/6er/gran-turismo/2017/bilder-videos.html,,,,,https://www.bmw.ch/de/bmw-neuwagen/6er/gran-turismo/2019/bmw-6er-gran-turismo-ueberblick.html,301
CH20191128_012,https://www.bmw.ch/de/bmw-neuwagen/6er/gran-turismo/2017/technische-daten.html,,,,,https://www.bmw.ch/de/bmw-neuwagen/6er/gran-turismo/2019/bmw-6er-gran-turismo-technische-daten.html,301
CH20191128_013,https://www.bmw.ch/fr/bmw-nouvelles-voitures/serie-6/gran-turismo/2017/apercu.html,,,,,https://www.bmw.ch/fr/bmw-nouvelles-voitures/serie-6/gran-turismo/2019/bmw-serie-6-gran-turismo-apercu.html,301
CH20191128_014,https://www.bmw.ch/fr/bmw-nouvelles-voitures/serie-6/gran-turismo/2017/design.html,,,,,https://www.bmw.ch/fr/bmw-nouvelles-voitures/serie-6/gran-turismo/2019/bmw-serie-6-gran-turismo-apercu.html,301
CH20191128_015,https://www.bmw.ch/fr/bmw-nouvelles-voitures/serie-6/gran-turismo/2017/dynamique-de-conduite-efficience.html,,,,,https://www.bmw.ch/fr/bmw-nouvelles-voitures/serie-6/gran-turismo/2019/bmw-serie-6-gran-turismo-apercu.html,301
CH20191128_016,https://www.bmw.ch/fr/bmw-nouvelles-voitures/serie-6/gran-turismo/2017/connectivite-assistance-au-conducteur.html,,,,,https://www.bmw.ch/fr/bmw-nouvelles-voitures/serie-6/gran-turismo/2019/bmw-serie-6-gran-turismo-apercu.html,301
CH20191128_017,https://www.bmw.ch/fr/bmw-nouvelles-voitures/serie-6/gran-turismo/2017/images-videos.html,,,,,https://www.bmw.ch/fr/bmw-nouvelles-voitures/serie-6/gran-turismo/2019/bmw-serie-6-gran-turismo-apercu.html,301
CH20191128_018,https://www.bmw.ch/fr/bmw-nouvelles-voitures/serie-6/gran-turismo/2017/caracteristiques-techniques.html,,,,,https://www.bmw.ch/fr/bmw-nouvelles-voitures/serie-6/gran-turismo/2019/bmw-serie-6-gran-turismo-caracteristiques-techniques.html,301
