ruleName,matchURL,result.redirectURL,result.statusCode
ruleName,matchURL,result.redirectURL,result.statusCode
ruleName,matchURL,result.redirectURL,result.statusCode
ruleName,matchURL,result.redirectURL,result.statusCode
ruleName,matchURL,result.redirectURL,result.statusCode
ruleName,matchURL,result.redirectURL,result.statusCode
ruleName,matchURL,result.redirectURL,result.statusCode
ruleName,matchURL,result.redirectURL,result.statusCode
ruleName,matchURL,result.redirectURL,result.statusCode
ruleName,matchURL,result.redirectURL,result.statusCode
ruleName,matchURL,result.redirectURL,result.statusCode
