AUFGERUFENE URL,KORREKTES ZIEL
https://www.bmw.de/de/neufahrzeuge/5er/limousine/2016/business-assistenzsysteme/bedienkonzept.html,https://www.bmw.de/de/neufahrzeuge/5er/limousine/2016/connectivity.html
https://www.bmw.de/de/neufahrzeuge/5er/limousine/2016/business-assistenzsysteme/connectivity.html,https://www.bmw.de/de/neufahrzeuge/5er/limousine/2016/connectivity.html
https://www.bmw.de/de/neufahrzeuge/5er/limousine/2016/business-assistenzsysteme/fahrerassistenz.html,https://www.bmw.de/de/neufahrzeuge/5er/limousine/2016/connectivity.html
https://www.bmw.de/de/neufahrzeuge/5er/limousine/2016/business-assistenzsysteme/navigation.html,https://www.bmw.de/de/neufahrzeuge/5er/limousine/2016/connectivity.html
https://www.bmw.de/de/neufahrzeuge/5er/limousine/2016/modelle-ausstattungen/ausstattungspakete.html,https://www.bmw.de/de/neufahrzeuge/5er/limousine/2016/lines-ausstattungen.html
https://www.bmw.de/de/neufahrzeuge/5er/limousine/2016/modelle-ausstattungen/bmw-520d-ed.html,https://www.bmw.de/de/neufahrzeuge/5er/limousine/2016/driving-dynamics.html
https://www.bmw.de/de/neufahrzeuge/5er/limousine/2016/modelle-ausstattungen/lines.html,https://www.bmw.de/de/neufahrzeuge/5er/limousine/2016/lines-ausstattungen.html
https://www.bmw.de/de/neufahrzeuge/5er/touring/2017/business-assistenzsysteme/fahrerassistenz.html,https://www.bmw.de/de/neufahrzeuge/5er/touring/2017/connectivity.html
https://www.bmw.de/de/neufahrzeuge/5er/touring/2017/business-assistenzsysteme/navigation.html,https://www.bmw.de/de/neufahrzeuge/5er/touring/2017/connectivity.html
https://www.bmw.de/de/neufahrzeuge/5er/touring/2017/lines-ausstattungen/ausstattungspakete.html,https://www.bmw.de/de/neufahrzeuge/5er/touring/2017/lines.html
https://www.bmw.de/de/neufahrzeuge/5er/touring/2017/lines-ausstattungen/bmw-individual.html,https://www.bmw.de/de/neufahrzeuge/5er/touring/2017/lines.html
https://www.bmw.de/de/neufahrzeuge/5er/touring/2017/lines-ausstattungen/lines.html,https://www.bmw.de/de/neufahrzeuge/5er/touring/2017/lines.html
https://www.bmw.de/de/neufahrzeuge/5er/touring/2017/lines-ausstattungen/m-performance.html,https://www.bmw.de/de/neufahrzeuge/5er/touring/2017/bmw-m.html
https://www.bmw.de/de/neufahrzeuge/5er/touring/2017/lines-ausstattungen/original-bmw-zubehoer.html,https://www.bmw.de/de/neufahrzeuge/5er/touring/2017/lines.html
https://www.bmw.de/de/fastlane/grosskunden-behoerden/behoerdenfahrzeuge/konfigurator.html,https://www.bmw.de/de/topics/faszination-bmw/grosskunden-behoerden/behoerdenfahrzeuge.html
https://www.bmw.de/de/neufahrzeuge/bmw-m-performance/bmw-m140i-3-door.html,https://www.bmw.de/de/neufahrzeuge/m/m135i/2019/bmw-m135i-entdecken.html
https://www.bmw.de/de/neufahrzeuge/4/cabrio/2017/technische-daten.html,https://www.bmw.de/de/neufahrzeuge/4er/cabrio/2019/bmw-4er-cabrio-informieren.html
https://www.bmw.de/de/neufahrzeuge/4/gran-coupe/2017/bilder-videos.html,https://www.bmw.de/de/neufahrzeuge/4er/gran-coupe/2019/bmw-4er-gran-coupe-entdecken.html
https://www.bmw.de/de/neufahrzeuge/4/gran-coupe/2017/facts.html,https://www.bmw.de/de/neufahrzeuge/4er/gran-coupe/2019/bmw-4er-gran-coupe-kaufen.html
https://www.bmw.de/de/neufahrzeuge/6er/grancoupe/2014/motoren.html,https://www.bmw.de/de/neufahrzeuge/6er/granturismo/2017/auf-einen-blick.html
https://www.bmw.de/de/neufahrzeuge/bmw-i/i8/2013/start.html,https://www.bmw.de/de/neufahrzeuge/bmw-i/i8-coupe/2017/auf-einen-blick.html
https://www.bmw.de/de/neufahrzeuge/bmw-i/i8/2015/aufladen.html,https://www.bmw.de/de/neufahrzeuge/bmw-i/i8-coupe/2017/auf-einen-blick.html
https://www.bmw.de/de/neufahrzeuge/bmw-i/i8/2015/bilder-videos.html,https://www.bmw.de/de/neufahrzeuge/bmw-i/i8-coupe/2017/auf-einen-blick.html
https://www.bmw.de/de/neufahrzeuge/bmw-i/i8/2015/connectivity.html,https://www.bmw.de/de/neufahrzeuge/bmw-i/i8-coupe/2017/auf-einen-blick.html
https://www.bmw.de/de/neufahrzeuge/bmw-i/i8/2015/design.html,https://www.bmw.de/de/neufahrzeuge/bmw-i/i8-coupe/2017/auf-einen-blick.html
https://www.bmw.de/de/neufahrzeuge/bmw-i/i8/2015/effizienz-dynamik.html,https://www.bmw.de/de/neufahrzeuge/bmw-i/i8-coupe/2017/auf-einen-blick.html
https://www.bmw.de/de/neufahrzeuge/bmw-i/i8/2015/kaufen.html,https://www.bmw.de/de/neufahrzeuge/bmw-i/i8-coupe/2017/finanzieren-kaufen.html
https://www.bmw.de/de/neufahrzeuge/bmw-i/i8/2015/protonic-frozen.html,https://www.bmw.de/de/neufahrzeuge/bmw-i/i8-coupe/2017/auf-einen-blick.html
https://www.bmw.de/de/neufahrzeuge/bmw-m-performance/bmw-x3-m40i.html,https://www.bmw.de/de/neufahrzeuge/m/x3-m/2019/bmw-x3m-entdecken.html
https://www.bmw.de/de/neufahrzeuge/x/x5/2013/design.html,https://www.bmw.de/de/neufahrzeuge/x/x5/2018/bmw-x5-auf-einen-blick.html
https://www.bmw.de/de/neufahrzeuge/x/x5/2013/driving-dynamics-and-efficiency.html,https://www.bmw.de/de/neufahrzeuge/x/x5/2018/bmw-x5-auf-einen-blick.html
https://www.bmw.de/de/neufahrzeuge/bmw-m-performance/bmw-x6-m50d.html,https://www.bmw.de/de/neufahrzeuge/m/m50i-x6/2019/bmw-x6-m50i-m50d-entdecken.html
https://www.bmw.de/de/footer/q-and-a/faq/bmw-connecteddrive.html,https://faq.bmw.de/t5/BMW-Deutschland/ct-p/01
https://www.bmw.de/de/footer/q-and-a/faq/faq-finanzieren-versichern/finanzierung.html,https://www.bmw.de/de/index.html?kfirst-action=oa_FAQ%20Allgemein
https://www.bmw.de/de/footer/q-and-a/faq/faq-finanzieren-versichern/leasing.html,https://www.bmw.de/de/index.html?kfirst-action=oa_FAQ%20Allgemein
https://www.bmw.de/de/footer/q-and-a/faq/faq-service-zubehoer/mobile-endgeraete/bluetooth-schnittstelle.html,https://faq.bmw.de/t5/BMW-Deutschland/ct-p/01
https://www.bmw.de/de/footer/q-and-a/faq/faq-service-zubehoer/bmw-mobile/mybmwremote.html,https://faq.bmw.de/t5/BMW-Deutschland/ct-p/01
https://www.bmw.de/de/footer/q-and-a/faq/umweltpraemie.html,https://www.bmw.de/de/index.html?kfirst-action=oa_FAQ%20Allgemein
https://www.bmw.de/de/neufahrzeuge/bmw-i/bmw-i/konzept.html,https://www.bmw.de/de/topics/faszination-bmw/elektromobilitaet/introduction.html
https://www.bmw.de/de/neufahrzeuge/bmw-i/bmw-i/nachhaltigkeit.html,https://www.bmw.de/de/topics/faszination-bmw/elektromobilitaet/introduction.html
https://www.bmw.de/de/topics/faszination-bmw/xdrive/modelle-mit-x-drive.html,https://www.bmw.de/de/topics/faszination-bmw/bmw-xdrive-erleben/modelle.html
https://www.bmw.de/de/topics/faszination-bmw/bmw-xdrive-erleben/xdrive/xdrive-technologie.html,https://www.bmw.de/de/topics/faszination-bmw/bmw-xdrive-erleben/technologie.html
https://www.bmw.de/de/topics/faszination-bmw/sport-events/bmw-ticketshop/sport-und-events-events-und-tickets-tennis.news.Ym13LW9wZW4.html,https://shop.qtixx.com/online/index.php3?shopid=357&wes=emptysession
https://www.bmw.de/de/topics/faszination-bmw/sport-events/bmw-ticketshop/bob-skeleton-2015.html,https://shop.qtixx.com/online/index.php3?shopid=357&wes=emptysession
https://www.bmw.de/de/topics/faszination-bmw/bmw-xdrive-erleben/bmw-xdrive/bmw-xdrive.html,https://www.bmw.de/de/topics/faszination-bmw/bmw-xdrive-erleben/uebersicht.html
https://www.bmw.de/de/fastlane/elektromobilitaet/faq-edrive.html,https://www.bmw.de/de/index.html?kfirst-action=oa_FAQ%20Allgemein
https://www.bmw.de/de/fastlane/grosskunden-behoerden/diplomatic-sales.html,https://www.bmw.de/de/topics/faszination-bmw/grosskunden-behoerden/behoerdenfahrzeuge.html
https://www.bmw.de/de/topics/faszination-bmw/unternehmen/m-gmbh-2014/m-performance-automobile.html,https://www.bmw.de/de/neufahrzeuge/m.html
https://www.bmw.de/de/topics/gebrauchtfahrzeuge/Fahrzeugarten/jahreswagen/vorvertragspool.html,https://www.bmw.de/de/topics/gebrauchtfahrzeuge/Fahrzeugarten/jahreswagen.html
https://www.bmw.de/de/topics/service-zubehoer/bmw-service/serviceamfahrzeug/schoenheitsreparatur.html,https://www.bmw.de/de/topics/service-zubehoer/bmw-service/reparatur-und-pflege/vehicle-check-maintenance.html
https://www.bmw.de/de/footer/publications-links/technology-guide/navgiationssystem-professional.html,https://www.bmw.de/de/topics/service-zubehoer/connecteddrive/bmw-connected-drive-uebersicht.html
https://www.bmw.de/de/neufahrzeuge/4er/cabrio/2017.html,https://www.bmw.de/de/neufahrzeuge/4er/cabrio/2019/bmw-4er-cabrio-entdecken.html
https://www.bmw.de/de/neufahrzeuge/4er/cabrio/2017/at-a-glance.html,https://www.bmw.de/de/neufahrzeuge/4er/cabrio/2019/bmw-4er-cabrio-entdecken.html
https://www.bmw.de/de/neufahrzeuge/4er/cabrio/2017/bmw-4-series-convertible.html,https://www.bmw.de/de/neufahrzeuge/4er/cabrio/2019/bmw-4er-cabrio-entdecken.html
https://www.bmw.de/de/neufahrzeuge/4er/cabrio/2017/connectivity.html,https://www.bmw.de/de/neufahrzeuge/4er/cabrio/2019/bmw-4er-cabrio-entdecken.html
https://www.bmw.de/de/neufahrzeuge/4er/cabrio/2017/design.html,https://www.bmw.de/de/neufahrzeuge/4er/cabrio/2019/bmw-4er-cabrio-entdecken.html
https://www.bmw.de/de/neufahrzeuge/4er/cabrio/2017/driving-dynamics.html,https://www.bmw.de/de/neufahrzeuge/4er/cabrio/2019/bmw-4er-cabrio-entdecken.html
https://www.bmw.de/de/neufahrzeuge/4er/cabrio/2017/facts-copy-for-incident-analysis.html,https://www.bmw.de/de/neufahrzeuge/4er/cabrio/2019/bmw-4er-cabrio-entdecken.html
https://www.bmw.de/de/neufahrzeuge/4er/cabrio/2017/images-and-videos.html,https://www.bmw.de/de/neufahrzeuge/4er/cabrio/2019/bmw-4er-cabrio-entdecken.html
https://www.bmw.de/komplettraeder,https://www.bmw.de/de/topics/service-zubehoer/original-bmw-zubehoer/reifen.html
https://www.bmw.de/mr_kaltenbachgruppe,https://www.bmw-motorrad.de/de/home.html
https://www.bmw.de/de/topics/offers-and-services/original-bmw-accessories/bmw-m-performance/uebersicht.html,https://www.bmw.de/de/topics/service-zubehoer/original-bmw-zubehoer/uebersicht.html
https://www.bmw.de/de/topics/gebrauchtfahrzeuge/europlus-garantie.html,https://www.bmw.de/de/topics/gebrauchtfahrzeuge/gebrauchtwagenboerse.html?icp=de:L1Gebrauchtwagen:unxmainnav#/bookmark=aHR0cHM6Ly9icHMuYm13LmNvbS9ERS9kZV9ERS9uc2MvRVVST1BsdXNHYXJhbnRpZQ==
https://www.bmw.de/de/topics/gebrauchtfahrzeuge/fahrzeugarten.html,https://www.bmw.de/de/topics/gebrauchtfahrzeuge/gebrauchtwagenboerse.html?icp=de:L1Gebrauchtwagen:unxmainnav#/bookmark=aHR0cHM6Ly9icHMuYm13LmNvbS9ERS9kZV9ERS9uc2Mv
https://www.bmw.de/de/topics/gebrauchtfahrzeuge/premium-selection.html,https://www.bmw.de/de/topics/gebrauchtfahrzeuge/gebrauchtwagenboerse.html?icp=de:L1Gebrauchtwagen:unxmainnav#/bookmark=aHR0cHM6Ly9icHMuYm13LmNvbS9ERS9kZV9ERS9uc2MvR2FyYW50aWU=
https://www.bmw.de/de/topics/gebrauchtfahrzeuge/garantien.html,https://www.bmw.de/de/topics/gebrauchtfahrzeuge/gebrauchtwagenboerse.html?icp=de:L1Gebrauchtwagen:unxmainnav#/bookmark=aHR0cHM6Ly9icHMuYm13LmNvbS9ERS9kZV9ERS9uc2Mv
https://www.bmw.de/de/topics/neuwagen/finanzierung-leasing.html,https://www.bmw.de/de/topics/faszination-bmw/financial-services/uebersicht.html
https://www.bmw.de/de/topics/fascination-bmw/corporate-direct-sales/government-vehicles/fahrsicherheitstraining.html,https://www.bmw.de/de/topics/faszination-bmw/grosskunden-behoerden/behoerdenfahrzeuge.html
https://www.bmw.de/de/topics/fascination-bmw/corporate-direct-sales/authority-vehicles/fahrsicherheitstraining.html,https://www.bmw.de/de/topics/faszination-bmw/grosskunden-behoerden/behoerdenfahrzeuge.html
https://www.bmw.de/de/topics/fascination-bmw/gebrauchtfahrzeuge/gebrauchtfahrzeuge.html,https://www.bmw.de/de/topics/gebrauchtfahrzeuge/gebrauchtwagenboerse.html?icp=de:L1Gebrauchtwagen:unxmainnav#/bookmark=aHR0cHM6Ly9icHMuYm13LmNvbS9ERS9kZV9ERS9uc2Mv
https://www.bmw.de/de/topics/fascination-bmw/gebrauchtfahrzeuge.html,https://www.bmw.de/de/topics/gebrauchtfahrzeuge/gebrauchtwagenboerse.html?icp=de:L1Gebrauchtwagen:unxmainnav#/bookmark=aHR0cHM6Ly9icHMuYm13LmNvbS9ERS9kZV9ERS9uc2Mv
https://www.bmw.de/de/topics/fascination-bmw/connected-drive/connecteddrive-for-users/connecteddrive-info.html,https://www.bmw.de/de/topics/service-zubehoer/connecteddrive/connecteddrive-services-offers.html
https://www.bmw.de/de/topics/fascination-bmw/connected-drive/connecteddrive-for-users/requirements-availability.html,https://www.bmw.de/de/topics/service-zubehoer/connecteddrive/connecteddrive-services-offers.html
https://www.bmw.de/de/topics/fascination-bmw/bmw-apps.html,https://www.bmw.de/de/topics/service-zubehoer/bmw-apps/apps.html
https://www.bmw.de/de/topics/fascination-bmw/sport-und-events/open.html,https://www.bmwopenbyfwu.de/
https://www.bmw.de/de/topics/faq.html,https://www.bmw.de/de/index.html?kfirst-action=oa_FAQ%20Allgemein
https://www.bmw.de/de/footer/metanavigation/contact/faq.html,https://www.bmw.de/de/index.html?kfirst-action=oa_FAQ%20Allgemein
https://www.bmw.de/de/footer/q-and-a.html,https://www.bmw.de/de/index.html?kfirst-action=oa_FAQ%20Allgemein
https://www.bmw.de/de/all-models/edrive/bmw-iperformance-modelle/bmw-2er-active-tourer.html,https://www.bmw.de/de/neufahrzeuge/2er/activetourer/2018/iperformance.html
https://www.bmw.de/de/all-models/edrive/bmw-iperformance-modelle/BMW-X5-xDrive45e.html,https://www.bmw.de/de/neufahrzeuge/x/x5/2018/bmw-x5-auf-einen-blick.html#x5-xdrive45e-iperformance
https://www.bmw.de/de/all-models/edrive/bmw-iperformance-modelle.html,https://www.bmw.de/de/topics/faszination-bmw/elektromobilitaet/modelle-mit-edrive.html
https://www.bmw.de/de/all-models/edrive/bmw-iperformance-modelle/bmw-7er-limousine/iperformance.html,https://www.bmw.de/de/neufahrzeuge/7er/limousine/2019/bmw-7er-limousine-entdecken.html#phev
https://www.bmw.de/de/all-models/edrive/bmw-iperformance-modelle/bmw-x3-xDrive30e.html,https://www.bmw.de/de/neufahrzeuge/x/x3/2019/bmw-x3-informieren.html#phev
https://www.bmw.de/de/all-models/edrive/bmw-3er-limousine-phev/2018.html,https://www.bmw.de/de/neufahrzeuge/3er/limousine/2018/bmw-3er-limousine-entdecken.html#phev
https://www.bmw.de/de/all-models/edrive/bmw-7er-limousine-phev/2015.html,https://www.bmw.de/de/neufahrzeuge/7er/limousine/2019/bmw-7er-limousine-entdecken.html#phev
https://www.bmw.de/de/all-models/edrive/bmw-7er-limousine-phev.html,https://www.bmw.de/de/neufahrzeuge/7er/limousine/2019/bmw-7er-limousine-entdecken.html#phev
https://www.bmw.de/de/all-models/4/cabrio/2013/start.html,https://www.bmw.de/de/neufahrzeuge/4er/cabrio/2019/bmw-4er-cabrio-entdecken.html
https://www.bmw.de/de/all-models/4/cabrio.html,https://www.bmw.de/de/neufahrzeuge/4er/cabrio/2019/bmw-4er-cabrio-entdecken.html
https://www.bmw.de/de/all-models/4/cabrio/2017/technische-daten.html,https://www.bmw.de/de/neufahrzeuge/4er/cabrio/2019/bmw-4er-cabrio-informieren.html
https://www.bmw.de/de/all-models/4/cabrio/2017/bmw-4er-cabrio.html,https://www.bmw.de/de/neufahrzeuge/4er/cabrio/2019/bmw-4er-cabrio-entdecken.html
https://www.bmw.de/de/all-models/4/cabrio/2017/auf-einen-blick.html,https://www.bmw.de/de/neufahrzeuge/4er/cabrio/2019/bmw-4er-cabrio-entdecken.html
https://www.bmw.de/de/all-models/4/cabrio/2017/design.html,https://www.bmw.de/de/neufahrzeuge/4er/cabrio/2019/bmw-4er-cabrio-entdecken.html
https://www.bmw.de/de/all-models/4/cabrio/2017/fakten.html,https://www.bmw.de/de/neufahrzeuge/4er/cabrio/2019/bmw-4er-cabrio-kaufen.html
https://www.bmw.de/de/all-models/4/cabrio/2017.html,https://www.bmw.de/de/neufahrzeuge/4er/cabrio/2019/bmw-4er-cabrio-entdecken.html
https://www.bmw.de/de/all-models/4/cabrio/2017/connectivity-fahrerassistenz.html,https://www.bmw.de/de/neufahrzeuge/4er/cabrio/2019/bmw-4er-cabrio-informieren.html
https://www.bmw.de/de/all-models/4/cabrio/2017/bilder-videos.html,https://www.bmw.de/de/neufahrzeuge/4er/cabrio/2019/bmw-4er-cabrio-entdecken.html
https://www.bmw.de/de/all-models/4/cabrio/2017/fahrdynamik-effizienz.html,https://www.bmw.de/de/neufahrzeuge/4er/cabrio/2019/bmw-4er-cabrio-informieren.html
https://www.bmw.de/de/all-models/4/gran-coupe/2014/start.html,https://www.bmw.de/de/neufahrzeuge/4er/gran-coupe/2019/bmw-4er-gran-coupe-entdecken.html
https://www.bmw.de/de/all-models/4/gran-coupe.html,https://www.bmw.de/de/neufahrzeuge/4er/gran-coupe/2019/bmw-4er-gran-coupe-entdecken.html
https://www.bmw.de/de/all-models/4/gran-coupe/2017/technische-daten.html,https://www.bmw.de/de/neufahrzeuge/4er/gran-coupe/2019/bmw-4er-gran-coupe-informieren.html
https://www.bmw.de/de/all-models/4/gran-coupe/2017/auf-einen-blick.html,https://www.bmw.de/de/neufahrzeuge/4er/gran-coupe/2019/bmw-4er-gran-coupe-entdecken.html
https://www.bmw.de/de/all-models/4/gran-coupe/2017/design.html,https://www.bmw.de/de/neufahrzeuge/4er/gran-coupe/2019/bmw-4er-gran-coupe-entdecken.html
https://www.bmw.de/de/all-models/4/gran-coupe/2017/bmw-4er-gran-coupe.html,https://www.bmw.de/de/neufahrzeuge/4er/gran-coupe/2019/bmw-4er-gran-coupe-entdecken.html
https://www.bmw.de/de/all-models/4/gran-coupe/2017.html,https://www.bmw.de/de/neufahrzeuge/4er/gran-coupe/2019/bmw-4er-gran-coupe-entdecken.html
https://www.bmw.de/de/all-models/4/gran-coupe/2017/connectivity-fahrerassistenz.html,https://www.bmw.de/de/neufahrzeuge/4er/gran-coupe/2019/bmw-4er-gran-coupe-informieren.html
https://www.bmw.de/de/all-models/4/gran-coupe/2017/bilder-videos.html,https://www.bmw.de/de/neufahrzeuge/4er/gran-coupe/2019/bmw-4er-gran-coupe-entdecken.html
https://www.bmw.de/de/all-models/4/gran-coupe/2017/fahrdynamik-effizienz.html,https://www.bmw.de/de/neufahrzeuge/4er/gran-coupe/2019/bmw-4er-gran-coupe-informieren.html
https://www.bmw.de/de/all-models/4/gran-coupe/2017/facts.html,https://www.bmw.de/de/neufahrzeuge/4er/gran-coupe/2019/bmw-4er-gran-coupe-kaufen.html
https://www.bmw.de/de/all-models/4/coupe/2013/start.html,https://www.bmw.de/de/neufahrzeuge/4er/coupe/2019/bmw-4er-coupe-entdecken.html
https://www.bmw.de/de/all-models/4/coupe.html,https://www.bmw.de/de/neufahrzeuge/4er/coupe/2019/bmw-4er-coupe-entdecken.html
https://www.bmw.de/de/all-models/4/coupe/2017/bmw-4er-coupe.html,https://www.bmw.de/de/neufahrzeuge/4er/coupe/2019/bmw-4er-coupe-entdecken.html
https://www.bmw.de/de/all-models/4/coupe/2017/technische-daten.html,https://www.bmw.de/de/neufahrzeuge/4er/coupe/2019/bmw-4er-coupe-informieren.html
https://www.bmw.de/de/all-models/4/coupe/2017/auf-einen-blick.html,https://www.bmw.de/de/neufahrzeuge/4er/coupe/2019/bmw-4er-coupe-entdecken.html
https://www.bmw.de/de/all-models/4/coupe/2017/design.html,https://www.bmw.de/de/neufahrzeuge/4er/coupe/2019/bmw-4er-coupe-entdecken.html
https://www.bmw.de/de/all-models/4/coupe/2017/fakten.html,https://www.bmw.de/de/neufahrzeuge/4er/coupe/2019/bmw-4er-coupe-kaufen.html
https://www.bmw.de/de/all-models/4/coupe/2017.html,https://www.bmw.de/de/neufahrzeuge/4er/coupe/2019/bmw-4er-coupe-entdecken.html
https://www.bmw.de/de/all-models/4/coupe/2017/connectivity-fahrerassistenz.html,https://www.bmw.de/de/neufahrzeuge/4er/coupe/2019/bmw-4er-coupe-informieren.html
https://www.bmw.de/de/all-models/4/coupe/2017/bilder-videos.html,https://www.bmw.de/de/neufahrzeuge/4er/coupe/2019/bmw-4er-coupe-entdecken.html
https://www.bmw.de/de/all-models/4/coupe/2017/fahrdynamik-effizienz.html,https://www.bmw.de/de/neufahrzeuge/4er/coupe/2019/bmw-4er-coupe-informieren.html
https://www.bmw.de/de/all-models/4.html,https://www.bmw.de/de/neufahrzeuge/4er/gran-coupe/2019/bmw-4er-gran-coupe-entdecken.html
https://www.bmw.de/de/all-models/bmw-i/bmw-i/bmw-i-faq.html,https://www.bmw.de/de/neufahrzeuge/bmw-i.html
https://www.bmw.de/de/all-models/bmw-m-performance/bmw-x4-m40d/2018.html,https://www.bmw.de/de/neufahrzeuge/m/x4-m/2019/bmw-x4m-entdecken.html
https://www.bmw.de/de/all-models/bmw-m-performance/bmw-x4-m40i/2018.html,https://www.bmw.de/de/neufahrzeuge/m/x4-m/2019/bmw-x4m-entdecken.html
https://www.bmw.de/de/all-models/bmw-m-performance/bmw-x2-m35i/2017.html,https://www.bmw.de/de/neufahrzeuge/x/x2/2017/auf-einen-blick.html#bmw-x2-m35i
https://www.bmw.de/de/all-models/bmw-m-performance/bmw-x3-m40i/2017.html,https://www.bmw.de/de/neufahrzeuge/m/x3-m/2019/bmw-x3m-entdecken.html
https://www.bmw.de/de/landingpage/gwslandingpage-test.html,https://aktion.bmw.de
https://www.bmw.de/de/publicPools/external-redirect-pool/BMWTV_2er_grantourer.html,
https://www.bmw.de/de/publicPools/external-redirect-pool/bmwtv-m4-gts.html,
https://www.bmw.de/de/publicPools/external-redirect-pool/BMW_TV_3er.html,
https://www.bmw.de/de/publicPools/external-redirect-pool/bmwexcellenceclub.html,https://www.bmw.de/de/neufahrzeuge/7er/limousine/2019/bmw-7er-limousine-kaufen.html
https://www.bmw.de/de/publicPools/external-redirect-pool/nl_sept_F45_bmwtv_1.html,
https://www.bmw.de/de/publicPools/external-redirect-pool/BMW_TV_Mission_fahrfreude.html,
https://www.bmw.de/de/publicPools/external-redirect-pool/nl_sept_TVC_F45.html,
https://www.bmw.de/de/publicPools/external-redirect-pool/flottenkundenumfrage.html,https://www.bmw.de/de/topics/faszination-bmw/grosskunden-behoerden/uebersicht.html
https://www.bmw.de/de/publicPools/external-redirect-pool/bmwtv7er.html,
https://www.bmw.de/de/publicPools/external-redirect-pool/nl_sept_F45_bmwtv_2.html,
https://www.bmw.de/de/publicPools/external-redirect-pool/BMWTV_1er_rtti.html,
https://www.bmw.de/de/publicPools/external-redirect-pool/BMWTV_BMW_welcomes.html,
https://www.bmw.de/de/publicPools/external-redirect-pool/bmwtv_BMWi8_Juni.html,
https://www.bmw.de/de/publicPools/external-redirect-pool/BMWTV_1er.html,
https://www.bmw.de/de/publicPools/external-redirect-pool/international-open.html,
https://www.bmw.de/de/publicPools/external-redirect-pool/bmwtv_iaa_highlights.html,
https://www.bmw.de/de/publicPools/external-redirect-pool/mybmw-inspiration.html,https://www.bmw.de/de/topics/mein-bmw.html
https://www.bmw.de/de/publicPools/external-redirect-pool/BMWTV_7er_2015.html,
https://www.bmw.de/de/publicPools/external-redirect-pool/BMWTV_freiheitverdichtet.html,
https://www.bmw.de/de/publicPools/external-redirect-pool/i8_premiere_videoteaser.html,
https://www.bmw.de/de/publicPools/external-redirect-pool/meinname.html,https://www.bmw.de/de/home.html
https://www.bmw.de/de/publicPools/external-redirect-pool/mybmw-inspiration-app.html,https://www.bmw.de/de/topics/service-zubehoer/bmw-apps/apps.html
https://www.bmw.de/de/publicPools/external-redirect-pool/BMW_X4_entdecken.html,https://www.bmw.de/de/neufahrzeuge/x/x4/2018/auf-einen-blick.html
https://www.bmw.de/de/publicPools/external-redirect-pool/BMWTV_BMWX6.html,
https://www.bmw.de/de/publicPools/external-redirect-pool/BMW_i8_Zeitreise.html,https://www.bmw.de/de/neufahrzeuge/bmw-i/i8-coupe/2017/auf-einen-blick.html
https://www.bmw.de/de/publicPools/external-redirect-pool/BMW_TV_2erGT_TVspot.html,
https://www.bmw.de/de/publicPools/external-redirect-pool/BMWTV_zanardi.html,
https://www.bmw.de/de/publicPools/external-redirect-pool/bmwtv_m4_gts.html,
https://www.bmw.de/de/publicPools/external-redirect-pool/BMWTV_wintersaison.html,
https://www.bmw.de/de/publicPools/external-redirect-pool/BMWTV_DTM_2015_Auftakt.html,
https://www.bmw.de/de/publicPools/external-redirect-pool/BMWTV_xdrive.html,
https://www.bmw.de/de/publicPools/external-redirect-pool/meinetui.html,https://www.bmw.de/de/home.html
https://www.bmw.de/de/publicPools/external-redirect-pool/drivingexperience_booking.html,https://www.bmw.de/de/topics/faszination-bmw/bmw-erleben/bmw-driving-experience.html
https://www.bmw.de/de/publicPools/external-redirect-pool/BMWTV_2erCabrioInfo.html,
https://www.bmw.de/de/publicPools/external-redirect-pool/x3-connected.html,https://www.bmw.de/de/neufahrzeuge/x/x3/2019/bmw-x3-informieren.html
https://www.bmw.de/de/publicPools/external-redirect-pool/driving-academy.html,https://www.bmw.de/de/topics/faszination-bmw/bmw-erleben/bmw-driving-experience.html
https://www.bmw.de/de/publicPools/external-redirect-pool/bmwtv303_story.html,
https://www.bmw.de/de/publicPools/external-redirect-pool/erlebnisschalter.html,https://www.bmw.de/de/home.html
https://www.bmw.de/de/publicPools/external-redirect-pool/drivingacademy.html,https://www.bmw.de/de/topics/faszination-bmw/bmw-erleben/bmw-driving-experience.html
https://www.bmw.de/de/publicPools/external-redirect-pool/dld-2016.html,
https://www.bmw.de/de/publicPools/external-redirect-pool/BMWTV_X1.html,