https://www.bmw.de/de/publicPools/external-redirect-pool/BMWTV_2er_grantourer.html,404
https://www.bmw.de/de/publicPools/external-redirect-pool/bmwtv-m4-gts.html,404
https://www.bmw.de/de/publicPools/external-redirect-pool/BMW_TV_3er.html,404
https://www.bmw.de/de/publicPools/external-redirect-pool/nl_sept_F45_bmwtv_1.html,404
https://www.bmw.de/de/publicPools/external-redirect-pool/BMW_TV_Mission_fahrfreude.html,404
https://www.bmw.de/de/publicPools/external-redirect-pool/nl_sept_TVC_F45.html,404
https://www.bmw.de/de/publicPools/external-redirect-pool/bmwtv7er.html,404
https://www.bmw.de/de/publicPools/external-redirect-pool/nl_sept_F45_bmwtv_2.html,404
https://www.bmw.de/de/publicPools/external-redirect-pool/BMWTV_1er_rtti.html,404
https://www.bmw.de/de/publicPools/external-redirect-pool/BMWTV_BMW_welcomes.html,404
https://www.bmw.de/de/publicPools/external-redirect-pool/bmwtv_BMWi8_Juni.html,404
https://www.bmw.de/de/publicPools/external-redirect-pool/BMWTV_1er.html,404
https://www.bmw.de/de/publicPools/external-redirect-pool/international-open.html,404
https://www.bmw.de/de/publicPools/external-redirect-pool/bmwtv_iaa_highlights.html,404
https://www.bmw.de/de/publicPools/external-redirect-pool/BMWTV_7er_2015.html,404
https://www.bmw.de/de/publicPools/external-redirect-pool/BMWTV_freiheitverdichtet.html,404
https://www.bmw.de/de/publicPools/external-redirect-pool/i8_premiere_videoteaser.html,404
https://www.bmw.de/de/publicPools/external-redirect-pool/BMWTV_BMWX6.html,404
https://www.bmw.de/de/publicPools/external-redirect-pool/BMW_TV_2erGT_TVspot.html,404
https://www.bmw.de/de/publicPools/external-redirect-pool/BMWTV_zanardi.html,404
https://www.bmw.de/de/publicPools/external-redirect-pool/bmwtv_m4_gts.html,404
https://www.bmw.de/de/publicPools/external-redirect-pool/BMWTV_wintersaison.html,404
https://www.bmw.de/de/publicPools/external-redirect-pool/BMWTV_DTM_2015_Auftakt.html,404
https://www.bmw.de/de/publicPools/external-redirect-pool/BMWTV_xdrive.html,404
https://www.bmw.de/de/publicPools/external-redirect-pool/BMWTV_2erCabrioInfo.html,404
https://www.bmw.de/de/publicPools/external-redirect-pool/bmwtv303_story.html,404
https://www.bmw.de/de/publicPools/external-redirect-pool/dld-2016.html,404
https://www.bmw.de/de/publicPools/external-redirect-pool/BMWTV_X1.html,404
