https://www.bmw.de/dam/brandBM/marketDE/countryDE/teaserpool/newsletter/index.html,https://www.bmw.de/content/dam/bmw/marketDE/bmw_de/teaser/newsletter/index.html
https://www.bmw.de/de/neufahrzeuge/5er/limousine/2016/business-assistenzsysteme/bedienkonzept.html,https://www.bmw.de/de/all-models/5-series/sedan/2016-old/business-assistenzsysteme/bedienkonzept.html
https://www.bmw.de/de/neufahrzeuge/5er/limousine/2016/business-assistenzsysteme/connectivity.html,https://www.bmw.de/de/all-models/5-series/sedan/2016-old/business-assistenzsysteme/connectivity.html
https://www.bmw.de/de/neufahrzeuge/5er/limousine/2016/business-assistenzsysteme/fahrerassistenz.html,https://www.bmw.de/de/all-models/5-series/sedan/2016-old/business-assistenzsysteme/fahrerassistenz.html
https://www.bmw.de/de/neufahrzeuge/5er/limousine/2016/business-assistenzsysteme/navigation.html,https://www.bmw.de/de/all-models/5-series/sedan/2016-old/business-assistenzsysteme/navigation.html
https://www.bmw.de/de/neufahrzeuge/5er/limousine/2016/modelle-ausstattungen/ausstattungspakete.html,https://www.bmw.de/de/all-models/5-series/sedan/2016-old/modelle-aussstattungen/ausstattungspakete.html
https://www.bmw.de/de/neufahrzeuge/5er/limousine/2016/modelle-ausstattungen/bmw-520d-ed.html,https://www.bmw.de/de/all-models/5-series/sedan/2016-old/modelle-aussstattungen/bmw-520d-ed.html
https://www.bmw.de/de/neufahrzeuge/5er/limousine/2016/modelle-ausstattungen/lines.html,https://www.bmw.de/de/all-models/5-series/sedan/2016-old/modelle-aussstattungen/lines.html
https://www.bmw.de/de/neufahrzeuge/5er/touring/2017/business-assistenzsysteme/fahrerassistenz.html,https://www.bmw.de/de/all-models/5-series/touring/2017_old/business-assistenzsysteme/fahrerassistenz.html
https://www.bmw.de/de/neufahrzeuge/5er/touring/2017/business-assistenzsysteme/navigation.html,https://www.bmw.de/de/all-models/5-series/touring/2017_old/business-assistenzsysteme/navigation.html
https://www.bmw.de/de/neufahrzeuge/5er/touring/2017/lines-ausstattungen/ausstattungspakete.html,https://www.bmw.de/de/all-models/5-series/touring/2017_old/lines-ausstattungen/ausstattungspakete.html
https://www.bmw.de/de/neufahrzeuge/5er/touring/2017/lines-ausstattungen/bmw-individual.html,https://www.bmw.de/de/all-models/5-series/touring/2017_old/lines-ausstattungen/bmw-individual.html
https://www.bmw.de/de/neufahrzeuge/5er/touring/2017/lines-ausstattungen/lines.html,https://www.bmw.de/de/all-models/5-series/touring/2017_old/lines-ausstattungen/lines.html
https://www.bmw.de/de/neufahrzeuge/5er/touring/2017/lines-ausstattungen/m-performance.html,https://www.bmw.de/de/all-models/5-series/touring/2017_old/lines-ausstattungen/m-performance.html
https://www.bmw.de/de/neufahrzeuge/5er/touring/2017/lines-ausstattungen/original-bmw-zubehoer.html,https://www.bmw.de/de/all-models/5-series/touring/2017_old/lines-ausstattungen/original-bmw-zubehoer.html
https://www.bmw.de/de/all-models/7-series/sedan/2015.html,https://www.bmw.de/de/all-models/7-series/sedan/2019.html
https://www.bmw.de/de/all-models/7-series/sedan/2015/40-years.html,https://www.bmw.de/de/all-models/7-series/sedan/2019/bmw-7er-limousine-entdecken.html
https://www.bmw.de/de/all-models/7-series/sedan/2015/at-a-glance.html,https://www.bmw.de/de/all-models/7-series/sedan/2019/bmw-7er-limousine-entdecken.html
https://www.bmw.de/de/all-models/7-series/sedan/2015/design.html,https://www.bmw.de/de/all-models/7-series/sedan/2019/bmw-7er-limousine-entdecken.html
https://www.bmw.de/de/all-models/7-series/sedan/2015/driver-assistance.html,https://www.bmw.de/de/all-models/7-series/sedan/2019/bmw-7er-limousine-entdecken.html
https://www.bmw.de/de/all-models/7-series/sedan/2015/driving-dynamics-efficiency.html,https://www.bmw.de/de/all-models/7-series/sedan/2019/bmw-7er-limousine-entdecken.html
https://www.bmw.de/de/all-models/7-series/sedan/2015/edrive.html,https://www.bmw.de/de/all-models/7-series/sedan/2019/bmw-7er-limousine-entdecken.html
https://www.bmw.de/de/all-models/7-series/sedan/2015/engines.html,https://www.bmw.de/de/all-models/7-series/sedan/2019/bmw-7er-limousine-entdecken.html
https://www.bmw.de/de/all-models/7-series/sedan/2015/facts.html,https://www.bmw.de/de/all-models/7-series/sedan/2019/bmw-7er-limousine-entdecken.html
https://www.bmw.de/de/all-models/7-series/sedan/2015/highlights.html,https://www.bmw.de/de/all-models/7-series/sedan/2019/bmw-7er-limousine-entdecken.html
https://www.bmw.de/de/all-models/7-series/sedan/2015/images-and-videos.html,https://www.bmw.de/de/all-models/7-series/sedan/2019/bmw-7er-limousine-entdecken.html
https://www.bmw.de/de/all-models/7-series/sedan/2015/innovative-functionality.html,https://www.bmw.de/de/all-models/7-series/sedan/2019/bmw-7er-limousine-entdecken.html
https://www.bmw.de/de/all-models/7-series/sedan/2015/live-copy-test.html,https://www.bmw.de/de/all-models/7-series/sedan/2019/bmw-7er-limousine-entdecken.html
https://www.bmw.de/de/all-models/7-series/sedan/2015/m-performance.html,https://www.bmw.de/de/all-models/7-series/sedan/2019/bmw-7er-limousine-entdecken.html
https://www.bmw.de/de/all-models/7-series/sedan/2015/services-and-apps.html,https://www.bmw.de/de/all-models/7-series/sedan/2019/bmw-7er-limousine-entdecken.html
https://www.bmw.de/de/all-models/7-series/sedan/2015/technical-data-old.html,https://www.bmw.de/de/all-models/7-series/sedan/2019/bmw-7er-limousine-entdecken.html
https://www.bmw.de/de/all-models/7-series/sedan/2015/technical-data.html,https://www.bmw.de/de/all-models/7-series/sedan/2019/bmw-7er-limousine-informieren.html
https://www.bmw.de/de/all-models/x-series/X3/2017.html,https://www.bmw.de/de/all-models/x-series/X3/2019.html
https://www.bmw.de/de/all-models/x-series/X3/2017/at-a-glance.html,https://www.bmw.de/de/all-models/x-series/X3/2019/bmw-x3-entdecken.html
https://www.bmw.de/de/all-models/x-series/X3/2017/connectivity-driver-assistance.html,https://www.bmw.de/de/all-models/x-series/X3/2019/bmw-x3-entdecken.html
https://www.bmw.de/de/all-models/x-series/X3/2017/design.html,https://www.bmw.de/de/all-models/x-series/X3/2019/bmw-x3-entdecken.html
https://www.bmw.de/de/all-models/x-series/X3/2017/driving-dynamics-efficiency.html,https://www.bmw.de/de/all-models/x-series/X3/2019/bmw-x3-entdecken.html
https://www.bmw.de/de/all-models/x-series/X3/2017/facts.html,https://www.bmw.de/de/all-models/x-series/X3/2019/bmw-x3-entdecken.html
https://www.bmw.de/de/all-models/x-series/X3/2017/images-videos.html,https://www.bmw.de/de/all-models/x-series/X3/2019/bmw-x3-entdecken.html
https://www.bmw.de/de/all-models/x-series/X3/2017/landingpage.html,https://www.bmw.de/de/all-models/x-series/X3/2019/bmw-x3-entdecken.html
https://www.bmw.de/de/all-models/x-series/X3/2017/m-performance.html,https://www.bmw.de/de/all-models/x-series/X3/2019/bmw-x3-entdecken.html
https://www.bmw.de/de/all-models/x-series/X3/2017/modelle-ausstattungen.html,https://www.bmw.de/de/all-models/x-series/X3/2019/bmw-x3-entdecken.html
https://www.bmw.de/de/all-models/x-series/X3/2017/technical-data.html,https://www.bmw.de/de/all-models/x-series/X3/2019/bmw-x3-entdecken.html
https://www.bmw.de/de/fastlane/grosskunden-behoerden/behoerdenfahrzeuge/konfigurator.html,https://www.bmw.de/de/fastlane/grosskunden-und-behoerden/government-vehicles/configurator.html
https://www.bmw.de/i/newsletter-abmeldung-bestaetigt,https://www.bmw.de/de/footer/footer-section/newsletteranmeldung.html
https://www.bmw.de/newsletter-abmeldung,https://www.bmw.de/de/footer/footer-section/newsletteranmeldung.html
https://www.bmw.de/newsletter-anmeldung-bestaetigt,https://www.bmw.de/de/footer/footer-section/newsletteranmeldung.html
https://www.bmw.de/newsletteranmeldung-bestaetigt,https://www.bmw.de/de/footer/footer-section/newsletteranmeldung.html
https://www.bmw.de/de/topics/bmw-kontakt/bmw-kundenbetreuung.html,https://www.bmw.de/de/footer/metanavigation/bmw-kontakt/bmw-kundenbetreuung.html
https://www.bmw.de/de/topics/bmw-kontakt/bmw-kundenbetreuung-connecteddrive.html,https://www.bmw.de/de/footer/metanavigation/bmw-kontakt/bmw-kundenbetreuung-connecteddrive.html
https://www.bmw.de/de/topics/bmw-kontakt/bmw-kundenbetreuung-finanzieren-versichern.html,https://www.bmw.de/de/footer/metanavigation/bmw-kontakt/bmw-kundenbetreuung-finanzieren-versichern.html
https://www.bmw.de/de/footer/legal-disclaimer.html,https://www.bmw.de/de/footer/metanavigation/data-privacy.html
https://www.bmw.de/de/footer/imprint-overview/privacy-policy-pool/datenschutz.html,https://www.bmw.de/de/footer/metanavigation/legal-disclaimer-pool/privacy-policy.html
https://www.bmw.de/de/footer/imprint-overview/imprint-pool/allgemein.html,https://www.bmw.de/de/footer/metanavigation/legal-notice-pool/imprint.html
https://www.bmw.de/de/footer/q-and-a/sitemap.html,https://www.bmw.de/de/footer/sitemap.html
https://www.bmw.de/de/neufahrzeuge/5er/gran-turismo/2013/start.html,https://www.bmw.de/de/home.html
https://www.bmw.de/de/neufahrzeuge/5er/gran-turismo/2013/uebersicht.html,https://www.bmw.de/de/home.html
https://www.bmw.de/de/neufahrzeuge/6er/coupe/2014/at-a-glance.html,https://www.bmw.de/de/home.html
https://www.bmw.de/de/neufahrzeuge/6er/coupe/2014/start.html,https://www.bmw.de/de/home.html
https://www.bmw.de/de/neufahrzeuge/m/m6-coupe/2015/start.html,https://www.bmw.de/de/home.html
https://www.bmw.de/de/ssl/requests/brand-switch-tda/tda-test-icon.html,https://www.bmw.de/de/home.html
https://www.bmw.de/de/topics/faszination-bmw/bmw-design/highlights.html,https://www.bmw.de/de/home.html
https://www.bmw.de/de/de,https://www.bmw.de/de/index.html
https://www.bmw.de/de/fastlane/bmw-100jahre/bmw-festival.html,https://www.bmw.de/de/index.html
https://www.bmw.de/de/fastlane/bmw-100jahre/innovationstag.html,https://www.bmw.de/de/index.html
https://www.bmw.de/de/footer/imprint-overview/imprint-pool/bmw-bank.html,https://www.bmw.de/de/index.html
https://www.bmw.de/de/footer/q-and-a/faq/my-bmw.html,https://www.bmw.de/de/index.html
https://www.bmw.de/de/meinbmw/angebote.mustlogin.html,https://www.bmw.de/de/index.html
https://www.bmw.de/de/meinbmw/kunden.mustlogin.html,https://www.bmw.de/de/index.html
https://www.bmw.de/de/meinbmw/meine-konfigurationen.mustlogin.html,https://www.bmw.de/de/index.html
https://www.bmw.de/de/meinbmw/myaccount/profil.mustlogin.html,https://www.bmw.de/de/index.html
https://www.bmw.de/de/meinbmw/myvehicles.mustlogin.html,https://www.bmw.de/de/index.html
https://www.bmw.de/de/meinbmw/myvehicles/vehicle-manual.html,https://www.bmw.de/de/index.html
https://www.bmw.de/de/meinbmw/start.html,https://www.bmw.de/de/index.html
https://www.bmw.de/de/neufahrzeuge/6er/coupe/2014/uebersicht.html,https://www.bmw.de/de/index.html
https://www.bmw.de/de/topics/faszination-bmw/bmw-100jahre/historie.html,https://www.bmw.de/de/index.html
https://www.bmw.de/de/topics/faszination-bmw/bmw-100jahre/innovationsmodelle.html,https://www.bmw.de/de/index.html
https://www.bmw.de/de/topics/faszination-bmw/bmw-100jahre/vision-next-100.html,https://www.bmw.de/de/index.html
https://www.bmw.de/de/topics/faszination-bmw/iaa-2017.html,https://www.bmw.de/de/index.html
https://www.bmw.de/de/topics/faszination-bmw/xchallenge.html,https://www.bmw.de/de/index.html
https://www.bmw.de/de/neufahrzeuge/6er/cabrio/2014/ausstattungen.html,https://www.bmw.de/de/neufahrzeuge.html
https://www.bmw.de/de/neufahrzeuge/6er/cabrio/2014/bilder-videos.html,https://www.bmw.de/de/neufahrzeuge.html
https://www.bmw.de/de/neufahrzeuge/6er/cabrio/2014/design.html,https://www.bmw.de/de/neufahrzeuge.html
https://www.bmw.de/de/neufahrzeuge/6er/cabrio/2014/dynamik-und-effizienz.html,https://www.bmw.de/de/neufahrzeuge.html
https://www.bmw.de/de/neufahrzeuge/6er/cabrio/2014/fahrerassistenz.html,https://www.bmw.de/de/neufahrzeuge.html
https://www.bmw.de/de/neufahrzeuge/6er/cabrio/2014/fakten.html,https://www.bmw.de/de/neufahrzeuge.html
https://www.bmw.de/de/neufahrzeuge/6er/cabrio/2014/highlights.html,https://www.bmw.de/de/neufahrzeuge.html
https://www.bmw.de/de/neufahrzeuge/6er/cabrio/2014/services-und-apps.html,https://www.bmw.de/de/neufahrzeuge.html
https://www.bmw.de/de/neufahrzeuge/6er/cabrio/2014/sicherheit-und-komfort.html,https://www.bmw.de/de/neufahrzeuge.html
https://www.bmw.de/de/neufahrzeuge/6er/grancoupe/2014/ausstattungen.html,https://www.bmw.de/de/neufahrzeuge.html
https://www.bmw.de/de/neufahrzeuge/6er/grancoupe/2014/bilder-videos.html,https://www.bmw.de/de/neufahrzeuge.html
https://www.bmw.de/de/neufahrzeuge/6er/grancoupe/2014/design.html,https://www.bmw.de/de/neufahrzeuge.html
https://www.bmw.de/de/neufahrzeuge/6er/grancoupe/2014/fahrdynamik-und-effizienz.html,https://www.bmw.de/de/neufahrzeuge.html
https://www.bmw.de/de/neufahrzeuge/6er/grancoupe/2014/fahrerassistenz.html,https://www.bmw.de/de/neufahrzeuge.html
https://www.bmw.de/de/neufahrzeuge/6er/grancoupe/2014/fakten.html,https://www.bmw.de/de/neufahrzeuge.html
https://www.bmw.de/de/neufahrzeuge/6er/grancoupe/2014/highlights.html,https://www.bmw.de/de/neufahrzeuge.html
https://www.bmw.de/de/neufahrzeuge/6er/grancoupe/2014/komfort.html,https://www.bmw.de/de/neufahrzeuge.html
https://www.bmw.de/de/neufahrzeuge/6er/grancoupe/2014/services-und-apps.html,https://www.bmw.de/de/neufahrzeuge.html
https://www.bmw.de/de/neufahrzeuge/m/m6-coupe/2015/technische-daten.html,https://www.bmw.de/de/neufahrzeuge.html
https://www.bmw.de/interaktiv,https://www.bmw.de/de/neufahrzeuge.html
https://www.bmw.de/de/neufahrzeuge/1er/activeE/2011/start.html,https://www.bmw.de/de/neufahrzeuge/1er.html
https://www.bmw.de/de/neufahrzeuge/1er/3-tuerer/2015/start.html,https://www.bmw.de/de/neufahrzeuge/1er/3-tuerer/2017/auf-einen-blick.html
https://www.bmw.de/de/neufahrzeuge/1er/3-tuerer/2015/startseite.html,https://www.bmw.de/de/neufahrzeuge/1er/3-tuerer/2017/auf-einen-blick.html
https://www.bmw.de/de/neufahrzeuge/1er/3-tuerer/2012/design.html,https://www.bmw.de/de/neufahrzeuge/1er/3-tuerer/2017/design.html
https://www.bmw.de/de/neufahrzeuge/bmw-m-performance/bmw-m140i-3-door.html,https://www.bmw.de/de/neufahrzeuge/1er/3-tuerer/2017/m-performance.html
https://www.bmw.de/de/neufahrzeuge/1er/5-tuerer/2015/start.html,https://www.bmw.de/de/neufahrzeuge/1er/5-tuerer/2017/auf-einen-blick.html
https://www.bmw.de/de/neufahrzeuge/1er/5-tuerer/2015/startseite.html,https://www.bmw.de/de/neufahrzeuge/1er/5-tuerer/2017/auf-einen-blick.html
https://www.bmw.de/de/neufahrzeuge/1er/5-tuerer/2015/services-apps.html,https://www.bmw.de/de/neufahrzeuge/1er/5-tuerer/2017/connectivity-fahrerassistenz.html
https://www.bmw.de/de/neufahrzeuge/1er/5-tuerer/2017/fakten.html,https://www.bmw.de/de/neufahrzeuge/1er/5-tuerer/2017/facts.html
https://www.bmw.de/de/neufahrzeuge/bmw-m-performance/bmw-m140i-5-door.html,https://www.bmw.de/de/neufahrzeuge/1er/5-tuerer/2017/m-performance.html
https://www.bmw.de/de/neufahrzeuge/2er/activetourer/2014-update/startseite.html,https://www.bmw.de/de/neufahrzeuge/2er/activetourer/2014/start.html
https://www.bmw.de/de/neufahrzeuge/2er/activetourer/2014/alle-fakten.html,https://www.bmw.de/de/neufahrzeuge/2er/activetourer/2014/uebersicht.html
https://www.bmw.de/de/neufahrzeuge/2er/activetourer/2014/design.html,https://www.bmw.de/de/neufahrzeuge/2er/activetourer/2014/uebersicht.html
https://www.bmw.de/de/neufahrzeuge/2er/activetourer/2014/fahrdynamik-effizienz.html,https://www.bmw.de/de/neufahrzeuge/2er/activetourer/2014/uebersicht.html
https://www.bmw.de/de/neufahrzeuge/2er/activetourer/2014/komfort-sicherheit.html,https://www.bmw.de/de/neufahrzeuge/2er/activetourer/2014/uebersicht.html
https://www.bmw.de/de/neufahrzeuge/2er/activetourer/2014/models-ausstattungen.html,https://www.bmw.de/de/neufahrzeuge/2er/activetourer/2014/uebersicht.html
https://www.bmw.de/de/neufahrzeuge/2er/activetourer/2014/vielseitigkeit.html,https://www.bmw.de/de/neufahrzeuge/2er/activetourer/2014/uebersicht.html
https://www.bmw.de/de/neufahrzeuge/2er/activetourer/2014/start.html,https://www.bmw.de/de/neufahrzeuge/2er/activetourer/2018/auf-einen-blick.html
https://www.bmw.de/de/neufahrzeuge/2er/activetourer/2014/uebersicht.html,https://www.bmw.de/de/neufahrzeuge/2er/activetourer/2018/auf-einen-blick.html
https://www.bmw.de/de/neufahrzeuge/2er/activetourer/2014/bmw-iperformance.html,https://www.bmw.de/de/neufahrzeuge/2er/activetourer/2018/iperformance.html
https://www.bmw.de/de/neufahrzeuge/2er/activetourer/2014/edrive.html,https://www.bmw.de/de/neufahrzeuge/2er/activetourer/2018/iperformance.html
https://www.bmw.de/de/neufahrzeuge/2er/cabrio/2014/start.html,https://www.bmw.de/de/neufahrzeuge/2er/cabrio/2017/auf-einen-blick.html
https://www.bmw.de/de/neufahrzeuge/bmw-m-performance/bmw-m240i-convertible.html,https://www.bmw.de/de/neufahrzeuge/2er/cabrio/2017/m-performance.html
https://www.bmw.de/de/neufahrzeuge/2er/cabrio/2017.html,https://www.bmw.de/de/neufahrzeuge/2er/cabrio/2019/bmw-2er-cabrio-entdecken.html
https://www.bmw.de/de/neufahrzeuge/2er/cabrio/2017/at-a-glance.html,https://www.bmw.de/de/neufahrzeuge/2er/cabrio/2019/bmw-2er-cabrio-entdecken.html
https://www.bmw.de/de/neufahrzeuge/2er/cabrio/2017/connectivity.html,https://www.bmw.de/de/neufahrzeuge/2er/cabrio/2019/bmw-2er-cabrio-entdecken.html
https://www.bmw.de/de/neufahrzeuge/2er/cabrio/2017/design.html,https://www.bmw.de/de/neufahrzeuge/2er/cabrio/2019/bmw-2er-cabrio-entdecken.html
https://www.bmw.de/de/neufahrzeuge/2er/cabrio/2017/driving-dynamics-efficiency.html,https://www.bmw.de/de/neufahrzeuge/2er/cabrio/2019/bmw-2er-cabrio-entdecken.html
https://www.bmw.de/de/neufahrzeuge/2er/cabrio/2017/facts.html,https://www.bmw.de/de/neufahrzeuge/2er/cabrio/2019/bmw-2er-cabrio-entdecken.html
https://www.bmw.de/de/neufahrzeuge/2er/cabrio/2017/fakten.html,https://www.bmw.de/de/neufahrzeuge/2er/cabrio/2019/bmw-2er-cabrio-entdecken.html
https://www.bmw.de/de/neufahrzeuge/2er/cabrio/2017/images-videos.html,https://www.bmw.de/de/neufahrzeuge/2er/cabrio/2019/bmw-2er-cabrio-entdecken.html
https://www.bmw.de/de/neufahrzeuge/2er/cabrio/2017/landingpage.html,https://www.bmw.de/de/neufahrzeuge/2er/cabrio/2019/bmw-2er-cabrio-entdecken.html
https://www.bmw.de/de/neufahrzeuge/2er/cabrio/2017/modelle-ausstattungen.html,https://www.bmw.de/de/neufahrzeuge/2er/cabrio/2019/bmw-2er-cabrio-entdecken.html
https://www.bmw.de/de/neufahrzeuge/2er/cabrio/2017/technical-data-old.html,https://www.bmw.de/de/neufahrzeuge/2er/cabrio/2019/bmw-2er-cabrio-informieren.html
https://www.bmw.de/de/neufahrzeuge/2er/cabrio/2017/technical-data.html,https://www.bmw.de/de/neufahrzeuge/2er/cabrio/2019/bmw-2er-cabrio-informieren.html
https://www.bmw.de/de/neufahrzeuge/2er/coupe/2013/start.html,https://www.bmw.de/de/neufahrzeuge/2er/coupe/2017/auf-einen-blick.html
https://www.bmw.de/de/neufahrzeuge/bmw-m-performance/bmw-m240i-coupe.html,https://www.bmw.de/de/neufahrzeuge/2er/coupe/2017/m-performance.html
https://www.bmw.de/de/neufahrzeuge/2er/coupe/2017.html,https://www.bmw.de/de/neufahrzeuge/2er/coupe/2019/bmw-2er-coupe-entdecken.html
https://www.bmw.de/de/neufahrzeuge/2er/coupe/2017/at-a-glance.html,https://www.bmw.de/de/neufahrzeuge/2er/coupe/2019/bmw-2er-coupe-entdecken.html
https://www.bmw.de/de/neufahrzeuge/2er/coupe/2017/connectivity.html,https://www.bmw.de/de/neufahrzeuge/2er/coupe/2019/bmw-2er-coupe-entdecken.html
https://www.bmw.de/de/neufahrzeuge/2er/coupe/2017/design.html,https://www.bmw.de/de/neufahrzeuge/2er/coupe/2019/bmw-2er-coupe-entdecken.html
https://www.bmw.de/de/neufahrzeuge/2er/coupe/2017/driving-dynamics-and-efficiency.html,https://www.bmw.de/de/neufahrzeuge/2er/coupe/2019/bmw-2er-coupe-entdecken.html
https://www.bmw.de/de/neufahrzeuge/2er/coupe/2017/f22-edition.html,https://www.bmw.de/de/neufahrzeuge/2er/coupe/2019/bmw-2er-coupe-entdecken.html
https://www.bmw.de/de/neufahrzeuge/2er/coupe/2017/facts.html,https://www.bmw.de/de/neufahrzeuge/2er/coupe/2019/bmw-2er-coupe-entdecken.html
https://www.bmw.de/de/neufahrzeuge/2er/coupe/2017/fakten.html,https://www.bmw.de/de/neufahrzeuge/2er/coupe/2019/bmw-2er-coupe-entdecken.html
https://www.bmw.de/de/neufahrzeuge/2er/coupe/2017/images-and-videos.html,https://www.bmw.de/de/neufahrzeuge/2er/coupe/2019/bmw-2er-coupe-entdecken.html
https://www.bmw.de/de/neufahrzeuge/2er/coupe/2017/landingpage.html,https://www.bmw.de/de/neufahrzeuge/2er/coupe/2019/bmw-2er-coupe-entdecken.html
https://www.bmw.de/de/neufahrzeuge/2er/coupe/2017/modelle-ausstattungen.html,https://www.bmw.de/de/neufahrzeuge/2er/coupe/2019/bmw-2er-coupe-entdecken.html
https://www.bmw.de/de/neufahrzeuge/2er/coupe/2017/technical-data-old.html,https://www.bmw.de/de/neufahrzeuge/2er/coupe/2019/bmw-2er-coupe-entdecken.html
https://www.bmw.de/de/neufahrzeuge/2er/coupe/2017/technical-data-old1.html,https://www.bmw.de/de/neufahrzeuge/2er/coupe/2019/bmw-2er-coupe-entdecken.html
https://www.bmw.de/de/neufahrzeuge/2er/coupe/2017/technical-data.html,https://www.bmw.de/de/neufahrzeuge/2er/coupe/2019/bmw-2er-coupe-entdecken.html
https://www.bmw.de/de/neufahrzeuge/2er/grantourer/2015/bilder-videos.html,https://www.bmw.de/de/neufahrzeuge/2er/grantourer/2015/startseite.html
https://www.bmw.de/de/neufahrzeuge/2er/grantourer/2015/design.html,https://www.bmw.de/de/neufahrzeuge/2er/grantourer/2015/startseite.html
https://www.bmw.de/de/neufahrzeuge/2er/grantourer/2015/fahrdynamik-effizienz.html,https://www.bmw.de/de/neufahrzeuge/2er/grantourer/2015/startseite.html
https://www.bmw.de/de/neufahrzeuge/2er/grantourer/2015/fahrerassistenz.html,https://www.bmw.de/de/neufahrzeuge/2er/grantourer/2015/startseite.html
https://www.bmw.de/de/neufahrzeuge/2er/grantourer/2015/highlights.html,https://www.bmw.de/de/neufahrzeuge/2er/grantourer/2015/startseite.html
https://www.bmw.de/de/neufahrzeuge/2er/grantourer/2015/komfort-funktionalitaet.html,https://www.bmw.de/de/neufahrzeuge/2er/grantourer/2015/startseite.html
https://www.bmw.de/de/neufahrzeuge/2er/grantourer/2015/modelle-ausstattungen.html,https://www.bmw.de/de/neufahrzeuge/2er/grantourer/2015/startseite.html
https://www.bmw.de/de/neufahrzeuge/2er/grantourer/2015/motoren.html,https://www.bmw.de/de/neufahrzeuge/2er/grantourer/2015/startseite.html
https://www.bmw.de/de/neufahrzeuge/2er/grantourer/2015/services-apps.html,https://www.bmw.de/de/neufahrzeuge/2er/grantourer/2015/startseite.html
https://www.bmw.de/de/neufahrzeuge/2er/grantourer/2015/alle-fakten.html,https://www.bmw.de/de/neufahrzeuge/2er/grantourer/2015/uebersicht.html
https://www.bmw.de/de/neufahrzeuge/2er/grantourer/2015/start.html,https://www.bmw.de/de/neufahrzeuge/2er/grantourer/2015/uebersicht.html
https://www.bmw.de/de/neufahrzeuge/2er/grantourer/2015/startseite.html,https://www.bmw.de/de/neufahrzeuge/2er/grantourer/2018/auf-einen-blick.html
https://www.bmw.de/de/neufahrzeuge/3er/gran-turismo/2013.html,https://www.bmw.de/de/neufahrzeuge/3er/gran-turismo/2016/auf-einen-blick.html
https://www.bmw.de/de/neufahrzeuge/3er/gran-turismo/2016/uebersicht.html,https://www.bmw.de/de/neufahrzeuge/3er/gran-turismo/2016/auf-einen-blick.html
https://www.bmw.de/de/neufahrzeuge/3er/gran-turismo/2013/start.html,https://www.bmw.de/de/neufahrzeuge/3er/gran-turismo/2016/uebersicht.html
https://www.bmw.de/de/neufahrzeuge/3er/gran-turismo/2016.html,https://www.bmw.de/de/neufahrzeuge/3er/gran-turismo/2019/bmw-3er-gran-turismo-entdecken.html
https://www.bmw.de/de/neufahrzeuge/3er/gran-turismo/2016/at-a-glance.html,https://www.bmw.de/de/neufahrzeuge/3er/gran-turismo/2019/bmw-3er-gran-turismo-entdecken.html
https://www.bmw.de/de/neufahrzeuge/3er/gran-turismo/2016/comfort-functionality.html,https://www.bmw.de/de/neufahrzeuge/3er/gran-turismo/2019/bmw-3er-gran-turismo-entdecken.html
https://www.bmw.de/de/neufahrzeuge/3er/gran-turismo/2016/design.html,https://www.bmw.de/de/neufahrzeuge/3er/gran-turismo/2019/bmw-3er-gran-turismo-entdecken.html
https://www.bmw.de/de/neufahrzeuge/3er/gran-turismo/2016/driver-assistance.html,https://www.bmw.de/de/neufahrzeuge/3er/gran-turismo/2019/bmw-3er-gran-turismo-entdecken.html
https://www.bmw.de/de/neufahrzeuge/3er/gran-turismo/2016/drivingdynamics-efficiency.html,https://www.bmw.de/de/neufahrzeuge/3er/gran-turismo/2019/bmw-3er-gran-turismo-entdecken.html
https://www.bmw.de/de/neufahrzeuge/3er/gran-turismo/2016/images-videos.html,https://www.bmw.de/de/neufahrzeuge/3er/gran-turismo/2019/bmw-3er-gran-turismo-entdecken.html
https://www.bmw.de/de/neufahrzeuge/3er/gran-turismo/2016/landingpage.html,https://www.bmw.de/de/neufahrzeuge/3er/gran-turismo/2019/bmw-3er-gran-turismo-entdecken.html
https://www.bmw.de/de/neufahrzeuge/3er/gran-turismo/2016/lines-equipment.html,https://www.bmw.de/de/neufahrzeuge/3er/gran-turismo/2019/bmw-3er-gran-turismo-entdecken.html
https://www.bmw.de/de/neufahrzeuge/3er/gran-turismo/2016/models-equipment.html,https://www.bmw.de/de/neufahrzeuge/3er/gran-turismo/2019/bmw-3er-gran-turismo-entdecken.html
https://www.bmw.de/de/neufahrzeuge/3er/gran-turismo/2016/services-apps.html,https://www.bmw.de/de/neufahrzeuge/3er/gran-turismo/2019/bmw-3er-gran-turismo-entdecken.html
https://www.bmw.de/de/neufahrzeuge/3er/gran-turismo/2016/engines.html,https://www.bmw.de/de/neufahrzeuge/3er/gran-turismo/2019/bmw-3er-gran-turismo-informieren.html
https://www.bmw.de/de/neufahrzeuge/3er/gran-turismo/2016/technical-data.html,https://www.bmw.de/de/neufahrzeuge/3er/gran-turismo/2019/bmw-3er-gran-turismo-informieren.html
https://www.bmw.de/de/neufahrzeuge/3er/gran-turismo/2016/facts.html,https://www.bmw.de/de/neufahrzeuge/3er/gran-turismo/2019/fakten.html
https://www.bmw.de/de/neufahrzeuge/3er/limousine/2015/bmw-edrive.html,https://www.bmw.de/de/neufahrzeuge/3er/limousine/2015/bmw-iperformance.html
https://www.bmw.de/de/neufahrzeuge/3er/limousine/2015/auf-einen-blick.html,https://www.bmw.de/de/neufahrzeuge/3er/limousine/2015/start.html
https://www.bmw.de/de/neufahrzeuge/3er/limousine/2015/motoren.html,https://www.bmw.de/de/neufahrzeuge/3er/limousine/2015/start.html
https://www.bmw.de/de/neufahrzeuge/3er/limousine/2015.html,https://www.bmw.de/de/neufahrzeuge/3er/limousine/2018.html
https://www.bmw.de/de/neufahrzeuge/3er/limousine/2015/bilder-videos.html,https://www.bmw.de/de/neufahrzeuge/3er/limousine/2018/bmw-3er-limousine-entdecken.html
https://www.bmw.de/de/neufahrzeuge/3er/limousine/2015/design.html,https://www.bmw.de/de/neufahrzeuge/3er/limousine/2018/bmw-3er-limousine-entdecken.html
https://www.bmw.de/de/neufahrzeuge/3er/limousine/2015/editionen.html,https://www.bmw.de/de/neufahrzeuge/3er/limousine/2018/bmw-3er-limousine-entdecken.html
https://www.bmw.de/de/neufahrzeuge/3er/limousine/2015/fahrdynamik-effizienz.html,https://www.bmw.de/de/neufahrzeuge/3er/limousine/2018/bmw-3er-limousine-entdecken.html
https://www.bmw.de/de/neufahrzeuge/3er/limousine/2015/fahrerassistenz.html,https://www.bmw.de/de/neufahrzeuge/3er/limousine/2018/bmw-3er-limousine-entdecken.html
https://www.bmw.de/de/neufahrzeuge/3er/limousine/2015/fakten.html,https://www.bmw.de/de/neufahrzeuge/3er/limousine/2018/bmw-3er-limousine-entdecken.html
https://www.bmw.de/de/neufahrzeuge/3er/limousine/2015/komfort-sicherheit.html,https://www.bmw.de/de/neufahrzeuge/3er/limousine/2018/bmw-3er-limousine-entdecken.html
https://www.bmw.de/de/neufahrzeuge/3er/limousine/2015/modelle-ausstattungen.html,https://www.bmw.de/de/neufahrzeuge/3er/limousine/2018/bmw-3er-limousine-entdecken.html
https://www.bmw.de/de/neufahrzeuge/3er/limousine/2015/services-apps.html,https://www.bmw.de/de/neufahrzeuge/3er/limousine/2018/bmw-3er-limousine-entdecken.html
https://www.bmw.de/de/neufahrzeuge/3er/limousine/2015/technische-daten.html,https://www.bmw.de/de/neufahrzeuge/3er/limousine/2018/bmw-3er-limousine-entdecken.html
https://www.bmw.de/de/neufahrzeuge/3er/limousine/2015/uebersicht.html,https://www.bmw.de/de/neufahrzeuge/3er/limousine/2018/bmw-3er-limousine-entdecken.html
https://www.bmw.de/de/neufahrzeuge/3er/limousine/2018/fakten.html,https://www.bmw.de/de/neufahrzeuge/3er/limousine/2018/bmw-3er-limousine-kaufen.html
https://www.bmw.de/de/neufahrzeuge/3er/touring/2015/motoren.html,https://www.bmw.de/de/neufahrzeuge/3er/touring/2015/start.html
https://www.bmw.de/de/neufahrzeuge/3er/touring/2015/uebersicht.html,https://www.bmw.de/de/neufahrzeuge/3er/touring/2015/start.html
https://www.bmw.de/de/neufahrzeuge/4.html,https://www.bmw.de/de/neufahrzeuge/4er.html
https://www.bmw.de/de/neufahrzeuge/4/cabrio/2013/start.html,https://www.bmw.de/de/neufahrzeuge/4er/cabrio/2017/auf-einen-blick.html
https://www.bmw.de/de/neufahrzeuge/4/cabrio/2017/auf-einen-blick.html,https://www.bmw.de/de/neufahrzeuge/4er/cabrio/2017/auf-einen-blick.html
https://www.bmw.de/de/neufahrzeuge/4er/cabrio/2013/uebersicht.html,https://www.bmw.de/de/neufahrzeuge/4er/cabrio/2017/auf-einen-blick.html
https://www.bmw.de/de/neufahrzeuge/4/cabrio/2017/technische-daten.html,https://www.bmw.de/de/neufahrzeuge/4er/cabrio/2017/technische-daten.html
https://www.bmw.de/de/neufahrzeuge/4er/cabrio/2017/technical-data.html,https://www.bmw.de/de/neufahrzeuge/4er/cabrio/2019/bmw-4er-cabrio-informieren.html
https://www.bmw.de/de/neufahrzeuge/4er/cabrio/2017/facts-old.html,https://www.bmw.de/de/neufahrzeuge/4er/cabrio/2019/bmw-4er-cabrio-kaufen.html
https://www.bmw.de/de/neufahrzeuge/4er/cabrio/2017/facts.html,https://www.bmw.de/de/neufahrzeuge/4er/cabrio/2019/bmw-4er-cabrio-kaufen.html
https://www.bmw.de/de/neufahrzeuge/4/coupe/2017/auf-einen-blick.html,https://www.bmw.de/de/neufahrzeuge/4er/coupe/2017/auf-einen-blick.html
https://www.bmw.de/de/neufahrzeuge/4/coupe/2017/technische-daten.html,https://www.bmw.de/de/neufahrzeuge/4er/coupe/2017/technische-daten.html
https://www.bmw.de/de/neufahrzeuge/4er/coupe/2017.html,https://www.bmw.de/de/neufahrzeuge/4er/coupe/2019/bmw-4er-coupe-entdecken.html
https://www.bmw.de/de/neufahrzeuge/4er/coupe/2017/F32.html,https://www.bmw.de/de/neufahrzeuge/4er/coupe/2019/bmw-4er-coupe-entdecken.html
https://www.bmw.de/de/neufahrzeuge/4er/coupe/2017/at-a-glance.html,https://www.bmw.de/de/neufahrzeuge/4er/coupe/2019/bmw-4er-coupe-entdecken.html
https://www.bmw.de/de/neufahrzeuge/4er/coupe/2017/bmw-4-series-coupe.html,https://www.bmw.de/de/neufahrzeuge/4er/coupe/2019/bmw-4er-coupe-entdecken.html
https://www.bmw.de/de/neufahrzeuge/4er/coupe/2017/connectivity.html,https://www.bmw.de/de/neufahrzeuge/4er/coupe/2019/bmw-4er-coupe-entdecken.html
https://www.bmw.de/de/neufahrzeuge/4er/coupe/2017/design.html,https://www.bmw.de/de/neufahrzeuge/4er/coupe/2019/bmw-4er-coupe-entdecken.html
https://www.bmw.de/de/neufahrzeuge/4er/coupe/2017/driving-dynamics.html,https://www.bmw.de/de/neufahrzeuge/4er/coupe/2019/bmw-4er-coupe-entdecken.html
https://www.bmw.de/de/neufahrzeuge/4er/coupe/2017/images-and-videos.html,https://www.bmw.de/de/neufahrzeuge/4er/coupe/2019/bmw-4er-coupe-entdecken.html
https://www.bmw.de/de/neufahrzeuge/4er/coupe/2017/technical-data.html,https://www.bmw.de/de/neufahrzeuge/4er/coupe/2019/bmw-4er-coupe-informieren.html
https://www.bmw.de/de/neufahrzeuge/4er/coupe/2017/facts-old.html,https://www.bmw.de/de/neufahrzeuge/4er/coupe/2019/bmw-4er-coupe-kaufen.html
https://www.bmw.de/de/neufahrzeuge/4er/coupe/2017/facts.html,https://www.bmw.de/de/neufahrzeuge/4er/coupe/2019/bmw-4er-coupe-kaufen.html
https://www.bmw.de/de/neufahrzeuge/4/gran-coupe/2014/start.html,https://www.bmw.de/de/neufahrzeuge/4er/gran-coupe/2017/auf-einen-blick.html
https://www.bmw.de/de/neufahrzeuge/4/gran-coupe/2017/auf-einen-blick.html,https://www.bmw.de/de/neufahrzeuge/4er/gran-coupe/2017/auf-einen-blick.html
https://www.bmw.de/de/neufahrzeuge/4er/gran-coupe/2014/uebersicht.html,https://www.bmw.de/de/neufahrzeuge/4er/gran-coupe/2017/auf-einen-blick.html
https://www.bmw.de/de/neufahrzeuge/4/gran-coupe/2017/bilder-videos.html,https://www.bmw.de/de/neufahrzeuge/4er/gran-coupe/2017/bilder-videos.html
https://www.bmw.de/de/neufahrzeuge/4/gran-coupe/2014/lines-ausstattungen.html,https://www.bmw.de/de/neufahrzeuge/4er/gran-coupe/2017/design.html
https://www.bmw.de/de/neufahrzeuge/4/gran-coupe/2017/design.html,https://www.bmw.de/de/neufahrzeuge/4er/gran-coupe/2017/design.html
https://www.bmw.de/de/neufahrzeuge/4/gran-coupe/2017/facts.html,https://www.bmw.de/de/neufahrzeuge/4er/gran-coupe/2017/fakten.html
https://www.bmw.de/de/neufahrzeuge/4/gran-coupe/2017/technische-daten.html,https://www.bmw.de/de/neufahrzeuge/4er/gran-coupe/2017/technische-daten.html
https://www.bmw.de/de/neufahrzeuge/4er/gran-coupe/2017.html,https://www.bmw.de/de/neufahrzeuge/4er/gran-coupe/2019/bmw-4er-gran-coupe-entdecken.html
https://www.bmw.de/de/neufahrzeuge/4er/gran-coupe/2017/at-a-glance.html,https://www.bmw.de/de/neufahrzeuge/4er/gran-coupe/2019/bmw-4er-gran-coupe-entdecken.html
https://www.bmw.de/de/neufahrzeuge/4er/gran-coupe/2017/bmw-4-series-gran-coupe.html,https://www.bmw.de/de/neufahrzeuge/4er/gran-coupe/2019/bmw-4er-gran-coupe-entdecken.html
https://www.bmw.de/de/neufahrzeuge/4er/gran-coupe/2017/connectivity.html,https://www.bmw.de/de/neufahrzeuge/4er/gran-coupe/2019/bmw-4er-gran-coupe-entdecken.html
https://www.bmw.de/de/neufahrzeuge/4er/gran-coupe/2017/design.html,https://www.bmw.de/de/neufahrzeuge/4er/gran-coupe/2019/bmw-4er-gran-coupe-entdecken.html
https://www.bmw.de/de/neufahrzeuge/4er/gran-coupe/2017/driving-dynamics.html,https://www.bmw.de/de/neufahrzeuge/4er/gran-coupe/2019/bmw-4er-gran-coupe-entdecken.html
https://www.bmw.de/de/neufahrzeuge/4er/gran-coupe/2017/images-and-videos.html,https://www.bmw.de/de/neufahrzeuge/4er/gran-coupe/2019/bmw-4er-gran-coupe-entdecken.html
https://www.bmw.de/de/neufahrzeuge/4er/gran-coupe/2017/technical-data.html,https://www.bmw.de/de/neufahrzeuge/4er/gran-coupe/2019/bmw-4er-gran-coupe-informieren.html
https://www.bmw.de/de/neufahrzeuge/4er/gran-coupe/2017/facts-old.html,https://www.bmw.de/de/neufahrzeuge/4er/gran-coupe/2019/bmw-4er-gran-coupe-kaufen.html
https://www.bmw.de/de/neufahrzeuge/4er/gran-coupe/2017/facts.html,https://www.bmw.de/de/neufahrzeuge/4er/gran-coupe/2019/bmw-4er-gran-coupe-kaufen.html
https://www.bmw.de/de/neufahrzeuge/5er/limousine/2016/bmw-520d-ed.html,https://www.bmw.de/de/neufahrzeuge/5er/limousine/2016/auf-einen-blick.html
https://www.bmw.de/de/neufahrzeuge/5er/limousine/2016/bmw-individual.html,https://www.bmw.de/de/neufahrzeuge/5er/limousine/2016/auf-einen-blick.html
https://www.bmw.de/de/neufahrzeuge/5er/limousine/2016/connectivity-driver-assistance.html,https://www.bmw.de/de/neufahrzeuge/5er/limousine/2016/auf-einen-blick.html
https://www.bmw.de/de/neufahrzeuge/5er/limousine/2016/fahrerassistenz.html,https://www.bmw.de/de/neufahrzeuge/5er/limousine/2016/auf-einen-blick.html
https://www.bmw.de/de/neufahrzeuge/5er/limousine/2016/lines.html,https://www.bmw.de/de/neufahrzeuge/5er/limousine/2016/auf-einen-blick.html
https://www.bmw.de/de/neufahrzeuge/5er/limousine/2016/m-performance.html,https://www.bmw.de/de/neufahrzeuge/5er/limousine/2016/auf-einen-blick.html
https://www.bmw.de/de/neufahrzeuge/5er/limousine/2016/navigation.html,https://www.bmw.de/de/neufahrzeuge/5er/limousine/2016/auf-einen-blick.html
https://www.bmw.de/de/neufahrzeuge/5er/limousine/2016/original-bmw-zubehoer.html,https://www.bmw.de/de/neufahrzeuge/5er/limousine/2016/auf-einen-blick.html
https://www.bmw.de/de/neufahrzeuge/bmw-m-performance/bmw-m550d-xdrive-sedan.html,https://www.bmw.de/de/neufahrzeuge/5er/limousine/2016/auf-einen-blick.html
https://www.bmw.de/de/neufahrzeuge/5er/limousine/2016/modelle-ausstattungen/bmw-individual.html,https://www.bmw.de/de/neufahrzeuge/5er/limousine/2016/bmw-individual.html
https://www.bmw.de/de/neufahrzeuge/5er/limousine/2016/modelle-ausstattungen/bmw-iperformance.html,https://www.bmw.de/de/neufahrzeuge/5er/limousine/2016/iperformance.html
https://www.bmw.de/de/neufahrzeuge/5er/limousine/2016/modelle-ausstattungen/bmw-m-performance.html,https://www.bmw.de/de/neufahrzeuge/5er/limousine/2016/m-performance.html
https://www.bmw.de/de/neufahrzeuge/5er/limousine/2016/modelle-ausstattungen/original-bmw-zubehoer.html,https://www.bmw.de/de/neufahrzeuge/5er/limousine/2016/original-bmw-zubehoer.html
https://www.bmw.de/de/neufahrzeuge/5er/touring/2017/business-assistenzsysteme/connectivity.html,https://www.bmw.de/de/neufahrzeuge/5er/touring/2017/connectivity.html
https://www.bmw.de/de/neufahrzeuge/5er/touring/2017/connectivity-driver-assistance.html,https://www.bmw.de/de/neufahrzeuge/5er/touring/2017/connectivity.html
https://www.bmw.de/de/neufahrzeuge/5er/touring/2017/navigation.html,https://www.bmw.de/de/neufahrzeuge/5er/touring/2017/connectivity.html
https://www.bmw.de/de/neufahrzeuge/5er/touring/2017/business-assistenzsysteme/bedienkonzept.html,https://www.bmw.de/de/neufahrzeuge/5er/touring/2017/connectivity-driver-assistance.html
https://www.bmw.de/de/neufahrzeuge/5er/touring/2017/business-assistenzsysteme/connectivity-driver-assistance.html,https://www.bmw.de/de/neufahrzeuge/5er/touring/2017/connectivity-driver-assistance.html
https://www.bmw.de/de/neufahrzeuge/5er/touring/2017/ausstattungspakete.html,https://www.bmw.de/de/neufahrzeuge/5er/touring/2017/lines.html
https://www.bmw.de/de/neufahrzeuge/bmw-m-performance/bmw-m550d-xdrive-touring.html,https://www.bmw.de/de/neufahrzeuge/5er/touring/2017/m-performance.html
https://www.bmw.de/de/neufahrzeuge/6er/cabrio/2014/motoren.html,https://www.bmw.de/de/neufahrzeuge/6er/cabrio/2014/start.html
https://www.bmw.de/de/neufahrzeuge/6er/coupe/2014/motoren.html,https://www.bmw.de/de/neufahrzeuge/6er/coupe/2014/start.html
https://www.bmw.de/de/neufahrzeuge/6er/coupe/2014/technische-daten.html,https://www.bmw.de/de/neufahrzeuge/6er/coupe/2014/start.html
https://www.bmw.de/de/neufahrzeuge/6er/grancoupe/2014/motoren.html,https://www.bmw.de/de/neufahrzeuge/6er/granturismo/2017/start.html
https://www.bmw.de/de/neufahrzeuge/7er/limousine/2015/40-jahre-modelle.html,https://www.bmw.de/de/neufahrzeuge/7er/limousine/2015/highlights.html
https://www.bmw.de/de/neufahrzeuge/7er/limousine/2015/motoren.html,https://www.bmw.de/de/neufahrzeuge/7er/limousine/2015/highlights.html
https://www.bmw.de/de/neufahrzeuge/7er/limousine/2015/uebersicht.html,https://www.bmw.de/de/neufahrzeuge/7er/limousine/2015/highlights.html
https://www.bmw.de/de/neufahrzeuge/7er/limousine/2015/auf-einen-blick.html,https://www.bmw.de/de/neufahrzeuge/7er/limousine/2015/uebersicht.html
https://www.bmw.de/de/neufahrzeuge/bmw-i/bmw-i/philosophy.html,https://www.bmw.de/de/neufahrzeuge/bmw-i/i3/2017/auf-einen-blick.html
https://www.bmw.de/de/neufahrzeuge/bmw-i/i3/2013/start.html,https://www.bmw.de/de/neufahrzeuge/bmw-i/i3/2017/auf-einen-blick.html
https://www.bmw.de/de/neufahrzeuge/bmw-i/i3/2015/erleben.html,https://www.bmw.de/de/neufahrzeuge/bmw-i/i3/2017/auf-einen-blick.html
https://www.bmw.de/de/neufahrzeuge/bmw-i/i3/2016/at-a-glance.html,https://www.bmw.de/de/neufahrzeuge/bmw-i/i3/2017/auf-einen-blick.html
https://www.bmw.de/de/neufahrzeuge/bmw-i/i3/2016/uebersicht.html,https://www.bmw.de/de/neufahrzeuge/bmw-i/i3/2017/auf-einen-blick.html
https://www.bmw.de/de/neufahrzeuge/bmw-i/i3/2017.html,https://www.bmw.de/de/neufahrzeuge/bmw-i/i3/2017/auf-einen-blick.html
https://www.bmw.de/de/neufahrzeuge/bmw-i/i3/2017/service-zubehoer.html,https://www.bmw.de/de/neufahrzeuge/bmw-i/i3/2017/auf-einen-blick.html
https://www.bmw.de/de/topics/faszination-bmw/bmw-i3-testdrive.html,https://www.bmw.de/de/neufahrzeuge/bmw-i/i3/2017/auf-einen-blick.html
https://www.bmw.de/de/neufahrzeuge/bmw-i/i8/2013/start.html,https://www.bmw.de/de/neufahrzeuge/bmw-i/i8/2015/uebersicht.html
https://www.bmw.de/de/neufahrzeuge/bmw-i/i8/2015/aufladen.html,https://www.bmw.de/de/neufahrzeuge/bmw-i/i8/2015/uebersicht.html
https://www.bmw.de/de/neufahrzeuge/bmw-i/i8/2015/bilder-videos.html,https://www.bmw.de/de/neufahrzeuge/bmw-i/i8/2015/uebersicht.html
https://www.bmw.de/de/neufahrzeuge/bmw-i/i8/2015/connectivity.html,https://www.bmw.de/de/neufahrzeuge/bmw-i/i8/2015/uebersicht.html
https://www.bmw.de/de/neufahrzeuge/bmw-i/i8/2015/design.html,https://www.bmw.de/de/neufahrzeuge/bmw-i/i8/2015/uebersicht.html
https://www.bmw.de/de/neufahrzeuge/bmw-i/i8/2015/effizienz-dynamik.html,https://www.bmw.de/de/neufahrzeuge/bmw-i/i8/2015/uebersicht.html
https://www.bmw.de/de/neufahrzeuge/bmw-i/i8/2015/kaufen.html,https://www.bmw.de/de/neufahrzeuge/bmw-i/i8/2015/uebersicht.html
https://www.bmw.de/de/neufahrzeuge/bmw-i/i8/2015/protonic-frozen.html,https://www.bmw.de/de/neufahrzeuge/bmw-i/i8/2015/uebersicht.html
https://www.bmw.de/de/neufahrzeuge/bmw-i/i8/2015/antrieb.html,https://www.bmw.de/de/neufahrzeuge/bmw-i/i8-coupe/2017/auf-einen-blick.html
https://www.bmw.de/de/neufahrzeuge/bmw-i/i8/2015/erleben.html,https://www.bmw.de/de/neufahrzeuge/bmw-i/i8-coupe/2017/auf-einen-blick.html
https://www.bmw.de/de/neufahrzeuge/m/bmw-m6-modelle.html,https://www.bmw.de/de/neufahrzeuge/m.html
https://www.bmw.de/de/neufahrzeuge/m/m6-cabrio/2015/bilder-videos.html,https://www.bmw.de/de/neufahrzeuge/m.html
https://www.bmw.de/de/neufahrzeuge/m/m6-cabrio/2015/design.html,https://www.bmw.de/de/neufahrzeuge/m.html
https://www.bmw.de/de/neufahrzeuge/m/m6-cabrio/2015/fahrdynamik-effizienz.html,https://www.bmw.de/de/neufahrzeuge/m.html
https://www.bmw.de/de/neufahrzeuge/m/m6-cabrio/2015/fahrerassistenz.html,https://www.bmw.de/de/neufahrzeuge/m.html
https://www.bmw.de/de/neufahrzeuge/m/m6-cabrio/2015/fakten.html,https://www.bmw.de/de/neufahrzeuge/m.html
https://www.bmw.de/de/neufahrzeuge/m/m6-cabrio/2015/highlights.html,https://www.bmw.de/de/neufahrzeuge/m.html
https://www.bmw.de/de/neufahrzeuge/m/m6-cabrio/2015/services-apps.html,https://www.bmw.de/de/neufahrzeuge/m.html
https://www.bmw.de/de/neufahrzeuge/m/m6-cabrio/2015/sicherheit-komfort.html,https://www.bmw.de/de/neufahrzeuge/m.html
https://www.bmw.de/de/neufahrzeuge/m/m6-gran-coupe/2015/bilder-videos.html,https://www.bmw.de/de/neufahrzeuge/m.html
https://www.bmw.de/de/neufahrzeuge/m/m6-gran-coupe/2015/design.html,https://www.bmw.de/de/neufahrzeuge/m.html
https://www.bmw.de/de/neufahrzeuge/m/m6-gran-coupe/2015/fahrdynamik-effizienz.html,https://www.bmw.de/de/neufahrzeuge/m.html
https://www.bmw.de/de/neufahrzeuge/m/m6-gran-coupe/2015/fahrerassistenz.html,https://www.bmw.de/de/neufahrzeuge/m.html
https://www.bmw.de/de/neufahrzeuge/m/m6-gran-coupe/2015/fakten.html,https://www.bmw.de/de/neufahrzeuge/m.html
https://www.bmw.de/de/neufahrzeuge/m/m6-gran-coupe/2015/highlights.html,https://www.bmw.de/de/neufahrzeuge/m.html
https://www.bmw.de/de/neufahrzeuge/m/m6-gran-coupe/2015/services-apps.html,https://www.bmw.de/de/neufahrzeuge/m.html
https://www.bmw.de/de/neufahrzeuge/m/m6-gran-coupe/2015/sicherheit-komfort.html,https://www.bmw.de/de/neufahrzeuge/m.html
https://www.bmw.de/de/neufahrzeuge/m/x5-m/2014/bilder-und-videos.html,https://www.bmw.de/de/neufahrzeuge/m.html
https://www.bmw.de/de/neufahrzeuge/m/x5-m/2014/design.html,https://www.bmw.de/de/neufahrzeuge/m.html
https://www.bmw.de/de/neufahrzeuge/m/x5-m/2014/fahrdynamik-und-effizienz.html,https://www.bmw.de/de/neufahrzeuge/m.html
https://www.bmw.de/de/neufahrzeuge/m/x5-m/2014/fahrerassistenz.html,https://www.bmw.de/de/neufahrzeuge/m.html
https://www.bmw.de/de/neufahrzeuge/m/x5-m/2014/fakten.html,https://www.bmw.de/de/neufahrzeuge/m.html
https://www.bmw.de/de/neufahrzeuge/m/x5-m/2014/highlights.html,https://www.bmw.de/de/neufahrzeuge/m.html
https://www.bmw.de/de/neufahrzeuge/m/x5-m/2014/services-und-apps.html,https://www.bmw.de/de/neufahrzeuge/m.html
https://www.bmw.de/de/neufahrzeuge/m/x5-m/2014/sicherheit-und-komfort.html,https://www.bmw.de/de/neufahrzeuge/m.html
https://www.bmw.de/de/neufahrzeuge/m/x6-m/2014/bilder-und-videos.html,https://www.bmw.de/de/neufahrzeuge/m.html
https://www.bmw.de/de/neufahrzeuge/m/x6-m/2014/design.html,https://www.bmw.de/de/neufahrzeuge/m.html
https://www.bmw.de/de/neufahrzeuge/m/x6-m/2014/fahrdynamik-und-effizienz.html,https://www.bmw.de/de/neufahrzeuge/m.html
https://www.bmw.de/de/neufahrzeuge/m/x6-m/2014/fahrerassistenz.html,https://www.bmw.de/de/neufahrzeuge/m.html
https://www.bmw.de/de/neufahrzeuge/m/x6-m/2014/fakten.html,https://www.bmw.de/de/neufahrzeuge/m.html
https://www.bmw.de/de/neufahrzeuge/m/x6-m/2014/highlights.html,https://www.bmw.de/de/neufahrzeuge/m.html
https://www.bmw.de/de/neufahrzeuge/m/x6-m/2014/services-und-apps.html,https://www.bmw.de/de/neufahrzeuge/m.html
https://www.bmw.de/de/neufahrzeuge/m/x6-m/2014/sicherheit-und-komfort.html,https://www.bmw.de/de/neufahrzeuge/m.html
https://www.bmw.de/de/neufahrzeuge/m/x6-m/2014/technische-daten.html,https://www.bmw.de/de/neufahrzeuge/m.html
https://www.bmw.de/de/neufahrzeuge/2er/cabrio/2017/m-performance.html,https://www.bmw.de/de/neufahrzeuge/m/m-240i-convertible/2019/m-240i-cabrio.html
https://www.bmw.de/de/neufahrzeuge/m/m2-coupe/2015/motoren.html,https://www.bmw.de/de/neufahrzeuge/m/m2-coupe/2015/auf-einen-blick.html
https://www.bmw.de/de/neufahrzeuge/m/m2-coupe/2015/alle-fakten.html,https://www.bmw.de/de/neufahrzeuge/m/m2-coupe/2015/fakten.html
https://www.bmw.de/de/neufahrzeuge/M/m2-coupe/2015/auf-einen-blick.html,https://www.bmw.de/de/neufahrzeuge/m/m2-coupe/2015/uebersicht.html
https://www.bmw.de/de/neufahrzeuge/m/m2-coupe/2015/design.html,https://www.bmw.de/de/neufahrzeuge/m/m2-coupe/2018/bmw-m2-competition-auf-einen-blick.html
https://www.bmw.de/de/neufahrzeuge/m/m2-coupe/2015/fahrdynamik-effizienz.html,https://www.bmw.de/de/neufahrzeuge/m/m2-coupe/2018/bmw-m2-competition-auf-einen-blick.html
https://www.bmw.de/de/neufahrzeuge/m/m2-coupe/2015/fahrerassistenz.html,https://www.bmw.de/de/neufahrzeuge/m/m2-coupe/2018/bmw-m2-competition-auf-einen-blick.html
https://www.bmw.de/de/neufahrzeuge/m/m2-coupe/2015/services-apps.html,https://www.bmw.de/de/neufahrzeuge/m/m2-coupe/2018/bmw-m2-competition-auf-einen-blick.html
https://www.bmw.de/de/neufahrzeuge/m/m2-coupe/2015/sicherheit-komfort.html,https://www.bmw.de/de/neufahrzeuge/m/m2-coupe/2018/bmw-m2-competition-auf-einen-blick.html
https://www.bmw.de/de/neufahrzeuge/m/m2-coupe/2015/bilder-videos.html,https://www.bmw.de/de/neufahrzeuge/m/m2-coupe/2018/bmw-m2-competition-bilder-videos.html
https://www.bmw.de/de/neufahrzeuge/m/m2-coupe/2015/fakten.html,https://www.bmw.de/de/neufahrzeuge/m/m2-coupe/2018/fakten.html
https://www.bmw.de/de/neufahrzeuge/2er/coupe/2017/m-performance.html,https://www.bmw.de/de/neufahrzeuge/m/m2-coupe/2018/m-240i-coupe.html
https://www.bmw.de/de/neufahrzeuge/M/m3-limousine/2014/start.html,https://www.bmw.de/de/neufahrzeuge/m/m3-limousine/2017/auf-einen-blick.html
https://www.bmw.de/de/neufahrzeuge/m/m3-limousine/2014/uebersicht.html,https://www.bmw.de/de/neufahrzeuge/m/m3-limousine/2017/auf-einen-blick.html
https://www.bmw.de/de/neufahrzeuge/M/m4-cabrio/2014/auf-einen-blick.html,https://www.bmw.de/de/neufahrzeuge/m/m4-cabrio/2017/auf-einen-blick.html
https://www.bmw.de/de/neufahrzeuge/m/m4-cabrio/2014/start.html,https://www.bmw.de/de/neufahrzeuge/m/m4-cabrio/2017/auf-einen-blick.html
https://www.bmw.de/de/neufahrzeuge/m/m4-cabrio/2014/uebersicht.html,https://www.bmw.de/de/neufahrzeuge/m/m4-cabrio/2017/auf-einen-blick.html
https://www.bmw.de/de/neufahrzeuge/M/m4coupe/2014/m4-gts.html,https://www.bmw.de/de/neufahrzeuge/m/m4coupe/2017/auf-einen-blick.html
https://www.bmw.de/de/neufahrzeuge/M/m4coupe/2014/start.html,https://www.bmw.de/de/neufahrzeuge/m/m4coupe/2017/auf-einen-blick.html
https://www.bmw.de/de/neufahrzeuge/m/m4coupe/2014/uebersicht.html,https://www.bmw.de/de/neufahrzeuge/m/m4coupe/2017/auf-einen-blick.html
https://www.bmw.de/de/neufahrzeuge/m/m4coupe/2017/bmw-m4-cs.html,https://www.bmw.de/de/neufahrzeuge/m/m4coupe/2017/auf-einen-blick.html
https://www.bmw.de/de/neufahrzeuge/m/m6-cabrio/2015/motoren.html,https://www.bmw.de/de/neufahrzeuge/m/m6-cabrio/2015/start.html
https://www.bmw.de/de/neufahrzeuge/m/m6-coupe/2015/motoren.html,https://www.bmw.de/de/neufahrzeuge/m/m6-coupe/2015/start.html
https://www.bmw.de/de/neufahrzeuge/m/m6-gran-coupe/2015/motoren.html,https://www.bmw.de/de/neufahrzeuge/m/m6-gran-coupe/2015/start.html
https://www.bmw.de/de/neufahrzeuge/m/x5-m/2014/motoren.html,https://www.bmw.de/de/neufahrzeuge/m/x5-m/2014/start.html
https://www.bmw.de/de/neufahrzeuge/m/x6-m/2014/motoren.html,https://www.bmw.de/de/neufahrzeuge/m/x6-m/2014/start.html
https://www.bmw.de/de/neufahrzeuge/x/x1/2015/motoren.html,https://www.bmw.de/de/neufahrzeuge/x/x1/2015/auf-einen-blick.html
https://www.bmw.de/de/neufahrzeuge/x/x1/2012/start.html,https://www.bmw.de/de/neufahrzeuge/x/x1/2015/uebersicht.html
https://www.bmw.de/de/neufahrzeuge/bmw-m-performance/bmw-x2-m35i.html,https://www.bmw.de/de/neufahrzeuge/x/x2/2017/auf-einen-blick.html
https://www.bmw.de/de/neufahrzeuge/x/X2/x2-concept/uebersicht.html,https://www.bmw.de/de/neufahrzeuge/x/x2/2017/auf-einen-blick.html
https://www.bmw.de/de/neufahrzeuge/x/bmw-x/bmw-concept-x2.html,https://www.bmw.de/de/neufahrzeuge/x/x2/2017/auf-einen-blick.html
https://www.bmw.de/de/neufahrzeuge/x/X3/2014/uebersicht.html,https://www.bmw.de/de/neufahrzeuge/x/x3/2017/auf-einen-blick.html
https://www.bmw.de/de/neufahrzeuge/bmw-m-performance/bmw-x3-m40i.html,https://www.bmw.de/de/neufahrzeuge/x/x3/2017/m-performance.html
https://www.bmw.de/de/neufahrzeuge/x/x4/2014/motoren.html,https://www.bmw.de/de/neufahrzeuge/x/x4/2014/start.html
https://www.bmw.de/de/neufahrzeuge/x/x4/2014/startseite.html,https://www.bmw.de/de/neufahrzeuge/x/x4/2014/uebersicht.html
https://www.bmw.de/de/neufahrzeuge/x/x4/2014/fakten.html,https://www.bmw.de/de/neufahrzeuge/x/x4/2018/alle-fakten.html
https://www.bmw.de/de/neufahrzeuge/x/x4/2014/design.html,https://www.bmw.de/de/neufahrzeuge/x/x4/2018/auf-einen-blick.html
https://www.bmw.de/de/neufahrzeuge/x/x4/2014/effizienz.html,https://www.bmw.de/de/neufahrzeuge/x/x4/2018/auf-einen-blick.html
https://www.bmw.de/de/neufahrzeuge/x/x4/2014/fahrdynamik.html,https://www.bmw.de/de/neufahrzeuge/x/x4/2018/auf-einen-blick.html
https://www.bmw.de/de/neufahrzeuge/x/x4/2014/fahrerassistenz.html,https://www.bmw.de/de/neufahrzeuge/x/x4/2018/auf-einen-blick.html
https://www.bmw.de/de/neufahrzeuge/x/x4/2014/highlights.html,https://www.bmw.de/de/neufahrzeuge/x/x4/2018/auf-einen-blick.html
https://www.bmw.de/de/neufahrzeuge/x/x4/2014/komfort-funktionalitaet.html,https://www.bmw.de/de/neufahrzeuge/x/x4/2018/auf-einen-blick.html
https://www.bmw.de/de/neufahrzeuge/x/x4/2014/services-apps.html,https://www.bmw.de/de/neufahrzeuge/x/x4/2018/auf-einen-blick.html
https://www.bmw.de/de/neufahrzeuge/x/x4/2014/start.html,https://www.bmw.de/de/neufahrzeuge/x/x4/2018/auf-einen-blick.html
https://www.bmw.de/de/neufahrzeuge/x/x4/2014/bilder-videos.html,https://www.bmw.de/de/neufahrzeuge/x/x4/2018/bilder-videos.html
https://www.bmw.de/de/neufahrzeuge/x/x4/2014/modelle-ausstattungen.html,https://www.bmw.de/de/neufahrzeuge/x/x4/2018/modelle-ausstattungen.html
https://www.bmw.de/de/neufahrzeuge/bmw-m-performance/bmw-x4-m40d.html,https://www.bmw.de/de/neufahrzeuge/x/x4/2018/m-performance.html
https://www.bmw.de/de/neufahrzeuge/bmw-m-performance/bmw-x4-m40i.html,https://www.bmw.de/de/neufahrzeuge/x/x4/2018/m-performance.html
https://www.bmw.de/de/neufahrzeuge/x/x4/2014/bmw-mperformance.html,https://www.bmw.de/de/neufahrzeuge/x/x4/2018/m-performance.html
https://www.bmw.de/de/neufahrzeuge/x/x4/2014/technical-data.html,https://www.bmw.de/de/neufahrzeuge/x/x4/2018/technische-daten.html
https://www.bmw.de/de/neufahrzeuge/x/x5/2013/ausstattungen.html,https://www.bmw.de/de/neufahrzeuge/x/x5/2015/ausstattungen.html
https://www.bmw.de/de/neufahrzeuge/x/x5/2013/bilder-videos.html,https://www.bmw.de/de/neufahrzeuge/x/x5/2015/bilder-videos.html
https://www.bmw.de/de/neufahrzeuge/x/x5/2013/bmw-mperformance.html,https://www.bmw.de/de/neufahrzeuge/x/x5/2015/bmw-mperformance.html
https://www.bmw.de/de/neufahrzeuge/x/x5/2013/design.html,https://www.bmw.de/de/neufahrzeuge/x/x5/2015/design.htm
https://www.bmw.de/de/neufahrzeuge/x/x5/2013/driving-dynamics-and-efficiency.html,https://www.bmw.de/de/neufahrzeuge/x/x5/2015/driving-dynamics-and-efficiency.html
https://www.bmw.de/de/neufahrzeuge/x/x5/2013/fahrerassistenz.html,https://www.bmw.de/de/neufahrzeuge/x/x5/2015/fahrerassistenz.html
https://www.bmw.de/de/neufahrzeuge/x/x5/2013/fakten.html,https://www.bmw.de/de/neufahrzeuge/x/x5/2015/fakten.html
https://www.bmw.de/de/neufahrzeuge/x/x5/2013/highlights.html,https://www.bmw.de/de/neufahrzeuge/x/x5/2015/highlights.html
https://www.bmw.de/de/neufahrzeuge/x/x5/2013/bmw-edrive.html,https://www.bmw.de/de/neufahrzeuge/x/x5/2015/iperformance.html
https://www.bmw.de/de/neufahrzeuge/x/x5/2013/komfort.html,https://www.bmw.de/de/neufahrzeuge/x/x5/2015/komfort.html
https://www.bmw.de/de/neufahrzeuge/x/x5/2013/services-and-apps.html,https://www.bmw.de/de/neufahrzeuge/x/x5/2015/services-and-apps.html
https://www.bmw.de/de/neufahrzeuge/x/x5/2013/highlights/highlight-design.plain.linkId=Highlight567e84472be0f421d504abf1f1651559.html,https://www.bmw.de/de/neufahrzeuge/x/x5/2015/start.html
https://www.bmw.de/de/neufahrzeuge/x/x5/2013/motoren.html,https://www.bmw.de/de/neufahrzeuge/x/x5/2015/start.html
https://www.bmw.de/de/neufahrzeuge/x/x5/2013/start.html,https://www.bmw.de/de/neufahrzeuge/x/x5/2015/start.html
https://www.bmw.de/de/neufahrzeuge/x/x5/2015/uebersicht.html,https://www.bmw.de/de/neufahrzeuge/x/x5/2015/start.html
https://www.bmw.de/de/neufahrzeuge/x/x5/2013/technische-daten.html,https://www.bmw.de/de/neufahrzeuge/x/x5/2015/technische-daten.html
https://www.bmw.de/de/neufahrzeuge/x/x5/2015/ausstattungen.html,https://www.bmw.de/de/neufahrzeuge/x/x5/2018/ausstattungen.html
https://www.bmw.de/de/neufahrzeuge/x/x5/2015/design.html,https://www.bmw.de/de/neufahrzeuge/x/x5/2018/ausstattungen.html
https://www.bmw.de/de/neufahrzeuge/bmw-m-performance/bmw-x5-m50d.html,https://www.bmw.de/de/neufahrzeuge/x/x5/2018/bmw-x5-auf-einen-blick.html
https://www.bmw.de/de/neufahrzeuge/x/x5/2015/bmw-mperformance.html,https://www.bmw.de/de/neufahrzeuge/x/x5/2018/bmw-x5-auf-einen-blick.html
https://www.bmw.de/de/neufahrzeuge/x/x5/2015/driving-dynamics-efficiency.html,https://www.bmw.de/de/neufahrzeuge/x/x5/2018/bmw-x5-auf-einen-blick.html
https://www.bmw.de/de/neufahrzeuge/x/x5/2015/highlights.html,https://www.bmw.de/de/neufahrzeuge/x/x5/2018/bmw-x5-auf-einen-blick.html
https://www.bmw.de/de/neufahrzeuge/x/x5/2015/komfort.html,https://www.bmw.de/de/neufahrzeuge/x/x5/2018/bmw-x5-auf-einen-blick.html
https://www.bmw.de/de_DE/all-models/x-series/X5/2015/edrive.html,https://www.bmw.de/de/neufahrzeuge/x/x5/2018/bmw-x5-auf-einen-blick.html
https://www.bmw.de/de/neufahrzeuge/x/x5/2018/bmw-m50d-m-performance.html,https://www.bmw.de/de/neufahrzeuge/x/x5/2018/bmw-x5-auf-einen-blick.html#x5-m-performance
https://www.bmw.de/de/neufahrzeuge/x/x5/2015/bilder-videos.html,https://www.bmw.de/de/neufahrzeuge/x/x5/2018/bmw-x5-bilder-videos.html
https://www.bmw.de/de/neufahrzeuge/x/x5/2015/iperformance.html,https://www.bmw.de/de/neufahrzeuge/x/x5/2018/bmw-x5-technical-data.html
https://www.bmw.de/de/neufahrzeuge/x/x5/2015/technische-daten.html,https://www.bmw.de/de/neufahrzeuge/x/x5/2018/bmw-x5-technical-data.html
https://www.bmw.de/de/neufahrzeuge/x/x5/2015/fahrerassistenz.html,https://www.bmw.de/de/neufahrzeuge/x/x5/2018/fakten.html
https://www.bmw.de/de/neufahrzeuge/x/x5/2015/fakten.html,https://www.bmw.de/de/neufahrzeuge/x/x5/2018/fakten.html
https://www.bmw.de/de/neufahrzeuge/x/x5/2015/services-and-apps.html,https://www.bmw.de/de/neufahrzeuge/x/x5/2018/fakten.html
https://www.bmw.de/de/neufahrzeuge/bmw-m-performance/bmw-x6-m50d.html,https://www.bmw.de/de/neufahrzeuge/x/x6/2014/bmw-mperformance.html
https://www.bmw.de/de/neufahrzeuge/x/x6/2014/motoren.html,https://www.bmw.de/de/neufahrzeuge/x/x6/2014/start.html
https://www.bmw.de/de/neufahrzeuge/x/x6/2014/startseite.html,https://www.bmw.de/de/neufahrzeuge/x/x6/2014/start.html
https://www.bmw.de/de/neufahrzeuge/z4/roadster/2018/fakten.html,https://www.bmw.de/de/neufahrzeuge/z4/roadster/2018/bmw-z4-roadster-kaufen.html
https://www.bmw.de/de/ssl/formulare/rfi.html,https://www.bmw.de/de/ssl/requests/brand-switch-rfi.html
https://www.bmw.de/de/ssl/formulare/tda.html,https://www.bmw.de/de/ssl/requests/brand-switch-tda.html#/&modelRange=
https://www.bmw.de/de/footer/q-and-a/faq/bmw-connecteddrive.html,https://www.bmw.de/de/topics/faq/bmw-connecteddrive.html
https://www.bmw.de/de/footer/q-and-a/faq/faq-finanzieren-versichern/finanzierung.html,https://www.bmw.de/de/topics/faq/faq-finanzieren-versichern/finanzierung.html
https://www.bmw.de/de/footer/q-and-a/faq/faq-finanzieren-versichern/leasing.html,https://www.bmw.de/de/topics/faq/faq-finanzieren-versichern/leasing.html
https://www.bmw.de/de/footer/q-and-a/faq/faq-service-zubehoer/mobile-endgeraete/bluetooth-schnittstelle.html,https://www.bmw.de/de/topics/faq/faq-service-zubehoer/bluetooth-schnittstelle.html
https://www.bmw.de/de/footer/q-and-a/faq/faq-service-zubehoer/bmw-mobile/mybmwremote.html,https://www.bmw.de/de/topics/faq/faq-service-zubehoer/bmw-mobile.html
https://www.bmw.de/de/footer/q-and-a/faq/umweltpraemie.html,https://www.bmw.de/de/topics/faq/umweltpraemie.html
https://www.bmw.de/de/neufahrzeuge/bmw-i/bmw-i/konzept.html,https://www.bmw.de/de/topics/fascination-bmw/bmw-i/konzept.html
https://www.bmw.de/de/neufahrzeuge/bmw-i/bmw-i/nachhaltigkeit.html,https://www.bmw.de/de/topics/fascination-bmw/bmw-i/nachhaltigkeit.html
https://www.bmw.de/de/topics/faszination-bmw/connecteddrive/connecteddrive-services-offers/login.html,https://www.bmw.de/de/topics/fascination-bmw/connected-drive/connecteddrive-for-users.html
https://www.bmw.de/de/topics/fascination-bmw/connected-drive/digital-services/teleservices.html,https://www.bmw.de/de/topics/fascination-bmw/connected-drive/connecteddrive-for-users/teleservices.html
https://www.bmw.de/de/topics/faszination-bmw/connecteddrive/digital-services/online-fahrtenbuch.html,https://www.bmw.de/de/topics/fascination-bmw/connected-drive/digital-services/online-fahrtenbuch.html
https://www.bmw.de/de/topics/faszination-bmw/connecteddrive/connecteddrive-store-portal.html,https://www.bmw.de/de/topics/fascination-bmw/connected-drive/store-and-customer-portal.html
https://www.bmw.de/de/topics/faszination-bmw/bmw-erleben/bmw-lenbachplatz/eventlocation-mieten.html,https://www.bmw.de/de/topics/faszination-bmw/bmw-erleben/bmw-lenbachplatz.html
https://www.bmw.de/de/topics/faszination-bmw/bmw-erleben/bmw-lenbachplatz/ausstellungen-veranstaltungen.html,https://www.bmw.de/de/topics/faszination-bmw/bmw-erleben/bmw-lenbachplatz.html#
https://www.bmw.de/de/topics/faszination-bmw/bmw-aktuell/bmw-magazin.html,https://www.bmw.de/de/topics/faszination-bmw/bmw-erleben/bmw-magazin.html
https://www.bmw.de/de/topics/faszination-bmw/bmw-erleben/bmw-lenbachplatz.html,https://www.bmw.de/de/topics/faszination-bmw/bmw-erleben/bmw-markenschaufenster/bmw-lenbachplatz-1.html
https://www.bmw.de/de/topics/faszination-bmw/fahrzeuge-entdecken/product-genius.html,https://www.bmw.de/de/topics/faszination-bmw/bmw-erleben/product-genius.html
https://www.bmw.de/de/neufahrzeuge/bmw-i/bmw-i-entdecken/auf-einen-blick.html,https://www.bmw.de/de/topics/faszination-bmw/bmw-i-2016/auf-einen-blick.html
https://www.bmw.de/de/neufahrzeuge/bmw-i/i3/2017/bmw-i-community.html,https://www.bmw.de/de/topics/faszination-bmw/bmw-i-2016/auf-einen-blick.html
https://www.bmw.de/de/neufahrzeuge/bmw-i/i3/2017/bmw-i-community/login.html,https://www.bmw.de/de/topics/faszination-bmw/bmw-i-2016/auf-einen-blick.html
https://www.bmw.de/de/neufahrzeuge/bmw-i/i3/2017/bmw-i-community/registrierung.html,https://www.bmw.de/de/topics/faszination-bmw/bmw-i-2016/auf-einen-blick.html
https://www.bmw.de/de/topics/faszination-bmw/bmw-i-2016/bmw-i-community.html,https://www.bmw.de/de/topics/faszination-bmw/bmw-i-2016/auf-einen-blick.html
https://www.bmw.de/de/topics/faszination-bmw/bmw-i-2016/bmw-i-community/login.html,https://www.bmw.de/de/topics/faszination-bmw/bmw-i-2016/auf-einen-blick.html
https://www.bmw.de/de/topics/faszination-bmw/bmw-i-2016/bmw-i-community/registrierung.html,https://www.bmw.de/de/topics/faszination-bmw/bmw-i-2016/auf-einen-blick.html
https://www.bmw.de/de/neufahrzeuge/bmw-i/bmwi/bmw-i-vision-dynamics.html,https://www.bmw.de/de/topics/faszination-bmw/bmw-i-2016/bmw-i-vision-dynamics.html
https://www.bmw.de/de/topics/faszination-bmw/bmw-individual/individual-kollektion.html,https://www.bmw.de/de/topics/faszination-bmw/bmw-individual.html
https://www.bmw.de/de/topics/faszination-bmw/bmw-individual/individual-manufaktur.html,https://www.bmw.de/de/topics/faszination-bmw/bmw-individual.html
https://www.bmw.de/de/topics/faszination-bmw/bmw-individual/uebersicht.html,https://www.bmw.de/de/topics/faszination-bmw/bmw-individual.html
https://www.bmw.de/de/topics/faszination-bmw/individual/individual-kollektion.html,https://www.bmw.de/de/topics/faszination-bmw/bmw-individual.html
https://www.bmw.de/de/topics/faszination-bmw/individual/individual-manufaktur.html,https://www.bmw.de/de/topics/faszination-bmw/bmw-individual.html
https://www.bmw.de/de/topics/faszination-bmw/individual/uebersicht.html,https://www.bmw.de/de/topics/faszination-bmw/bmw-individual.html
https://www.bmw.de/de/topics/faszination-bmw/bmw-news.html,https://www.bmw.de/de/topics/faszination-bmw/bmw-news/all-news.html
https://www.bmw.de/de/topics/faszination-bmw/bmw-aktuell/bmw-tv.gotoUrl=d3d3LmJtdy50djo4MC93ZWIvZGUvdGV4dG5ld3MuZG8_dGV4dG5ld3NJRD0yNDgwNSZjaGFubmVsSUQ9MjE1.html,https://www.bmw.de/de/topics/faszination-bmw/bmw-news/innovations.html
https://www.bmw.de/de/topics/faszination-bmw/bmw-aktuell/bmw-tv.gotoUrl=d3d3LmJtdy50djo4MC93ZWIvZGUvdGV4dG5ld3MuZG8_dGV4dG5ld3NJRD0yNDczNSZjaGFubmVsSUQ9MjE2.html,https://www.bmw.de/de/topics/faszination-bmw/bmw-news/lifestyle.html
https://www.bmw.de/de/topics/faszination-bmw/xdrive/modelle-mit-x-drive.html,https://www.bmw.de/de/topics/faszination-bmw/bmw-xdrive-erleben/bmw-xdrive/modelle.html
https://www.bmw.de/de/topics/faszination-bmw/bmw-xdrive-erleben/xdrive/xdrive-technologie.html,https://www.bmw.de/de/topics/faszination-bmw/bmw-xdrive-erleben/bmw-xdrive/technologie.html
https://www.bmw.de/de/topics/faszination-bmw/bmw-x-erleben/gewinnspiel-lp.html,https://www.bmw.de/de/topics/faszination-bmw/bmw-xdrive-erleben/bmw-x-gewinnspiel.html
https://www.bmw.de/de/topics/faszination-bmw/bmw-x-erleben/xdrive/einfuehrung.html,https://www.bmw.de/de/topics/faszination-bmw/bmw-xdrive-erleben/uebersicht.html
https://www.bmw.de/de/topics/faszination-bmw/bmw-xdrive-erleben/startseite.html,https://www.bmw.de/de/topics/faszination-bmw/bmw-xdrive-erleben/uebersicht.html
https://www.bmw.de/Wintersport,https://www.bmw.de/de/topics/faszination-bmw/bmw-xdrive-erleben/wintersport.html
https://www.bmw.de/de/topics/faszination-bmw/sport-events/bmw-ticketshop/sport-und-events-events-und-tickets-tennis.news.Ym13LW9wZW4.html,https://www.bmw.de/de/topics/faszination-bmw/bmw-xdrive-erleben/wintersport/ticketshop.html
https://www.bmw.de/de/topics/faszination-bmw/sport-events/bmw-ticketshop/bob-skeleton-2015.html,https://www.bmw.de/de/topics/faszination-bmw/bmw-xdrive-erleben/wintersport/ticketshop/ticketshop-bob-skeleton.html
https://www.bmw.de/de/topics/faszination-bmw/bmw-xdrive-erleben/bmw-xdrive/bmw-xdrive.html,https://www.bmw.de/de/topics/faszination-bmw/bmw-xdrive-erleben/xdrive/uebersicht.html
https://www.bmw.de/de/topics/faszination-bmw/connecteddrive-2013/services-apps/remote-services.html,https://www.bmw.de/de/topics/faszination-bmw/connecteddrive/bmw-connected.html
https://www.bmw.de/de/topics/faszination-bmw/connecteddrive/connecteddrive-services-offers/mobile-endgeraete/firmware-update.html,https://www.bmw.de/de/topics/faszination-bmw/connecteddrive/connecteddrive-services-offers/mobile-devices.html
https://www.bmw.de/de/topics/faszination-bmw/connecteddrive/connecteddrive-services-offers/mobile-endgeraete/kompatibilitaet.html,https://www.bmw.de/de/topics/faszination-bmw/connecteddrive/connecteddrive-services-offers/mobile-devices.html
https://www.bmw.de/de/topics/faszination-bmw/connecteddrive/connecteddrive-services-offers/mobile-endgeraete/schnittstellen.html,https://www.bmw.de/de/topics/faszination-bmw/connecteddrive/connecteddrive-services-offers/mobile-devices.html
https://www.bmw.de/de/topics/faszination-bmw/connecteddrive/connecteddrive-services-offers/mobile-endgeraete/update.html,https://www.bmw.de/de/topics/faszination-bmw/connecteddrive/connecteddrive-services-offers/mobile-devices.html
https://www.bmw.de/de/topics/faszination-bmw/connecteddrive/connecteddrive-services-offers/bmw-online-bmw-assist/online-assist-overview.html,https://www.bmw.de/de/topics/faszination-bmw/connecteddrive/connecteddrive-services-offers/online-assist-overview.html
https://www.bmw.de/de/topics/faszination-bmw/connecteddrive/digital-services/applecarplay.html,https://www.bmw.de/de/topics/faszination-bmw/connecteddrive/digital-services/apple-carplay.html
https://www.bmw.de/de/footer/publications-links/technology-guide/concierge-service.html,https://www.bmw.de/de/topics/faszination-bmw/connecteddrive/digital-services/concierge-services.html
https://www.bmw.de/de/topics/faszination-bmw/connecteddrive-2013/services-apps/concierge-service.html,https://www.bmw.de/de/topics/faszination-bmw/connecteddrive/digital-services/concierge-services.html
https://www.bmw.de/de/topics/faszination-bmw/connecteddrive/digital-services/concierge-service.html,https://www.bmw.de/de/topics/faszination-bmw/connecteddrive/digital-services/concierge-services.html
https://www.bmw.de/de/topics/faszination-bmw/connecteddrive/services-apps/concierge-service.html,https://www.bmw.de/de/topics/faszination-bmw/connecteddrive/digital-services/concierge-services.html
https://www.bmw.de/de/topics/faszination-bmw/connecteddrive/services-apps/connecteddrive-services.html,https://www.bmw.de/de/topics/faszination-bmw/connecteddrive/digital-services/connecteddrive-services.html
https://www.bmw.de/de/topics/faszination-bmw/connecteddrive-2013/services-apps/ecall.html,https://www.bmw.de/de/topics/faszination-bmw/connecteddrive/digital-services/ecall.html
https://www.bmw.de/de/topics/faszination-bmw/connecteddrive/digital-services/microsoftexchange.html,https://www.bmw.de/de/topics/faszination-bmw/connecteddrive/digital-services/microsoft-exchange.html
https://www.bmw.de/de/topics/faszination-bmw/connecteddrive/fahrer-assistenz/intelligente-sicht.html,https://www.bmw.de/de/topics/faszination-bmw/connected-drive/driver-assistance.html
https://www.bmw.de/de/topics/faszination-bmw/connecteddrive/fahrer-assistenz/intelligentes-fahren.html,https://www.bmw.de/de/topics/faszination-bmw/connected-drive/driver-assistance.html
https://www.bmw.de/de/topics/faszination-bmw/connecteddrive/fahrer-assistenz/intelligentes-parken.html,https://www.bmw.de/de/topics/faszination-bmw/connected-drive/driver-assistance.html
https://www.bmw.de/de/neufahrzeuge/bmw-i/bmw-i/connecteddrive.html,https://www.bmw.de/de/topics/faszination-bmw/connecteddrive/i-connecteddrive.html
https://www.bmw.de/de/footer/publications-links/technology-guide/connected-drive.html,https://www.bmw.de/de/topics/faszination-bmw/connected-drive/overview.html
https://www.bmw.de/de/topics/faszination-bmw/connecteddrive-2013/ubersicht.html,https://www.bmw.de/de/topics/faszination-bmw/connecteddrive/ubersicht.html
https://www.bmw.de/de/topics/faszination-bmw/efficientdynamics-2015.html,https://www.bmw.de/de/topics/faszination-bmw/efficient-dynamics/uebersicht.html
https://www.bmw.de/emission,https://www.bmw.de/de/topics/faszination-bmw/efficientdynamics-2015/consumption-emissions.html
https://www.bmw.de/emissionen,https://www.bmw.de/de/topics/faszination-bmw/efficientdynamics-2015/consumption-emissions.html
https://www.bmw.de/messmethode,https://www.bmw.de/de/topics/faszination-bmw/efficientdynamics-2015/consumption-emissions.html
https://www.bmw.de/messmethoden,https://www.bmw.de/de/topics/faszination-bmw/efficientdynamics-2015/consumption-emissions.html
https://www.bmw.de/messverfahren,https://www.bmw.de/de/topics/faszination-bmw/efficientdynamics-2015/consumption-emissions.html
https://www.bmw.de/nefz,https://www.bmw.de/de/topics/faszination-bmw/efficientdynamics-2015/consumption-emissions.html
https://www.bmw.de/testmethode,https://www.bmw.de/de/topics/faszination-bmw/efficientdynamics-2015/consumption-emissions.html
https://www.bmw.de/testmethoden,https://www.bmw.de/de/topics/faszination-bmw/efficientdynamics-2015/consumption-emissions.html
https://www.bmw.de/testverfahren,https://www.bmw.de/de/topics/faszination-bmw/efficientdynamics-2015/consumption-emissions.html
https://www.bmw.de/testzyklen,https://www.bmw.de/de/topics/faszination-bmw/efficientdynamics-2015/consumption-emissions.html
https://www.bmw.de/testzyklus,https://www.bmw.de/de/topics/faszination-bmw/efficientdynamics-2015/consumption-emissions.html
https://www.bmw.de/verbrauch,https://www.bmw.de/de/topics/faszination-bmw/efficientdynamics-2015/consumption-emissions.html
https://www.bmw.de/wltp,https://www.bmw.de/de/topics/faszination-bmw/efficientdynamics-2015/consumption-emissions.html
https://www.bmw.de/de/topics/faszination-bmw/efficientdynamics-2015/edrive.html,https://www.bmw.de/de/topics/faszination-bmw/efficientdynamics-2015/elektrischer-antrieb.html
https://www.bmw.de/de/fastlane/elektromobilitaet/faq-edrive.html,https://www.bmw.de/de/topics/faszination-bmw/elektromobilitaet/faq.html
https://www.bmw.de/de/fastlane/elektromobilitaet/uebersicht.html,https://www.bmw.de/de/topics/faszination-bmw/elektromobilitaet/introduction.html
https://www.bmw.de/de/fastlane/elektromobilitaet/modelle-mit-edrive.html,https://www.bmw.de/de/topics/faszination-bmw/elektromobilitaet/modelle-mit-edrive.html
https://www.bmw.de/de/fastlane/elektromobilitaet/zu-hause-aufladen.html,https://www.bmw.de/de/topics/faszination-bmw/elektromobilitaet/zu-hause-aufladen.html
https://www.bmw.de/de/neufahrzeuge/bmw-i/bmw-i/360-electric.html,https://www.bmw.de/de/topics/faszination-bmw/elektromobilitaet/zu-hause-aufladen.html
https://www.bmw.de/de/fastlane/finanzieren-versichern/bmw-i.html,https://www.bmw.de/de/topics/faszination-bmw/finanzieren-versichern/bmw-i.html
https://www.bmw.de/de/fastlane/finanzieren-versichern/businessleasing.html,https://www.bmw.de/de/topics/faszination-bmw/finanzieren-versichern/businessleasing.html
https://www.bmw.de/de/fastlane/finanzieren-versichern/einfuehrung.html,https://www.bmw.de/de/topics/faszination-bmw/finanzieren-versichern/einfuehrung.html
https://www.bmw.de/de/fastlane/finanzieren-versichern/faq/finanzierung.html,https://www.bmw.de/de/topics/faszination-bmw/finanzieren-versichern/leasing.html
https://www.bmw.de/de/fastlane/finanzieren-versichern/faq/leasing.html,https://www.bmw.de/de/topics/faszination-bmw/finanzieren-versichern/leasing.html
https://www.bmw.de/de/fastlane/finanzieren-versichern/servicecenter/kontakt.html,https://www.bmw.de/de/topics/faszination-bmw/finanzieren-versichern/servicecenter/contact.html
https://www.bmw.de/de/fastlane/finanzieren-versichern/servicecenter/formularcenter.html,https://www.bmw.de/de/topics/faszination-bmw/finanzieren-versichern/servicecenter/formularcenter.html
https://www.bmw.de/de/fastlane/finanzieren-versichern/versichern.html,https://www.bmw.de/de/topics/faszination-bmw/finanzieren-versichern/versichern.html
https://www.bmw.de/de/fastlane/grosskunden-behoerden/behoerdenfahrzeuge/einfuehrung.html,https://www.bmw.de/de/topics/faszination-bmw/grosskunden-behoerden/behoerdenfahrzeuge.html
https://www.bmw.de/de/topics/faszination-bmw/grosskunden-behoerden/behoerdenfahrzeuge/stuetzpunkthaendler.html,https://www.bmw.de/de/topics/faszination-bmw/grosskunden-behoerden/behoerdenfahrzeuge.html
https://www.bmw.de/de/fastlane/grosskunden-behoerden/bmw-fahrhilfen.html,https://www.bmw.de/de/topics/faszination-bmw/grosskunden-behoerden/bmw-fahrhilfen.html
https://www.bmw.de/de/fastlane/grosskunden-behoerden/corporate-sales/startseite.html,https://www.bmw.de/de/topics/faszination-bmw/grosskunden-behoerden/corporate-sales/startseite.html
https://www.bmw.de/de/publicPools/offerPool/bmwtopics/grosskunden/x1-business-package.html,https://www.bmw.de/de/topics/faszination-bmw/grosskunden-behoerden/corporate-sales/startseite.html
https://www.bmw.de/de/fastlane/grosskunden-behoerden/corporate-sales/konfigurator.html,https://www.bmw.de/de/topics/faszination-bmw/grosskunden-behoerden/corporate-sales/wartung-grosskunden-konfigurator.html
https://www.bmw.de/de/fastlane/grosskunden-behoerden/diplomatic-sales.html,https://www.bmw.de/de/topics/faszination-bmw/grosskunden-behoerden/diplomatic-sales.html
https://www.bmw.de/de/fastlane/grosskunden-behoerden/einsatzfahrzeuge/einfuehrung.html,https://www.bmw.de/de/topics/faszination-bmw/grosskunden-behoerden/einsatzfahrzeuge.html
https://www.bmw.de/de/topics/faszination-bmw/grosskunden-behoerden/einsatzfahrzeuge/stuetzpunkthaendler.html,https://www.bmw.de/de/topics/faszination-bmw/grosskunden-behoerden/einsatzfahrzeuge.html
https://www.bmw.de/de/fastlane/grosskunden-behoerden/fahrschulfahrzeuge.html,https://www.bmw.de/de/topics/faszination-bmw/grosskunden-behoerden/fahrschulfahrzeuge.html
https://www.bmw.de/de/fastlane/grosskunden-behoerden/sicherheitsfahrzeuge/modelluebersicht.html,https://www.bmw.de/de/topics/faszination-bmw/grosskunden-behoerden/sicherheitsfahrzeuge.html
https://www.bmw.de/flottenkunden,https://www.bmw.de/de/topics/faszination-bmw/grosskunden-behoerden/uebersicht.html
https://www.bmw.de/de/topics/faszination-bmw/unternehmen/m-gmbh-2014/m-performance-automobile.html,https://www.bmw.de/de/topics/faszination-bmw/m-performance-automobile.html
https://www.bmw.de/ticketshop,https://www.bmw.de/de/topics/faszination-bmw/sport-events/bmw-sport.html
https://www.bmw.de/de/topics/faszination-bmw/sport-events/dtm-2014/einfuehrung.html,https://www.bmw.de/de/topics/faszination-bmw/sport-events/dtm.html
https://www.bmw.de/de/topics/faszination-bmw/sport-events/dtm-2014/introduction.html,https://www.bmw.de/de/topics/faszination-bmw/sport-events/dtm.html
https://www.bmw.de/de/topics/faszination-bmw/sport-events/laufsport/gewinnspiel.html,https://www.bmw.de/de/topics/faszination-bmw/sport-events/laufsport.html
https://www.bmw.de/de/topics/gebrauchtfahrzeuge/Fahrzeugarten/jahreswagen/vorvertragspool.html,https://www.bmw.de/de/topics/gebrauchtfahrzeuge/Fahrzeugarten/jahreswagen/vorvertragspool.html
https://www.bmw.de/de/topics/gebrauchtfahrzeuge.html,https://www.bmw.de/de/topics/gebrauchtfahrzeuge/gebrauchtfahrzeuge.html
https://www.bmw.de/de/topics/gebrauchtfahrzeuge/aktuelle-angebote.html,https://www.bmw.de/de/topics/gebrauchtfahrzeuge/gebrauchtfahrzeuge.html
https://www.bmw.de/de/topics/gebrauchtfahrzeuge/eurotax-schwacke.html,https://www.bmw.de/de/topics/gebrauchtfahrzeuge/gebrauchtfahrzeuge.html
https://www.bmw.de/de_DE/topics/gebrauchtfahrzeuge/bmwi-used-car-search/_jcr_content/iframeintegrationadaptive.html,https://www.bmw.de/de/topics/gebrauchtfahrzeuge/gebrauchtfahrzeuge.html
https://www.bmw.de/de/topics/gebrauchtfahrzeuge/gebrauchtwagenboerse-preconfig.html,https://www.bmw.de/de/topics/gebrauchtfahrzeuge/gebrauchtwagenboerse.html
https://www.bmw.de/login,https://www.bmw.de/de/topics/mein-bmw.html
https://www.bmw.de/servicetermine,https://www.bmw.de/de/topics/service-zubehoer/bmw-online-appointment.html
https://www.bmw.de/de/de/owners/bmw_service/recycling/overview.html,https://www.bmw.de/de/topics/service-zubehoer/bmw-service/recycling.html
https://www.bmw.de/de/topics/service-zubehoer/bmw-service/serviceamfahrzeug/schoenheitsreparatur.html,https://www.bmw.de/de/topics/service-zubehoer/bmw-service/reparatur-und-pflege/minor-damage-repair-care.html
https://www.bmw.de/de/topics/service-zubehoer/bmw-service/serviceamfahrzeug/werkstattleistungen.html,https://www.bmw.de/de/topics/service-zubehoer/bmw-service/reparatur-und-pflege/mobil-bmwservice.html
https://www.bmw.de/de/topics/service-zubehoer/bmw-service/serviceamfahrzeug/wartungskonzept.html,https://www.bmw.de/de/topics/service-zubehoer/bmw-service/reparatur-und-pflege/vehicle-check-maintenance.html
https://www.bmw.de/de/topics/service-zubehoer/bmw-service/treueservice/gewinnspiel.html,https://www.bmw.de/de/topics/service-zubehoer/bmw-service/service-pakete.html#
https://www.bmw.de/de/de/owners/service/mobileservices.html,https://www.bmw.de/de/topics/service-zubehoer/bmw-service/sicherheit-unterwegs.html
https://www.bmw.de/de/topics/service-zubehoer/motorenoel.html,https://www.bmw.de/de/topics/service-zubehoer/original-bmw-motorenol.html
https://www.bmw.de/de/topics/service-zubehoer/original-bmwteile/elektronischer-teilekatalog.html,https://www.bmw.de/de/topics/service-zubehoer/original-bmwteile/epc.html
https://www.bmw.de/de/topics/service-zubehoer/original-bmwteile/original-bmwneuteile/agmbatterie.html,https://www.bmw.de/de/topics/service-zubehoer/original-bmwteile/original-bmwneuteile.html
https://www.bmw.de/de/topics/service-zubehoer/original-bmwteile/original-bmwneuteile/bmwbremsbelaege.html,https://www.bmw.de/de/topics/service-zubehoer/original-bmwteile/original-bmwneuteile.html
https://www.bmw.de/de/topics/service-zubehoer/original-bmwteile/original-bmwneuteile/bmwbremsscheiben.html,https://www.bmw.de/de/topics/service-zubehoer/original-bmwteile/original-bmwneuteile.html
https://www.bmw.de/de/topics/service-zubehoer/original-bmwteile/original-bmwneuteile/xenonscheinwerfer.html,https://www.bmw.de/de/topics/service-zubehoer/original-bmwteile/original-bmwneuteile.html
https://www.bmw.de/de/topics/service-zubehoer/original-bmw-zubehoer/m-performance/uebersicht.html,https://www.bmw.de/de/topics/service-zubehoer/original-bmw-zubehoer/m-performance.html
https://www.bmw.de/de/neufahrzeuge/5er/touring/2017/original-bmw-zubehoer.html,https://www.bmw.de/de/topics/service-zubehoer/original-bmw-zubehoer/original-bmw-zubehoer-showroom.html
https://www.bmw.de/de/topics/service-zubehoer.html,https://www.bmw.de/de/topics/service-zubehoer/original-bmw-zubehoer/original-bmw-zubehoer-showroom.html
https://www.bmw.de/de/topics/service-zubehoer/original-bmw-zubehoer-finden.categoryId=ManufacturerAccessoryCategory3.html,https://www.bmw.de/de/topics/service-zubehoer/original-bmw-zubehoer/original-bmw-zubehoer-showroom.html
https://www.bmw.de/de/topics/service-zubehoer/original-bmw-zubehoer-finden.categoryId=ManufacturerAccessoryCategory6.html,https://www.bmw.de/de/topics/service-zubehoer/original-bmw-zubehoer/original-bmw-zubehoer-showroom.html
https://www.bmw.de/de/topics/service-zubehoer/original-bmw-zubehoer-finden.categoryId=ManufacturerAccessoryCategory8.html,https://www.bmw.de/de/topics/service-zubehoer/original-bmw-zubehoer/original-bmw-zubehoer-showroom.html
https://www.bmw.de/de/topics/service-zubehoer/original-bmw-zubehoer-finden.html,https://www.bmw.de/de/topics/service-zubehoer/original-bmw-zubehoer/original-bmw-zubehoer-showroom.html
https://www.bmw.de/de/topics/service-zubehoer/original-bmw-zubehoer-finden/accessoryDetail.accessoryId=10276.html,https://www.bmw.de/de/topics/service-zubehoer/original-bmw-zubehoer/original-bmw-zubehoer-showroom.html
https://www.bmw.de/de/topics/service-zubehoer/original-bmw-zubehoer-finden/accessoryDetail.accessoryId=10617.html,https://www.bmw.de/de/topics/service-zubehoer/original-bmw-zubehoer/original-bmw-zubehoer-showroom.html
https://www.bmw.de/de/topics/service-zubehoer/original-bmw-zubehoer-finden/accessoryDetail.accessoryId=10725.html,https://www.bmw.de/de/topics/service-zubehoer/original-bmw-zubehoer/original-bmw-zubehoer-showroom.html
https://www.bmw.de/de/topics/service-zubehoer/original-bmw-zubehoer-finden/accessoryDetail.accessoryId=10752.html,https://www.bmw.de/de/topics/service-zubehoer/original-bmw-zubehoer/original-bmw-zubehoer-showroom.html
https://www.bmw.de/de/topics/service-zubehoer/original-bmw-zubehoer-finden/accessoryDetail.accessoryId=10841.html,https://www.bmw.de/de/topics/service-zubehoer/original-bmw-zubehoer/original-bmw-zubehoer-showroom.html
https://www.bmw.de/de/topics/service-zubehoer/original-bmw-zubehoer-finden/accessoryDetail.accessoryId=11122.html,https://www.bmw.de/de/topics/service-zubehoer/original-bmw-zubehoer/original-bmw-zubehoer-showroom.html
https://www.bmw.de/de/topics/service-zubehoer/original-bmw-zubehoer-finden/accessoryDetail.accessoryId=2257.html,https://www.bmw.de/de/topics/service-zubehoer/original-bmw-zubehoer/original-bmw-zubehoer-showroom.html
https://www.bmw.de/de/topics/service-zubehoer/original-bmw-zubehoer-finden/accessoryDetail.accessoryId=4309.html,https://www.bmw.de/de/topics/service-zubehoer/original-bmw-zubehoer/original-bmw-zubehoer-showroom.html
https://www.bmw.de/de/topics/service-zubehoer/original-bmw-zubehoer-finden/accessoryDetail.accessoryId=4550.html,https://www.bmw.de/de/topics/service-zubehoer/original-bmw-zubehoer/original-bmw-zubehoer-showroom.html
https://www.bmw.de/de/topics/service-zubehoer/original-bmw-zubehoer-finden/accessoryDetail.accessoryId=563.html,https://www.bmw.de/de/topics/service-zubehoer/original-bmw-zubehoer/original-bmw-zubehoer-showroom.html
https://www.bmw.de/de/topics/service-zubehoer/original-bmw-zubehoer-finden/accessoryDetail.accessoryId=8042.html,https://www.bmw.de/de/topics/service-zubehoer/original-bmw-zubehoer/original-bmw-zubehoer-showroom.html
https://www.bmw.de/de/topics/service-zubehoer/original-bmw-zubehoer-finden/accessoryDetail.accessoryId=8470.html,https://www.bmw.de/de/topics/service-zubehoer/original-bmw-zubehoer/original-bmw-zubehoer-showroom.html
https://www.bmw.de/de/topics/service-zubehoer/original-bmw-zubehoer-finden/accessoryDetail.accessoryId=8490.html,https://www.bmw.de/de/topics/service-zubehoer/original-bmw-zubehoer/original-bmw-zubehoer-showroom.html
https://www.bmw.de/de/topics/service-zubehoer/original-bmw-zubehoer-finden/accessoryDetail.accessoryId=8649.html,https://www.bmw.de/de/topics/service-zubehoer/original-bmw-zubehoer/original-bmw-zubehoer-showroom.html
https://www.bmw.de/de/topics/service-zubehoer/original-bmw-zubehoer-finden/accessoryDetail.accessoryId=8913.html,https://www.bmw.de/de/topics/service-zubehoer/original-bmw-zubehoer/original-bmw-zubehoer-showroom.html
https://www.bmw.de/de/topics/service-zubehoer/original-bmw-zubehoer-finden/accessoryDetail.accessoryId=9012.html,https://www.bmw.de/de/topics/service-zubehoer/original-bmw-zubehoer/original-bmw-zubehoer-showroom.html
https://www.bmw.de/de/topics/service-zubehoer/original-bmw-zubehoer-finden/accessoryDetail.accessoryId=9017.html,https://www.bmw.de/de/topics/service-zubehoer/original-bmw-zubehoer/original-bmw-zubehoer-showroom.html
https://www.bmw.de/de/topics/service-zubehoer/original-bmw-zubehoer-finden/accessoryDetail.accessoryId=9102.html,https://www.bmw.de/de/topics/service-zubehoer/original-bmw-zubehoer/original-bmw-zubehoer-showroom.html
https://www.bmw.de/de/topics/service-zubehoer/original-bmw-zubehoer-finden/accessoryDetail.accessoryId=9125.html,https://www.bmw.de/de/topics/service-zubehoer/original-bmw-zubehoer/original-bmw-zubehoer-showroom.html
https://www.bmw.de/de/topics/service-zubehoer/original-bmw-zubehoer-finden/accessoryDetail.accessoryId=9127.html,https://www.bmw.de/de/topics/service-zubehoer/original-bmw-zubehoer/original-bmw-zubehoer-showroom.html
https://www.bmw.de/de/topics/service-zubehoer/original-bmw-zubehoer-finden/accessoryDetail.accessoryId=9872.html,https://www.bmw.de/de/topics/service-zubehoer/original-bmw-zubehoer/original-bmw-zubehoer-showroom.html
https://www.bmw.de/de/topics/service-zubehoer/original-bmw-zubehoer-finden/accessoryDetail.accessoryId=9922.html,https://www.bmw.de/de/topics/service-zubehoer/original-bmw-zubehoer/original-bmw-zubehoer-showroom.html
https://www.bmw.de/raeder,https://www.bmw.de/de/topics/service-zubehoer/original-bmw-zubehoer/reifen.html
https://www.bmw.de/reifenversicherung,https://www.bmw.de/de/topics/service-zubehoer/original-bmw-zubehoer/reifen.html#reifenversicherung
https://www.bmw.de/de/footer/publications-links/technology-guide/navgiationssystem-professional.html,https://www.bmw.de/de/topics/service-zubehoer/original-bmw-zubehoer/reise-freizeit.html#/navigation
https://www.bmw.de/de/topics/service-zubehoer/original-bmw-zubehoer-finden.categoryId=ManufacturerAccessoryCategory1.html,https://www.bmw.de/de/topics/service-zubehoer/original-bmw-zubehoer/zubehoerkonfigurator.html
https://www.bmw.de/de/topics/service-zubehoer/original-bmw-zubehoer-finden.categoryId=ManufacturerAccessoryCategory7.html,https://www.bmw.de/de/topics/service-zubehoer/original-bmw-zubehoer/zubehoerkonfigurator.html
https://www.bmw.de/de/topics/service-zubehoer/original-bmw-zubehoer/downloads/kataloge.html,https://www.bmw.de/de/topics/service-zubehoer/original-bmw-zubehoer/zubehoerkonfigurator.html
https://www.bmw.de/de/topics/service-zubehoer/original-bmw-zubehoer/downloads/navigation.html,https://www.bmw.de/de/topics/service-zubehoer/original-bmw-zubehoer/zubehoerkonfigurator.html
https://www.bmw.de/de/topics/service-zubehoer/aktuelle-angebote/winterkomplettraeder.html,https://www.bmw.de/de/topics/service-zubehoer/saisonangebote/komplettraeder.html
https://www.bmw.de/de/topics/service-zubehoer/jahresstart/uebersicht.html,https://www.bmw.de/de/topics/service-zubehoer/saisonangebote/uebersicht.html
https://www.bmw.de/de/neufahrzeuge/4er/cabrio/2017.html,https://www.bmw.de/neufahrzeuge/4er/cabrio/2019/bmw-4er-cabrio-entdecken.html
https://www.bmw.de/de/neufahrzeuge/4er/cabrio/2017/at-a-glance.html,https://www.bmw.de/neufahrzeuge/4er/cabrio/2019/bmw-4er-cabrio-entdecken.html
https://www.bmw.de/de/neufahrzeuge/4er/cabrio/2017/bmw-4-series-convertible.html,https://www.bmw.de/neufahrzeuge/4er/cabrio/2019/bmw-4er-cabrio-entdecken.html
https://www.bmw.de/de/neufahrzeuge/4er/cabrio/2017/connectivity.html,https://www.bmw.de/neufahrzeuge/4er/cabrio/2019/bmw-4er-cabrio-entdecken.html
https://www.bmw.de/de/neufahrzeuge/4er/cabrio/2017/design.html,https://www.bmw.de/neufahrzeuge/4er/cabrio/2019/bmw-4er-cabrio-entdecken.html
https://www.bmw.de/de/neufahrzeuge/4er/cabrio/2017/driving-dynamics.html,https://www.bmw.de/neufahrzeuge/4er/cabrio/2019/bmw-4er-cabrio-entdecken.html
https://www.bmw.de/de/neufahrzeuge/4er/cabrio/2017/facts-copy-for-incident-analysis.html,https://www.bmw.de/neufahrzeuge/4er/cabrio/2019/bmw-4er-cabrio-entdecken.html
https://www.bmw.de/de/neufahrzeuge/4er/cabrio/2017/images-and-videos.html,https://www.bmw.de/neufahrzeuge/4er/cabrio/2019/bmw-4er-cabrio-entdecken.html
https://www.bmw.de/komplettraeder,https://www.bmw.de/topics/service-zubehoer/saisonangebote/komplettraeder.html
https://www.bmw.de/mr_ahag-coesfeld,http://www.ahag.bmw-motorrad.de/de/ahag/de/index.html
https://www.bmw.de/mr_ahg-gmbh,http://www.ahg-gmbh.bmw-motorrad.de/de/ahg-gmbh/de/index.html
https://www.bmw.de/mr_bachfrieder,http://www.bachfrieder.bmw-motorrad.de/de/bachfrieder/de/index.html
https://www.bmw.de/mr_berlin,http://www.berlin.bmw-motorrad.de/de/berlin/de/index.html
https://www.bmw.de/mr_block,http://www.block.bmw-motorrad.de/de/block/de/index.html
https://www.bmw.de/de/topics/fascination-bmw/connected-drive/store-and-customer-portal.html,http://www.bmw-connecteddrive.de/app/de/index.html?bmw=grp:bmw_de:de:mTopNavi
https://www.bmw.de/mr_bobrink,http://www.bobrink.bmw-motorrad.de/de/bobrink/de/index.html
https://www.bmw.de/mr_bremen,http://www.bremen.bmw-motorrad.de/de/bremen/de/index.html
https://www.bmw.de/mr_chemnitz,http://www.chemnitz.bmw-motorrad.de/de/chemnitz/de/index.html
https://www.bmw.de/mr_cloppenburg-gruppe,http://www.cloppenburg-gruppe.bmw-motorrad.de/de/cloppenburg-gruppe/de/index.html
https://www.bmw.de/mr_rheinmain,http://www.dreieich.bmw-motorrad.de/de/dreieich/de/index.html
https://www.bmw.de/mr_dresden,http://www.dresden.bmw-motorrad.de/de/dresden/de/index.html
https://www.bmw.de/mr_erwin-martin,http://www.erwin-martin.bmw-motorrad.de/de/erwin-martin/de/index.html
https://www.bmw.de/mr_freese,http://www.freese.bmw-motorrad.de/de/freese/de/index.html
https://www.bmw.de/mr_gottstein,http://www.gottstein.bmw-motorrad.de/de/gottstein/de/index.html
https://www.bmw.de/mr_hakvoort,http://www.hakvoort.bmw-motorrad.de/de/hakvoort/de/index.html
https://www.bmw.de/mr_hamburg,http://www.hamburg.bmw-motorrad.de/de/hamburg/de/index.html
https://www.bmw.de/mr_hannover,http://www.hannover.bmw-motorrad.de/de/hannover/de/index.html
https://www.bmw.de/mr_helming-sohn,http://www.helming-sohn.bmw-motorrad.de/de/helming-sohn/de/index.html
https://www.bmw.de/mr_horn,http://www.horn.bmw-motorrad.de/de/horn/de/index.html
https://www.bmw.de/mr_kaltenbachgruppe,http://www.kaltenbachgruppe.bmw-motorrad.de/de/kaltenbachgruppe/de/index.html
https://www.bmw.de/mr_kassel,http://www.kassel.bmw-motorrad.de/de/kassel/de/index.html
https://www.bmw.de/mr_krah-enders-hersfeld,http://www.krah-enders-hersfeld.bmw-motorrad.de/de/krah-enders-hersfeld/de/index.html
https://www.bmw.de/mr_kuehnert,http://www.kuehnert.bmw-motorrad.de/de/kuehnert/de/index.html
https://www.bmw.de/mr_leebmann,http://www.leebmann.bmw-motorrad.de/de/leebmann/de/index.html
https://www.bmw.de/mr_leinetal,http://www.leinetal.bmw-motorrad.de/de/leinetal/de/index.html
https://www.bmw.de/mr_leipzig,http://www.leipzig.bmw-motorrad.de/de/leipzig/de/index.html
https://www.bmw.de/mr_mueller-leipzig,http://www.mueller-leipzig.bmw-motorrad.de/de/mueller-leipzig/de/index.html
https://www.bmw.de/mr_mueller-odw,http://www.mueller-odw.bmw-motorrad.de/de/mueller-odw/de/index.html
https://www.bmw.de/mr_muenchen,http://www.muenchen.bmw-motorrad.de/de/muenchen/de/index.html
https://www.bmw.de/mr_mulfinger,http://www.mulfinger.bmw-motorrad.de/de/mulfinger/de/index.html
https://www.bmw.de/mr_nrw,http://www.nrw.bmw-motorrad.de/de/nrw/de/index.html
https://www.bmw.de/mr_nuernberg,http://www.nuernberg.bmw-motorrad.de/de/nuernberg/de/index.html
https://www.bmw.de/mr_procar,http://www.procar.bmw-motorrad.de/de/procar/de/index.html
https://www.bmw.de/mr_rhein-ludwigsburg,http://www.rhein-ludwigsburg.bmw-motorrad.de/de/rhein-ludwigsburg/de/index.html
https://www.bmw.de/mr_saarbruecken,http://www.saarbruecken.bmw-motorrad.de/de/saarbruecken/de/index.html
https://www.bmw.de/mr_schubert,http://www.schubert.bmw-motorrad.de/de/schubert/de/index.html
https://www.bmw.de/mr_stadel,http://www.stadel.bmw-motorrad.de/de/stadel/de/index.html
https://www.bmw.de/mr_stuttgart,http://www.stuttgart.bmw-motorrad.de/de/stuttgart/de/index.html
https://www.bmw.de/mr_vogelsang,http://www.vogelsang.bmw-motorrad.de/de/vogelsang/de/index.html
https://www.bmw.de/umweltpraemieplus-kontakt,https://dialog.bmw.de/fbk/page/bmw_umweltpraemieplus/
https://www.bmw.de/eu5_software_aktualisierung,https://dialog.bmw.de/fbk/page/eu5_software_aktualisierung/
https://www.bmw.de/de/neufahrzeuge/x/x3/2017/auf-einen-blick.html,https://www.bmw.de/de/neufahrzeuge/x/x3/2019/bmw-x3-entdecken.html
https://www.bmw.de/de/topics/faszination-bmw.html,https://www.bmw.de/de/home.html
https://www.bmw.de/de/de/general/contact/overview/overview.html,https://www.bmw.de/de/footer/metanavigation/bmw-kontakt.html
https://www.bmw.de/de/neufahrzeuge/2er/cabrio/2017/auf-einen-blick.html,https://www.bmw.de/de/neufahrzeuge/2er/cabrio/2019/bmw-2er-cabrio-entdecken.html
https://www.bmw.de/de/neufahrzeuge/3er/gran-turismo/2016/auf-einen-blick.html,https://www.bmw.de/de/neufahrzeuge/3er/gran-turismo/2019/bmw-3er-gran-turismo-entdecken.html
https://www.bmw.de/de/de/owners/parts/electronic-parts-catalogue/electronic-parts-catalogue.html,https://www.bmw.de/de/topics/service-zubehoer/original-bmwteile/epc.html
https://www.bmw.de/de/topics/gebrauchtfahrzeuge/gebrauchtwagenboerse-bps.html,https://www.bmw.de/de/topics/gebrauchtfahrzeuge/gebrauchtwagenboerse.html
https://www.bmw.de/de/neufahrzeuge/x/x3/2017/alle-fakten.html,https://www.bmw.de/de/neufahrzeuge/x/x3/2019/bmw-x3-kaufen.html
https://www.bmw.de/de/ssl/undefined,https://www.bmw.de/de/footer/metanavigation/bmw-kontakt.html
https://www.bmw.de/de/neufahrzeuge/m/m2-coupe/2018/bmw-m2-competition-auf-einen-blick.html,https://www.bmw.de/de/neufahrzeuge/m/m2-coupe/2018/bmw-m2-competition.html
https://www.bmw.de/de/neufahrzeuge/2er/coupe/2017/auf-einen-blick.html,https://www.bmw.de/de/neufahrzeuge/2er/coupe/2019/bmw-2er-coupe-entdecken.html
https://www.bmw.de/de/neufahrzeuge/4er/coupe/2017/auf-einen-blick.html,https://www.bmw.de/de/neufahrzeuge/4er/coupe/2019/bmw-4er-coupe-entdecken.html
https://www.bmw.de/de/neufahrzeuge/3er/limousine/2015/bmw-iperformance.html,https://www.bmw.de/de/neufahrzeuge/3er/limousine/2018/bmw-3er-limousine-entdecken.html#phev
https://www.bmw.de/de/neufahrzeuge/4er/gran-coupe/2017/auf-einen-blick.html,https://www.bmw.de/de/neufahrzeuge/4er/gran-coupe/2019/bmw-4er-gran-coupe-entdecken.html
https://www.bmw.de/de/topics/faszination-bmw/grosskunden-behoerden/corporate-sales/startseite.html,https://www.bmw.de/de/topics/faszination-bmw/grosskunden-behoerden/startseite.html
https://www.bmw.de/de/neufahrzeuge/x/x3/2017/bilder-videos.html,https://www.bmw.de/de/neufahrzeuge/x/x3/2019/bmw-x3-entdecken.html
https://www.bmw.de/de/neufahrzeuge/x/x3/2017/technische-daten.html,https://www.bmw.de/de/neufahrzeuge/x/x3/2019/bmw-x3-informieren.html
https://www.bmw.de/de/topics/faszination-bmw/bmw-apps/bmw-apps-uebersicht.html,https://www.bmw.de/de/topics/faszination-bmw/bmw-apps/apps.html
https://www.bmw.de/dam/brandBM/common/newvehicles/3-series/sedan/2015/flash/heritage,https://www.bmw.de/de/neufahrzeuge/3er/limousine/2018/bmw-3er-limousine-entdecken.html
https://www.bmw.de/de/neufahrzeuge/4er/cabrio/2017/auf-einen-blick.html,https://www.bmw.de/de/neufahrzeuge/4er/cabrio/2019/bmw-4er-cabrio-entdecken.html
https://www.bmw.de/dam/brandBM/common/newvehicles/x-series/x1/2015/flash/f48_x1_highlights_pages/whats_in_for_you.html,https://www.bmw.de/de/neufahrzeuge/x/x1/2015/auf-einen-blick.html
https://www.bmw.de/de/topics/service-zubehoer/original-bmw-zubehoer/bmw-m-performance-parts.html,https://www.bmw.de/de/topics/service-zubehoer/original-bmw-zubehoer/uebersicht.html
https://www.bmw.de/de/topics/faszination-bmw/connecteddrive/connecteddrive-services-offers/kartenupdate.html,https://www.bmw.de/de/topics/faszination-bmw/connecteddrive/bmw-connected-drive-uebersicht.html
https://www.bmw.de/de/neufahrzeuge/4er/gran-coupe/2017/technische-daten.html,https://www.bmw.de/de/neufahrzeuge/4er/gran-coupe/2019/bmw-4er-gran-coupe-informieren.html
https://www.bmw.de/de/neufahrzeuge/3er/gran-turismo/2016/technische-daten.html,https://www.bmw.de/de/neufahrzeuge/3er/gran-turismo/2019/bmw-3er-gran-turismo-informieren.html
https://www.bmw.de/de/neufahrzeuge/4er/coupe/2017/technische-daten.html,https://www.bmw.de/de/neufahrzeuge/4er/coupe/2019/bmw-4er-coupe-informieren.html
https://www.bmw.de/parkinfo,https://www.bmw.de/de/topics/faszination-bmw/connecteddrive/bmw-connected-drive-uebersicht.html
https://www.bmw.de/de/neufahrzeuge/2er/coupe/2017/technische-daten.html,https://www.bmw.de/de/neufahrzeuge/2er/coupe/2019/bmw-2er-coupe-informieren.html
https://www.bmw.de/de/neufahrzeuge/x/x3/2017/design.html,https://www.bmw.de/de/neufahrzeuge/x/x3/2019/bmw-x3-entdecken.html
https://www.bmw.de/de/de/newvehicles/1series/overview.html,https://www.bmw.de/de/index.html
https://www.bmw.de/de/topics/service-zubehoer/original-bmw-zubehoer/original-bmw-zubehoer-showroom/e-mobilit%C3%A4t.i.html,https://www.bmw.de/de/topics/faszination-bmw/elektromobilitaet/introduction.html
https://www.bmw.de/dam/brandBM/common/newvehicles/7-series/sedan/2015/flash/g11g12_7sedan_highlights_pages/addon_g11g12_edrive.html,https://www.bmw.de/de/topics/faszination-bmw/elektromobilitaet/introduction.html
