/content/bmw/operations/bmw_de/de_de/all-models/x-series/x7/2018/bmw-x7-informieren/jcr:content,none given
/content/bmw/operations/bmw_de/de_de/index/jcr:content,none given
/content/bmw/marketDE/bmw_de/de_GK/jcr:content,none given
/content/bmw/marketDE/bmw_de/de_DE/fastlane/grosskunden-und-behoerden/corporate-sales/firmenwagenfahrer/jcr:content,none given
/content/bmw/marketDE/bmw_de/de_DE/fastlane/grosskunden-und-behoerden/corporate-sales/wartung-grosskunden-konfigurator/jcr:content,none given
/content/bmw/marketDE/bmw_de/de_DE/fastlane/grosskunden-und-behoerden/fahrschulfahrzeuge/modelluebersicht/jcr:content,none given
/content/bmw/marketDE/bmw_de/de_DE/fastlane/grosskunden-und-behoerden/jcr:content,none given
/content/bmw/marketDE/bmw_de/de_DE/fastlane/grosskunden-und-behoerden/businesskunden/jcr:content,none given
/content/bmw/marketDE/bmw_de/de_DE/fastlane/grosskunden-und-behoerden/government-vehicles/contact/jcr:content,none given
/content/bmw/marketDE/bmw_de/de_DE/fastlane/grosskunden-und-behoerden/government-vehicles/faq/jcr:content,none given
/content/bmw/marketDE/bmw_de/de_DE/fastlane/grosskunden-und-behoerden/authority-vehicles/jcr:content,none given
/content/bmw/marketDE/bmw_de/de_DE/fastlane/finanzieren-versichern/finanzprodukte/jcr:content,none given
/content/bmw/marketDE/bmw_de/de_DE/fastlane/finanzieren-versichern/insurance/jcr:content,none given
/content/bmw/marketDE/bmw_de/de_DE/fastlane/dealer-locator/jcr:content,none given
/content/bmw/marketDE/bmw_de/de_DE/topics/offers-and-services/bmw-oil-service-incl-exchange-microfilter/jcr:content,none given
/content/bmw/marketDE/bmw_de/de_DE/topics/offers-and-services/warranty/jcr:content,none given
/content/bmw/marketDE/bmw_de/de_DE/topics/offers-and-services/original-bmw-accessories/downloads/jcr:content,none given
/content/bmw/marketDE/bmw_de/de_DE/topics/offers-and-services/original-bmw-accessories/bmw-oil-service-incl-exchange-microfilter/jcr:content,none given
/content/bmw/marketDE/bmw_de/de_DE/topics/offers-and-services/original-bmw-accessories/bmw-performance-2018/jcr:content,none given
/content/bmw/marketDE/bmw_de/de_DE/topics/offers-and-services/original-bmw-accessories/jcr:content,none given
/content/bmw/marketDE/bmw_de/de_DE/topics/offers-and-services/original-bmw-accessories/winterkomplettrader/jcr:content,none given
/content/bmw/marketDE/bmw_de/de_DE/topics/offers-and-services/original-bmw-accessories/bmw-m-performance/jcr:content,none given
/content/bmw/marketDE/bmw_de/de_DE/topics/offers-and-services/jcr:content,none given
/content/bmw/marketDE/bmw_de/de_DE/topics/offers-and-services/vehicle-service-parts/jcr:content,none given
/content/bmw/marketDE/bmw_de/de_DE/topics/offers-and-services/vehicle-service-parts/electronic-parts-catalogue/jcr:content,none given
/content/bmw/marketDE/bmw_de/de_DE/topics/offers-and-services/saisonangebote/komplettrader/jcr:content,none given
/content/bmw/marketDE/bmw_de/de_DE/topics/offers-and-services/saisonangebote/bmw-m-performance-parts/jcr:content,none given
/content/bmw/marketDE/bmw_de/de_DE/topics/offers-and-services/saisonangebote/jcr:content,none given
/content/bmw/marketDE/bmw_de/de_DE/topics/offers-and-services/personal-services/serviceamfahrzeug/minor-damage-repair-and-care/jcr:content,none given
/content/bmw/marketDE/bmw_de/de_DE/topics/offers-and-services/personal-services/serviceamfahrzeug/vehicle-check-and-maintenance/jcr:content,none given
/content/bmw/marketDE/bmw_de/de_DE/topics/offers-and-services/personal-services/serviceamfahrzeug/jcr:content,none given
/content/bmw/marketDE/bmw_de/de_DE/topics/offers-and-services/personal-services/serviceamfahrzeug/bmw-service/jcr:content,none given
/content/bmw/marketDE/bmw_de/de_DE/topics/offers-and-services/personal-services/updates-and-upgrades/jcr:content,none given
/content/bmw/marketDE/bmw_de/de_DE/topics/offers-and-services/personal-services/recycling/jcr:content,none given
/content/bmw/marketDE/bmw_de/de_DE/topics/offers-and-services/personal-services/jcr:content,none given
/content/bmw/marketDE/bmw_de/de_DE/topics/offers-and-services/personal-services/bmw-tele-service/jcr:content,none given
/content/bmw/marketDE/bmw_de/de_DE/topics/offers-and-services/personal-services/service-inclusive/overview/jcr:content,none given
/content/bmw/marketDE/bmw_de/de_DE/topics/offers-and-services/personal-services/service-inclusive/service-inclusive-package-calculator/jcr:content,none given
/content/bmw/marketDE/bmw_de/de_DE/topics/offers-and-services/personal-services/bmw-mobile-care/jcr:content,none given
/content/bmw/marketDE/bmw_de/de_DE/topics/my-bmw/jcr:content,none given
/content/bmw/marketDE/bmw_de/de_DE/topics/gebrauchtfahrzeuge/europlus-garantie/jcr:content,none given
/content/bmw/marketDE/bmw_de/de_DE/topics/gebrauchtfahrzeuge/fahrzeugarten/vorfuehrwagen/jcr:content,none given
/content/bmw/marketDE/bmw_de/de_DE/topics/gebrauchtfahrzeuge/fahrzeugarten/gebrauchtwagen/jcr:content,none given
/content/bmw/marketDE/bmw_de/de_DE/topics/gebrauchtfahrzeuge/fahrzeugarten/jcr:content,none given
/content/bmw/marketDE/bmw_de/de_DE/topics/gebrauchtfahrzeuge/fahrzeugarten/junge-gebrauchte/jcr:content,none given
/content/bmw/marketDE/bmw_de/de_DE/topics/gebrauchtfahrzeuge/fahrzeugarten/jahreswagen/jcr:content,none given
/content/bmw/marketDE/bmw_de/de_DE/topics/gebrauchtfahrzeuge/overview/jcr:content,none given
/content/bmw/marketDE/bmw_de/de_DE/topics/gebrauchtfahrzeuge/used-car-search-preconfig/jcr:content,none given
/content/bmw/marketDE/bmw_de/de_DE/topics/gebrauchtfahrzeuge/used-car-search/jcr:content,none given
/content/bmw/marketDE/bmw_de/de_DE/topics/gebrauchtfahrzeuge/premium-selection/vorteile/jcr:content,none given
/content/bmw/marketDE/bmw_de/de_DE/topics/gebrauchtfahrzeuge/garantien/europlus-garantie/jcr:content,none given
/content/bmw/marketDE/bmw_de/de_DE/topics/fascination-bmw/electromobility/publiccharging/jcr:content,none given
/content/bmw/marketDE/bmw_de/de_DE/topics/fascination-bmw/electromobility/jcr:content,none given
/content/bmw/marketDE/bmw_de/de_DE/topics/fascination-bmw/electromobility/homecharging/jcr:content,none given
/content/bmw/marketDE/bmw_de/de_DE/topics/fascination-bmw/electromobility/vehicles_with_bmw_edrive/jcr:content,none given
/content/bmw/marketDE/bmw_de/de_DE/topics/fascination-bmw/corporate-direct-sales/overview/jcr:content,none given
/content/bmw/marketDE/bmw_de/de_DE/topics/fascination-bmw/corporate-direct-sales/corporate-sales/firmenwagenfahrer/jcr:content,none given
/content/bmw/marketDE/bmw_de/de_DE/topics/fascination-bmw/corporate-direct-sales/corporate-sales/contact/jcr:content,none given
/content/bmw/marketDE/bmw_de/de_DE/topics/fascination-bmw/corporate-direct-sales/corporate-sales/fuhrparkmanager/jcr:content,none given
/content/bmw/marketDE/bmw_de/de_DE/topics/fascination-bmw/corporate-direct-sales/corporate-sales/jcr:content,none given
/content/bmw/marketDE/bmw_de/de_DE/topics/fascination-bmw/corporate-direct-sales/corporate-sales/wartung-grosskunden-konfigurator/jcr:content,none given
/content/bmw/marketDE/bmw_de/de_DE/topics/fascination-bmw/corporate-direct-sales/fahrzeuge-fuer-journalisten/jcr:content,none given
/content/bmw/marketDE/bmw_de/de_DE/topics/fascination-bmw/corporate-direct-sales/bmw-fahrhilfen/jcr:content,none given
/content/bmw/marketDE/bmw_de/de_DE/topics/fascination-bmw/corporate-direct-sales/jcr:content,none given
/content/bmw/marketDE/bmw_de/de_DE/topics/fascination-bmw/corporate-direct-sales/businesskunden/jcr:content,none given
/content/bmw/marketDE/bmw_de/de_DE/topics/fascination-bmw/corporate-direct-sales/security-vehicles/model-overview/jcr:content,none given
/content/bmw/marketDE/bmw_de/de_DE/topics/fascination-bmw/corporate-direct-sales/security-vehicles/overview/jcr:content,none given
/content/bmw/marketDE/bmw_de/de_DE/topics/fascination-bmw/corporate-direct-sales/security-vehicles/contact/jcr:content,none given
/content/bmw/marketDE/bmw_de/de_DE/topics/fascination-bmw/corporate-direct-sales/security-vehicles/jcr:content,none given
/content/bmw/marketDE/bmw_de/de_DE/topics/fascination-bmw/corporate-direct-sales/government-vehicles/overview/jcr:content,none given
/content/bmw/marketDE/bmw_de/de_DE/topics/fascination-bmw/corporate-direct-sales/government-vehicles/contact/jcr:content,none given
/content/bmw/marketDE/bmw_de/de_DE/topics/fascination-bmw/corporate-direct-sales/government-vehicles/jcr:content,none given
/content/bmw/marketDE/bmw_de/de_DE/topics/fascination-bmw/corporate-direct-sales/government-vehicles/faq/jcr:content,none given
/content/bmw/marketDE/bmw_de/de_DE/topics/fascination-bmw/corporate-direct-sales/government-vehicles/fahrsicherheitstraining/jcr:content,none given
/content/bmw/marketDE/bmw_de/de_DE/topics/fascination-bmw/corporate-direct-sales/geschaeftskunden/jcr:content,none given
/content/bmw/marketDE/bmw_de/de_DE/topics/fascination-bmw/corporate-direct-sales/authority-vehicles/areas-of-application/jcr:content,none given
/content/bmw/marketDE/bmw_de/de_DE/topics/fascination-bmw/corporate-direct-sales/authority-vehicles/overview/jcr:content,none given
/content/bmw/marketDE/bmw_de/de_DE/topics/fascination-bmw/corporate-direct-sales/authority-vehicles/contact/jcr:content,none given
/content/bmw/marketDE/bmw_de/de_DE/topics/fascination-bmw/corporate-direct-sales/authority-vehicles/jcr:content,none given
/content/bmw/marketDE/bmw_de/de_DE/topics/fascination-bmw/corporate-direct-sales/authority-vehicles/faq/jcr:content,none given
/content/bmw/marketDE/bmw_de/de_DE/topics/fascination-bmw/corporate-direct-sales/authority-vehicles/fahrsicherheitstraining/jcr:content,none given
/content/bmw/marketDE/bmw_de/de_DE/topics/fascination-bmw/bmw-xdrive-erleben/jcr:content,none given
/content/bmw/marketDE/bmw_de/de_DE/topics/fascination-bmw/bmw-xdrive-erleben/modelle/jcr:content,none given
/content/bmw/marketDE/bmw_de/de_DE/topics/fascination-bmw/bmw-xdrive-erleben/xdrive/modelle/jcr:content,none given
/content/bmw/marketDE/bmw_de/de_DE/topics/fascination-bmw/bmw-xdrive-erleben/bmwxdrive/jcr:content,none given
/content/bmw/marketDE/bmw_de/de_DE/topics/fascination-bmw/connected-drive/overview/jcr:content,none given
/content/bmw/marketDE/bmw_de/de_DE/topics/fascination-bmw/connected-drive/edrive/jcr:content,none given
/content/bmw/marketDE/bmw_de/de_DE/topics/fascination-bmw/connected-drive/contact/jcr:content,none given
/content/bmw/marketDE/bmw_de/de_DE/topics/fascination-bmw/connected-drive/bmw-i/jcr:content,none given
/content/bmw/marketDE/bmw_de/de_DE/topics/fascination-bmw/connected-drive/connectivity-technologies/jcr:content,none given
/content/bmw/marketDE/bmw_de/de_DE/topics/fascination-bmw/connected-drive/jcr:content,none given
/content/bmw/marketDE/bmw_de/de_DE/topics/fascination-bmw/connected-drive/highly-automated-driving/jcr:content,none given
/content/bmw/marketDE/bmw_de/de_DE/topics/fascination-bmw/connected-drive/bmw-connected-drive/jcr:content,none given
/content/bmw/marketDE/bmw_de/de_DE/topics/fascination-bmw/connected-drive/store-kundenportal/jcr:content,none given
/content/bmw/marketDE/bmw_de/de_DE/topics/fascination-bmw/connected-drive/digital-services/concierge-services/jcr:content,none given
/content/bmw/marketDE/bmw_de/de_DE/topics/fascination-bmw/connected-drive/digital-services/teleservices/jcr:content,none given
/content/bmw/marketDE/bmw_de/de_DE/topics/fascination-bmw/connected-drive/digital-services/microsoftexchange/jcr:content,none given
/content/bmw/marketDE/bmw_de/de_DE/topics/fascination-bmw/connected-drive/digital-services/bmw-cardata/jcr:content,none given
/content/bmw/marketDE/bmw_de/de_DE/topics/fascination-bmw/connected-drive/digital-services/applecarplay/jcr:content,none given
/content/bmw/marketDE/bmw_de/de_DE/topics/fascination-bmw/connected-drive/digital-services/real-time-traffic-information/jcr:content,none given
/content/bmw/marketDE/bmw_de/de_DE/topics/fascination-bmw/connected-drive/digital-services/concierge-service/jcr:content,none given
/content/bmw/marketDE/bmw_de/de_DE/topics/fascination-bmw/connected-drive/digital-services/online-entertainment/jcr:content,none given
/content/bmw/marketDE/bmw_de/de_DE/topics/fascination-bmw/connected-drive/digital-services/intelligent-emergency-call/jcr:content,none given
/content/bmw/marketDE/bmw_de/de_DE/topics/fascination-bmw/connected-drive/digital-services/online-fahrtenbuch/jcr:content,none given
/content/bmw/marketDE/bmw_de/de_DE/topics/fascination-bmw/connected-drive/digital-services/connected/jcr:content,none given
/content/bmw/marketDE/bmw_de/de_DE/topics/fascination-bmw/connected-drive/digital-services/remote-services/jcr:content,none given
/content/bmw/marketDE/bmw_de/de_DE/topics/fascination-bmw/connected-drive/digital-services/services/jcr:content,none given
/content/bmw/marketDE/bmw_de/de_DE/topics/fascination-bmw/connected-drive/a-to-z/jcr:content,none given
/content/bmw/marketDE/bmw_de/de_DE/topics/fascination-bmw/connected-drive/connected/jcr:content,none given
/content/bmw/marketDE/bmw_de/de_DE/topics/fascination-bmw/connected-drive/video-gallery/jcr:content,none given
/content/bmw/marketDE/bmw_de/de_DE/topics/fascination-bmw/connected-drive/connecteddrive-for-users/mobile-endgeraete/jcr:content,none given
/content/bmw/marketDE/bmw_de/de_DE/topics/fascination-bmw/connected-drive/connecteddrive-for-users/mobile-endgeraete/schnittstellen/jcr:content,none given
/content/bmw/marketDE/bmw_de/de_DE/topics/fascination-bmw/connected-drive/connecteddrive-for-users/teleservices/jcr:content,none given
/content/bmw/marketDE/bmw_de/de_DE/topics/fascination-bmw/connected-drive/connecteddrive-for-users/bmw-software-update/jcr:content,none given
/content/bmw/marketDE/bmw_de/de_DE/topics/fascination-bmw/connected-drive/connecteddrive-for-users/jcr:content,none given
/content/bmw/marketDE/bmw_de/de_DE/topics/fascination-bmw/connected-drive/connecteddrive-for-users/online-assist-overview/jcr:content,none given
/content/bmw/marketDE/bmw_de/de_DE/topics/fascination-bmw/connected-drive/connecteddrive-for-users/bmw-online-bmw-assist/jcr:content,none given
/content/bmw/marketDE/bmw_de/de_DE/topics/fascination-bmw/connected-drive/connecteddrive-for-users/bmw-online-bmw-assist/online-assist-overview/jcr:content,none given
/content/bmw/marketDE/bmw_de/de_DE/topics/fascination-bmw/connected-drive/connecteddrive-for-users/connecteddrive-info/jcr:content,none given
/content/bmw/marketDE/bmw_de/de_DE/topics/fascination-bmw/connected-drive/connecteddrive-for-users/requirements-availability/jcr:content,none given
/content/bmw/marketDE/bmw_de/de_DE/topics/fascination-bmw/connected-drive/driver-assistance/jcr:content,none given
/content/bmw/marketDE/bmw_de/de_DE/topics/fascination-bmw/bmw-i-2016/bmw-vision-inext/jcr:content,none given
/content/bmw/marketDE/bmw_de/de_DE/topics/fascination-bmw/bmw-i-2016/brand-cooperations/jcr:content,none given
/content/bmw/marketDE/bmw_de/de_DE/topics/fascination-bmw/bmw-i-2016/jcr:content,none given
/content/bmw/marketDE/bmw_de/de_DE/topics/fascination-bmw/bmw-i-2016/bmw-i-visions/jcr:content,none given
/content/bmw/marketDE/bmw_de/de_DE/topics/fascination-bmw/bmw-i-2016/electric/jcr:content,none given
/content/bmw/marketDE/bmw_de/de_DE/topics/fascination-bmw/bmw-i-2016/at-a-glance/jcr:content,none given
/content/bmw/marketDE/bmw_de/de_DE/topics/fascination-bmw/individual/overview/jcr:content,none given
/content/bmw/marketDE/bmw_de/de_DE/topics/fascination-bmw/efficient-dynamics/umweltbonus/jcr:content,none given
/content/bmw/marketDE/bmw_de/de_DE/topics/fascination-bmw/efficient-dynamics/images-and-videos/jcr:content,none given
/content/bmw/marketDE/bmw_de/de_DE/topics/fascination-bmw/efficient-dynamics/overview/jcr:content,none given
/content/bmw/marketDE/bmw_de/de_DE/topics/fascination-bmw/efficient-dynamics/edrive/jcr:content,none given
/content/bmw/marketDE/bmw_de/de_DE/topics/fascination-bmw/efficient-dynamics/consumption-and-emissions/jcr:content,none given
/content/bmw/marketDE/bmw_de/de_DE/topics/fascination-bmw/efficient-dynamics/jcr:content,none given
/content/bmw/marketDE/bmw_de/de_DE/topics/fascination-bmw/efficient-dynamics/aerodynamics/jcr:content,none given
/content/bmw/marketDE/bmw_de/de_DE/topics/fascination-bmw/efficient-dynamics/energy-management/jcr:content,none given
/content/bmw/marketDE/bmw_de/de_DE/topics/fascination-bmw/efficient-dynamics/lightweight/jcr:content,none given
/content/bmw/marketDE/bmw_de/de_DE/topics/fascination-bmw/efficient-dynamics/twinpower-turbo-engines/jcr:content,none given
/content/bmw/marketDE/bmw_de/de_DE/topics/fascination-bmw/efficient-dynamics/aerodynamics-and-energy-management/jcr:content,none given
/content/bmw/marketDE/bmw_de/de_DE/topics/fascination-bmw/efficient-dynamics/models-120g/jcr:content,none given
/content/bmw/marketDE/bmw_de/de_DE/topics/fascination-bmw/bmw-apps/catalogues/jcr:content,none given
/content/bmw/marketDE/bmw_de/de_DE/topics/fascination-bmw/bmw-apps/zubehor/jcr:content,none given
/content/bmw/marketDE/bmw_de/de_DE/topics/fascination-bmw/bmw-apps/overview/jcr:content,none given
/content/bmw/marketDE/bmw_de/de_DE/topics/fascination-bmw/bmw-apps/dealer-service-equipment/jcr:content,none given
/content/bmw/marketDE/bmw_de/de_DE/topics/fascination-bmw/bmw-apps/fairs_exhibitions/jcr:content,none given
/content/bmw/marketDE/bmw_de/de_DE/topics/fascination-bmw/bmw-apps/lifestyle_gadgets/jcr:content,none given
/content/bmw/marketDE/bmw_de/de_DE/topics/fascination-bmw/bmw-apps/virtual_augmented-reality/jcr:content,none given
/content/bmw/marketDE/bmw_de/de_DE/topics/fascination-bmw/bmw-apps/mobility-services_carsharing/jcr:content,none given
/content/bmw/marketDE/bmw_de/de_DE/topics/fascination-bmw/unternehmen/bmw-group/jcr:content,none given
/content/bmw/marketDE/bmw_de/de_DE/topics/fascination-bmw/jcr:content,none given
/content/bmw/marketDE/bmw_de/de_DE/topics/fascination-bmw/individual-2017/jcr:content,none given
/content/bmw/marketDE/bmw_de/de_DE/topics/fascination-bmw/bmw-autonomous-driving/jcr:content,none given
/content/bmw/marketDE/bmw_de/de_DE/topics/fascination-bmw/bmw-financial-services/businessleasing/jcr:content,none given
/content/bmw/marketDE/bmw_de/de_DE/topics/fascination-bmw/bmw-financial-services/introduction/jcr:content,none given
/content/bmw/marketDE/bmw_de/de_DE/topics/fascination-bmw/bmw-financial-services/bmw-card/jcr:content,none given
/content/bmw/marketDE/bmw_de/de_DE/topics/fascination-bmw/bmw-financial-services/finanzprodukte/jcr:content,none given
/content/bmw/marketDE/bmw_de/de_DE/topics/fascination-bmw/bmw-financial-services/offers/insurance-offers/jcr:content,none given
/content/bmw/marketDE/bmw_de/de_DE/topics/fascination-bmw/bmw-financial-services/offers/loan-offers/jcr:content,none given
/content/bmw/marketDE/bmw_de/de_DE/topics/fascination-bmw/bmw-financial-services/offers/renting-offers/jcr:content,none given
/content/bmw/marketDE/bmw_de/de_DE/topics/fascination-bmw/bmw-financial-services/offers/leasing-offers/jcr:content,none given
/content/bmw/marketDE/bmw_de/de_DE/topics/fascination-bmw/bmw-financial-services/offers/service-offers/jcr:content,none given
/content/bmw/marketDE/bmw_de/de_DE/topics/fascination-bmw/bmw-financial-services/fleet-management/jcr:content,none given
/content/bmw/marketDE/bmw_de/de_DE/topics/fascination-bmw/bmw-financial-services/insurance/jcr:content,none given
/content/bmw/marketDE/bmw_de/de_DE/topics/fascination-bmw/bmw-financial-services/bmwi/jcr:content,none given
/content/bmw/marketDE/bmw_de/de_DE/topics/fascination-bmw/bmw-financial-services/used-cars/jcr:content,none given
/content/bmw/marketDE/bmw_de/de_DE/topics/fascination-bmw/bmw-financial-services/contact/jcr:content,none given
/content/bmw/marketDE/bmw_de/de_DE/topics/fascination-bmw/bmw-financial-services/jcr:content,none given
/content/bmw/marketDE/bmw_de/de_DE/topics/fascination-bmw/bmw-financial-services/wealth-management/jcr:content,none given
/content/bmw/marketDE/bmw_de/de_DE/topics/fascination-bmw/bmw-financial-services/faq/versicherung/jcr:content,none given
/content/bmw/marketDE/bmw_de/de_DE/topics/fascination-bmw/bmw-financial-services/faq/leasing/jcr:content,none given
/content/bmw/marketDE/bmw_de/de_DE/topics/fascination-bmw/bmw-financial-services/faq/faqs-bmw-in-5-steps/jcr:content,none given
/content/bmw/marketDE/bmw_de/de_DE/topics/fascination-bmw/bmw-financial-services/faq/sepa/jcr:content,none given
/content/bmw/marketDE/bmw_de/de_DE/topics/fascination-bmw/bmw-financial-services/faq/faqs-car-return/jcr:content,none given
/content/bmw/marketDE/bmw_de/de_DE/topics/fascination-bmw/bmw-financial-services/faq/faqs-general/jcr:content,none given
/content/bmw/marketDE/bmw_de/de_DE/topics/fascination-bmw/bmw-financial-services/renting/jcr:content,none given
/content/bmw/marketDE/bmw_de/de_DE/topics/fascination-bmw/sport-und-events/jcr:content,none given
/content/bmw/marketDE/bmw_de/de_DE/topics/fascination-bmw/sport-und-events/bmw-sport/jcr:content,none given
/content/bmw/marketDE/bmw_de/de_DE/topics/fascination-bmw/sport-und-events/dtm-2017/jcr:content,none given
/content/bmw/marketDE/bmw_de/de_DE/topics/fascination-bmw/sport-und-events/kulturelles-engagement/jcr:content,none given
/content/bmw/marketDE/bmw_de/de_DE/topics/fascination-bmw/sport-und-events/laufsport/gewinnspiel/jcr:content,none given
/content/bmw/marketDE/bmw_de/de_DE/topics/fascination-bmw/sport-und-events/laufsport/marathons/jcr:content,none given
/content/bmw/marketDE/bmw_de/de_DE/topics/fascination-bmw/sport-und-events/laufsport/botschafter/jcr:content,none given
/content/bmw/marketDE/bmw_de/de_DE/topics/fascination-bmw/sport-und-events/laufsport/jcr:content,none given
/content/bmw/marketDE/bmw_de/de_DE/topics/fascination-bmw/sport-und-events/laufsport/bmwtv/jcr:content,none given
/content/bmw/marketDE/bmw_de/de_DE/topics/fascination-bmw/sport-und-events/laufsport/einfuehrung/jcr:content,none given
/content/bmw/marketDE/bmw_de/de_DE/topics/fascination-bmw/bmw_concept_8series/jcr:content,none given
/content/bmw/marketDE/bmw_de/de_DE/topics/fascination-bmw/neuwagen/angebote/umweltbonus/jcr:content,none given
/content/bmw/marketDE/bmw_de/de_DE/topics/fascination-bmw/customer-portal/jcr:content,none given
/content/bmw/marketDE/bmw_de/de_DE/topics/fascination-bmw/finanzierung-leasing/jcr:content,none given
/content/bmw/marketDE/bmw_de/de_DE/topics/fascination-bmw/bmw-compatible-apps/overview/jcr:content,none given
/content/bmw/marketDE/bmw_de/de_DE/topics/fascination-bmw/bmw-compatible-apps/music-entertainment/jcr:content,none given
/content/bmw/marketDE/bmw_de/de_DE/topics/fascination-bmw/bmw-compatible-apps/mobility_services/jcr:content,none given
/content/bmw/marketDE/bmw_de/de_DE/topics/fascination-bmw/bmw-compatible-apps/news/jcr:content,none given
/content/bmw/marketDE/bmw_de/de_DE/topics/fascination-bmw/bmw-compatible-apps/smart-home/jcr:content,none given
/content/bmw/marketDE/bmw_de/de_DE/topics/fascination-bmw/family-landing-page-bmw-4-series-models-and-bmw-m4-and-bmw-m3-automobiles/jcr:content,none given
/content/bmw/marketDE/bmw_de/de_DE/topics/fascination-bmw/bmw-concept-cars/m8-concept-2018/jcr:content,none given
/content/bmw/marketDE/bmw_de/de_DE/topics/fascination-bmw/bmw-concept-cars/bmw-z4-cv/jcr:content,none given
/content/bmw/marketDE/bmw_de/de_DE/topics/fascination-bmw/bmw-concept-cars/bmw-x2-concept/jcr:content,none given
/content/bmw/marketDE/bmw_de/de_DE/topics/fascination-bmw/bmw-concept-cars/bmw_concept_8series/jcr:content,none given
/content/bmw/marketDE/bmw_de/de_DE/topics/fascination-bmw/bmw-concept-cars/bmw-concept-X7/jcr:content,none given
/content/bmw/marketDE/bmw_de/de_DE/topics/fascination-bmw/bmw-concept-cars/das-bmw-concept-ix3/jcr:content,none given
/content/bmw/marketDE/bmw_de/de_DE/topics/fascination-bmw/bmw-news/jcr:content,none given
/content/bmw/marketDE/bmw_de/de_DE/footer/metanavigation/contact/jcr:content,none given
/content/bmw/marketDE/bmw_de/de_DE/footer/metanavigation/legal-notice-pool/imprint-financing/jcr:content,none given
/content/bmw/marketDE/bmw_de/de_DE/all-models/m-series/x4-m/2019/bmw-x4m-informieren/jcr:content,none given
/content/bmw/marketDE/bmw_de/de_DE/all-models/m-series/x4-m/2019/bmw-x4m-kaufen/jcr:content,none given
/content/bmw/marketDE/bmw_de/de_DE/all-models/m-series/x4-m/2019/bmw-x4m-entdecken/jcr:content,none given
/content/bmw/marketDE/bmw_de/de_DE/all-models/m-series/m4-coupe/jcr:content,none given
/content/bmw/marketDE/bmw_de/de_DE/all-models/m-series/m4-coupe/2017/images-and-videos/jcr:content,none given
/content/bmw/marketDE/bmw_de/de_DE/all-models/m-series/m4-coupe/2017/design/jcr:content,none given
/content/bmw/marketDE/bmw_de/de_DE/all-models/m-series/m4-coupe/2017/connectivity/jcr:content,none given
/content/bmw/marketDE/bmw_de/de_DE/all-models/m-series/m4-coupe/2017/engines/jcr:content,none given
/content/bmw/marketDE/bmw_de/de_DE/all-models/m-series/m4-coupe/2017/at-a-glance/jcr:content,none given
/content/bmw/marketDE/bmw_de/de_DE/all-models/m-series/m4-coupe/2017/bmw-m4-coupe/jcr:content,none given
/content/bmw/marketDE/bmw_de/de_DE/all-models/m-series/m4-coupe/2017/driving-dynamics/jcr:content,none given
/content/bmw/marketDE/bmw_de/de_DE/all-models/m-series/m4-coupe/2017/facts/jcr:content,none given
/content/bmw/marketDE/bmw_de/de_DE/all-models/m-series/m4-coupe/2017/technical-data/jcr:content,none given
/content/bmw/marketDE/bmw_de/de_DE/all-models/m-series/x5-m/2014/start/jcr:content,none given
/content/bmw/marketDE/bmw_de/de_DE/all-models/m-series/m6-convertible/2015/start/jcr:content,none given
/content/bmw/marketDE/bmw_de/de_DE/all-models/m-series/m6-convertible/jcr:content,none given
/content/bmw/marketDE/bmw_de/de_DE/all-models/m-series/x3-m/2019/bmw-x3m-entdecken/jcr:content,none given
/content/bmw/marketDE/bmw_de/de_DE/all-models/m-series/x3-m/2019/bmw-x3m-kaufen/jcr:content,none given
/content/bmw/marketDE/bmw_de/de_DE/all-models/m-series/x3-m/2019/bmw-x3m-informieren/jcr:content,none given
/content/bmw/marketDE/bmw_de/de_DE/all-models/m-series/jcr:content,none given
/content/bmw/marketDE/bmw_de/de_DE/all-models/m-series/m-240i-convertible/2019/m-240i-cabrio/jcr:content,none given
/content/bmw/marketDE/bmw_de/de_DE/all-models/m-series/m3-sedan/jcr:content,none given
/content/bmw/marketDE/bmw_de/de_DE/all-models/m-series/m3-sedan/2017/design/jcr:content,none given
/content/bmw/marketDE/bmw_de/de_DE/all-models/m-series/m3-sedan/2017/images-videos/jcr:content,none given
/content/bmw/marketDE/bmw_de/de_DE/all-models/m-series/m3-sedan/2017/connectivity/jcr:content,none given
/content/bmw/marketDE/bmw_de/de_DE/all-models/m-series/m3-sedan/2017/engine/jcr:content,none given
/content/bmw/marketDE/bmw_de/de_DE/all-models/m-series/m3-sedan/2017/at-a-glance/jcr:content,none given
/content/bmw/marketDE/bmw_de/de_DE/all-models/m-series/m3-sedan/2017/bmw-m3-cs/jcr:content,none given
/content/bmw/marketDE/bmw_de/de_DE/all-models/m-series/m3-sedan/2017/driving-dynamics/jcr:content,none given
/content/bmw/marketDE/bmw_de/de_DE/all-models/m-series/m3-sedan/2017/bmw-M3-sedan/jcr:content,none given
/content/bmw/marketDE/bmw_de/de_DE/all-models/m-series/m3-sedan/2017/facts/jcr:content,none given
/content/bmw/marketDE/bmw_de/de_DE/all-models/m-series/m3-sedan/2017/technical-data/jcr:content,none given
/content/bmw/marketDE/bmw_de/de_DE/all-models/m-series/m6-gran-coupe/2015/start/jcr:content,none given
/content/bmw/marketDE/bmw_de/de_DE/all-models/m-series/m6-gran-coupe/2015/at-a-glance/jcr:content,none given
/content/bmw/marketDE/bmw_de/de_DE/all-models/m-series/m2-coupe/2018/bmw-m2-competition/jcr:content,none given
/content/bmw/marketDE/bmw_de/de_DE/all-models/m-series/m2-coupe/2018/images-and-videos/jcr:content,none given
/content/bmw/marketDE/bmw_de/de_DE/all-models/m-series/m2-coupe/2018/facts/jcr:content,none given
/content/bmw/marketDE/bmw_de/de_DE/all-models/m-series/m2-coupe/2018/technical-data/jcr:content,none given
/content/bmw/marketDE/bmw_de/de_DE/all-models/m-series/m4-convertible/jcr:content,none given
/content/bmw/marketDE/bmw_de/de_DE/all-models/m-series/m4-convertible/2017/design/jcr:content,none given
/content/bmw/marketDE/bmw_de/de_DE/all-models/m-series/m4-convertible/2017/images-videos/jcr:content,none given
/content/bmw/marketDE/bmw_de/de_DE/all-models/m-series/m4-convertible/2017/connectivity/jcr:content,none given
/content/bmw/marketDE/bmw_de/de_DE/all-models/m-series/m4-convertible/2017/engine/jcr:content,none given
/content/bmw/marketDE/bmw_de/de_DE/all-models/m-series/m4-convertible/2017/bmw-m4-convertible/jcr:content,none given
/content/bmw/marketDE/bmw_de/de_DE/all-models/m-series/m4-convertible/2017/at-a-glance/jcr:content,none given
/content/bmw/marketDE/bmw_de/de_DE/all-models/m-series/m4-convertible/2017/driving-dynamics/jcr:content,none given
/content/bmw/marketDE/bmw_de/de_DE/all-models/m-series/m4-convertible/2017/facts/jcr:content,none given
/content/bmw/marketDE/bmw_de/de_DE/all-models/m-series/m4-convertible/2017/technical-data/jcr:content,none given
/content/bmw/marketDE/bmw_de/de_DE/all-models/m-series/x6-m/2014/start/jcr:content,none given
/content/bmw/marketDE/bmw_de/de_DE/all-models/m-series/m5-sedan/jcr:content,none given
/content/bmw/marketDE/bmw_de/de_DE/all-models/m-series/m5-sedan/2017/images-and-videos/jcr:content,none given
/content/bmw/marketDE/bmw_de/de_DE/all-models/m-series/m5-sedan/2017/auf-einen-blick/jcr:content,none given
/content/bmw/marketDE/bmw_de/de_DE/all-models/m-series/m5-sedan/2017/first-edition/jcr:content,none given
/content/bmw/marketDE/bmw_de/de_DE/all-models/m-series/m5-sedan/2017/bmw-m5-competition/jcr:content,none given
/content/bmw/marketDE/bmw_de/de_DE/all-models/m-series/m5-sedan/2017/at-a-glance/jcr:content,none given
/content/bmw/marketDE/bmw_de/de_DE/all-models/m-series/m5-sedan/2017/technical-data/jcr:content,none given
/content/bmw/marketDE/bmw_de/de_DE/all-models/7-series/jcr:content,none given
/content/bmw/marketDE/bmw_de/de_DE/all-models/7-series/sedan/2015/edrive/jcr:content,none given
/content/bmw/marketDE/bmw_de/de_DE/all-models/7-series/sedan/jcr:content,none given
/content/bmw/marketDE/bmw_de/de_DE/all-models/7-series/sedan/2019/bmw-7er-limousine-kaufen/jcr:content,none given
/content/bmw/marketDE/bmw_de/de_DE/all-models/7-series/sedan/2019/bmw-7er-limousine-informieren/jcr:content,none given
/content/bmw/marketDE/bmw_de/de_DE/all-models/7-series/sedan/2019/bmw-7er-limousine-entdecken/jcr:content,none given
/content/bmw/marketDE/bmw_de/de_DE/all-models/4-series/gran-coupe/2019/bmw-4-gran-coupe-informen/jcr:content,none given
/content/bmw/marketDE/bmw_de/de_DE/all-models/4-series/gran-coupe/2019/bmw-4er-gran-coupe-kaufen/jcr:content,none given
/content/bmw/marketDE/bmw_de/de_DE/all-models/4-series/gran-coupe/2019/bmw-4-gran-coupe-entdecken/jcr:content,none given
/content/bmw/marketDE/bmw_de/de_DE/all-models/4-series/convertible/jcr:content,none given
/content/bmw/marketDE/bmw_de/de_DE/all-models/4-series/convertible/2019/bmw-4er-cabrio-entdecken/jcr:content,none given
/content/bmw/marketDE/bmw_de/de_DE/all-models/4-series/convertible/2019/bmw-4er-cabrio-informieren/jcr:content,none given
/content/bmw/marketDE/bmw_de/de_DE/all-models/4-series/convertible/2019/bmw-4er-cabrio-kaufen/jcr:content,none given
/content/bmw/marketDE/bmw_de/de_DE/all-models/4-series/coupe/2019/bmw-4er-coupe-entdecken/jcr:content,none given
/content/bmw/marketDE/bmw_de/de_DE/all-models/4-series/coupe/2019/bmw-4er-coupe-kaufen/jcr:content,none given
/content/bmw/marketDE/bmw_de/de_DE/all-models/4-series/coupe/2019/bmw-4er-coupe-informieren/jcr:content,none given
/content/bmw/marketDE/bmw_de/de_DE/all-models/4-series/jcr:content,none given
/content/bmw/marketDE/bmw_de/de_DE/all-models/edrive/bmw-2er-active-tourer-phev-2018/jcr:content,none given
/content/bmw/marketDE/bmw_de/de_DE/all-models/4/jcr:content,none given
/content/bmw/marketDE/bmw_de/de_DE/all-models/5-series/touring/2017_old/at-a-glance/jcr:content,none given
/content/bmw/marketDE/bmw_de/de_DE/all-models/5-series/touring/2017/driving-dynamics-efficiency/jcr:content,none given
/content/bmw/marketDE/bmw_de/de_DE/all-models/5-series/touring/2017/design/jcr:content,none given
/content/bmw/marketDE/bmw_de/de_DE/all-models/5-series/touring/2017/images-videos/jcr:content,none given
/content/bmw/marketDE/bmw_de/de_DE/all-models/5-series/touring/2017/connectivity/jcr:content,none given
/content/bmw/marketDE/bmw_de/de_DE/all-models/5-series/touring/2017/jcr:content,none given
/content/bmw/marketDE/bmw_de/de_DE/all-models/5-series/touring/2017/at-a-glance/jcr:content,none given
/content/bmw/marketDE/bmw_de/de_DE/all-models/5-series/touring/2017/comfort-versatility/jcr:content,none given
/content/bmw/marketDE/bmw_de/de_DE/all-models/5-series/touring/2017/m-performance/jcr:content,none given
/content/bmw/marketDE/bmw_de/de_DE/all-models/5-series/touring/2017/lines/jcr:content,none given
/content/bmw/marketDE/bmw_de/de_DE/all-models/5-series/touring/2017/facts/jcr:content,none given
/content/bmw/marketDE/bmw_de/de_DE/all-models/5-series/touring/2017/technical-data/jcr:content,none given
/content/bmw/marketDE/bmw_de/de_DE/all-models/5-series/jcr:content,none given
/content/bmw/marketDE/bmw_de/de_DE/all-models/5-series/sedan/2016/iperformance/jcr:content,none given
/content/bmw/marketDE/bmw_de/de_DE/all-models/5-series/sedan/2016/images-and-videos/jcr:content,none given
/content/bmw/marketDE/bmw_de/de_DE/all-models/5-series/sedan/2016/driving-dynamics-efficiency/jcr:content,none given
/content/bmw/marketDE/bmw_de/de_DE/all-models/5-series/sedan/2016/design/jcr:content,none given
/content/bmw/marketDE/bmw_de/de_DE/all-models/5-series/sedan/2016/connectivity/jcr:content,none given
/content/bmw/marketDE/bmw_de/de_DE/all-models/5-series/sedan/2016/at-a-glance/jcr:content,none given
/content/bmw/marketDE/bmw_de/de_DE/all-models/5-series/sedan/2016/facts/jcr:content,none given
/content/bmw/marketDE/bmw_de/de_DE/all-models/5-series/sedan/2016/technical-data/jcr:content,none given
/content/bmw/marketDE/bmw_de/de_DE/all-models/5-series/sedan/jcr:content,none given
/content/bmw/marketDE/bmw_de/de_DE/all-models/bmw-i/i3/2017/service-zubehoer/jcr:content,none given
/content/bmw/marketDE/bmw_de/de_DE/all-models/bmw-i/i3/2017/sustainability/jcr:content,none given
/content/bmw/marketDE/bmw_de/de_DE/all-models/bmw-i/i3/2017/design/jcr:content,none given
/content/bmw/marketDE/bmw_de/de_DE/all-models/bmw-i/i3/2017/range-charging-efficiency/jcr:content,none given
/content/bmw/marketDE/bmw_de/de_DE/all-models/bmw-i/i3/2017/finance-purchasing/jcr:content,none given
/content/bmw/marketDE/bmw_de/de_DE/all-models/bmw-i/i3/2017/image-videos/jcr:content,none given
/content/bmw/marketDE/bmw_de/de_DE/all-models/bmw-i/i3/2017/at-a-glance/jcr:content,none given
/content/bmw/marketDE/bmw_de/de_DE/all-models/bmw-i/i3/2017/connectivity-driver-assistance/jcr:content,none given
/content/bmw/marketDE/bmw_de/de_DE/all-models/bmw-i/i3/2017/bmw-i3s/jcr:content,none given
/content/bmw/marketDE/bmw_de/de_DE/all-models/bmw-i/i3/2017/technical-data/jcr:content,none given
/content/bmw/marketDE/bmw_de/de_DE/all-models/bmw-i/bmw-i/jcr:content,none given
/content/bmw/marketDE/bmw_de/de_DE/all-models/bmw-i/i8-coupe/2017/images-and-videos/jcr:content,none given
/content/bmw/marketDE/bmw_de/de_DE/all-models/bmw-i/i8-coupe/2017/finance-purchasing/jcr:content,none given
/content/bmw/marketDE/bmw_de/de_DE/all-models/bmw-i/i8-coupe/2017/landingpage/jcr:content,none given
/content/bmw/marketDE/bmw_de/de_DE/all-models/bmw-i/i8-coupe/2017/at-a-glance/jcr:content,none given
/content/bmw/marketDE/bmw_de/de_DE/all-models/bmw-i/i8-coupe/2017/technical-data/jcr:content,none given
/content/bmw/marketDE/bmw_de/de_DE/all-models/bmw-i/i8-roadster/2017/images-videos/jcr:content,none given
/content/bmw/marketDE/bmw_de/de_DE/all-models/bmw-i/i8-roadster/2017/finance-purchasing/jcr:content,none given
/content/bmw/marketDE/bmw_de/de_DE/all-models/bmw-i/i8-roadster/2017/at-a-glance/jcr:content,none given
/content/bmw/marketDE/bmw_de/de_DE/all-models/bmw-i/i8-roadster/2017/technical-data/jcr:content,none given
/content/bmw/marketDE/bmw_de/de_DE/all-models/x-series/X1/2015/images-and-videos/jcr:content,none given
/content/bmw/marketDE/bmw_de/de_DE/all-models/x-series/X1/2015/technische-daten/jcr:content,none given
/content/bmw/marketDE/bmw_de/de_DE/all-models/x-series/X1/2015/at-a-glance-old/jcr:content,none given
/content/bmw/marketDE/bmw_de/de_DE/all-models/x-series/X1/2015/design/jcr:content,none given
/content/bmw/marketDE/bmw_de/de_DE/all-models/x-series/X1/2015/jcr:content,none given
/content/bmw/marketDE/bmw_de/de_DE/all-models/x-series/X1/2015/driving-dynamics-and-efficiency/jcr:content,none given
/content/bmw/marketDE/bmw_de/de_DE/all-models/x-series/X1/2015/at-a-glance/jcr:content,none given
/content/bmw/marketDE/bmw_de/de_DE/all-models/x-series/X1/2015/driver-assistance/jcr:content,none given
/content/bmw/marketDE/bmw_de/de_DE/all-models/x-series/X1/2015/facts/jcr:content,none given
/content/bmw/marketDE/bmw_de/de_DE/all-models/x-series/X1/2015/models-and-equipment/jcr:content,none given
/content/bmw/marketDE/bmw_de/de_DE/all-models/x-series/X1/2015/service-and-apps/jcr:content,none given
/content/bmw/marketDE/bmw_de/de_DE/all-models/x-series/X1/2015/comfort-and-functionality/jcr:content,none given
/content/bmw/marketDE/bmw_de/de_DE/all-models/x-series/X1/jcr:content,none given
/content/bmw/marketDE/bmw_de/de_DE/all-models/x-series/X6/2014/images-and-videos/jcr:content,none given
/content/bmw/marketDE/bmw_de/de_DE/all-models/x-series/X6/2014/highlights/jcr:content,none given
/content/bmw/marketDE/bmw_de/de_DE/all-models/x-series/X6/2014/start/jcr:content,none given
/content/bmw/marketDE/bmw_de/de_DE/all-models/x-series/X6/2014/design/jcr:content,none given
/content/bmw/marketDE/bmw_de/de_DE/all-models/x-series/X6/2014/equipment/jcr:content,none given
/content/bmw/marketDE/bmw_de/de_DE/all-models/x-series/X6/2014/efficiency/jcr:content,none given
/content/bmw/marketDE/bmw_de/de_DE/all-models/x-series/X6/2014/services-and-apps/jcr:content,none given
/content/bmw/marketDE/bmw_de/de_DE/all-models/x-series/X6/2014/at-a-glance/jcr:content,none given
/content/bmw/marketDE/bmw_de/de_DE/all-models/x-series/X6/2014/m-performance/jcr:content,none given
/content/bmw/marketDE/bmw_de/de_DE/all-models/x-series/X6/2014/driving-dynamics/jcr:content,none given
/content/bmw/marketDE/bmw_de/de_DE/all-models/x-series/X6/2014/driver-assistance/jcr:content,none given
/content/bmw/marketDE/bmw_de/de_DE/all-models/x-series/X6/2014/facts/jcr:content,none given
/content/bmw/marketDE/bmw_de/de_DE/all-models/x-series/X6/2014/technical-data/jcr:content,none given
/content/bmw/marketDE/bmw_de/de_DE/all-models/x-series/X6/2014/comfort-and-functionality/jcr:content,none given
/content/bmw/marketDE/bmw_de/de_DE/all-models/x-series/X6/jcr:content,none given
/content/bmw/marketDE/bmw_de/de_DE/all-models/x-series/X4/jcr:content,none given
/content/bmw/marketDE/bmw_de/de_DE/all-models/x-series/X4/2018/modelle-ausstattungen/jcr:content,none given
/content/bmw/marketDE/bmw_de/de_DE/all-models/x-series/X4/2018/images-videos/jcr:content,none given
/content/bmw/marketDE/bmw_de/de_DE/all-models/x-series/X4/2018/at-a-glance/jcr:content,none given
/content/bmw/marketDE/bmw_de/de_DE/all-models/x-series/X4/2018/m-performance/jcr:content,none given
/content/bmw/marketDE/bmw_de/de_DE/all-models/x-series/X4/2018/facts/jcr:content,none given
/content/bmw/marketDE/bmw_de/de_DE/all-models/x-series/X4/2018/technical-data/jcr:content,none given
/content/bmw/marketDE/bmw_de/de_DE/all-models/x-series/x7/2018/bmw-x7-informieren/jcr:content,none given
/content/bmw/marketDE/bmw_de/de_DE/all-models/x-series/x7/2018/bmw-x7-kaufen/jcr:content,none given
/content/bmw/marketDE/bmw_de/de_DE/all-models/x-series/x7/2018/bmw-x7-entdecken/jcr:content,none given
/content/bmw/marketDE/bmw_de/de_DE/all-models/x-series/jcr:content,none given
/content/bmw/marketDE/bmw_de/de_DE/all-models/x-series/X5/2015/start/jcr:content,none given
/content/bmw/marketDE/bmw_de/de_DE/all-models/x-series/X5/jcr:content,none given
/content/bmw/marketDE/bmw_de/de_DE/all-models/x-series/X5/2018/bmw-x5-bilder-videos/jcr:content,none given
/content/bmw/marketDE/bmw_de/de_DE/all-models/x-series/X5/2018/auf-einen-blick/jcr:content,none given
/content/bmw/marketDE/bmw_de/de_DE/all-models/x-series/X5/2018/equipment/jcr:content,none given
/content/bmw/marketDE/bmw_de/de_DE/all-models/x-series/X5/2018/facts/jcr:content,none given
/content/bmw/marketDE/bmw_de/de_DE/all-models/x-series/X5/2018/technical-data/jcr:content,none given
/content/bmw/marketDE/bmw_de/de_DE/all-models/x-series/X2/x2-concept/at-a-glance/jcr:content,none given
/content/bmw/marketDE/bmw_de/de_DE/all-models/x-series/X2/jcr:content,none given
/content/bmw/marketDE/bmw_de/de_DE/all-models/x-series/X2/2017/modelle-ausstattungen/jcr:content,none given
/content/bmw/marketDE/bmw_de/de_DE/all-models/x-series/X2/2017/images-videos/jcr:content,none given
/content/bmw/marketDE/bmw_de/de_DE/all-models/x-series/X2/2017/at-a-glance/jcr:content,none given
/content/bmw/marketDE/bmw_de/de_DE/all-models/x-series/X2/2017/facts/jcr:content,none given
/content/bmw/marketDE/bmw_de/de_DE/all-models/x-series/X2/2017/technical-data/jcr:content,none given
/content/bmw/marketDE/bmw_de/de_DE/all-models/x-series/X3/jcr:content,none given
/content/bmw/marketDE/bmw_de/de_DE/all-models/x-series/X3/2019/bmw-x3-informieren/jcr:content,none given
/content/bmw/marketDE/bmw_de/de_DE/all-models/x-series/X3/2019/bmw-x3-entdecken/jcr:content,none given
/content/bmw/marketDE/bmw_de/de_DE/all-models/jcr:content,none given
/content/bmw/marketDE/bmw_de/de_DE/all-models/2-series/activetourer/2018/overview/jcr:content,none given
/content/bmw/marketDE/bmw_de/de_DE/all-models/2-series/activetourer/2018/edrive/jcr:content,none given
/content/bmw/marketDE/bmw_de/de_DE/all-models/2-series/activetourer/2018/images-videos/jcr:content,none given
/content/bmw/marketDE/bmw_de/de_DE/all-models/2-series/activetourer/2018/facts/jcr:content,none given
/content/bmw/marketDE/bmw_de/de_DE/all-models/2-series/activetourer/2018/models-and-equipment/jcr:content,none given
/content/bmw/marketDE/bmw_de/de_DE/all-models/2-series/activetourer/2018/technical-data/jcr:content,none given
/content/bmw/marketDE/bmw_de/de_DE/all-models/2-series/convertible/jcr:content,none given
/content/bmw/marketDE/bmw_de/de_DE/all-models/2-series/convertible/2019/bmw-2er-cabrio-informieren/jcr:content,none given
/content/bmw/marketDE/bmw_de/de_DE/all-models/2-series/convertible/2019/bmw-2er-cabrio-kaufen/jcr:content,none given
/content/bmw/marketDE/bmw_de/de_DE/all-models/2-series/convertible/2019/bmw-2er-cabrio-entdecken/jcr:content,none given
/content/bmw/marketDE/bmw_de/de_DE/all-models/2-series/convertible/2017/m-performance/jcr:content,none given
/content/bmw/marketDE/bmw_de/de_DE/all-models/2-series/coupe/2019/bmw-2er-coupe-informieren/jcr:content,none given
/content/bmw/marketDE/bmw_de/de_DE/all-models/2-series/coupe/2019/bmw-2er-coupe-kaufen/jcr:content,none given
/content/bmw/marketDE/bmw_de/de_DE/all-models/2-series/coupe/2019/bmw-2er-coupe-entdecken/jcr:content,none given
/content/bmw/marketDE/bmw_de/de_DE/all-models/2-series/coupe/2017/driving-dynamics-and-efficiency/jcr:content,none given
/content/bmw/marketDE/bmw_de/de_DE/all-models/2-series/coupe/2017/at-a-glance/jcr:content,none given
/content/bmw/marketDE/bmw_de/de_DE/all-models/2-series/jcr:content,none given
/content/bmw/marketDE/bmw_de/de_DE/all-models/2-series/grantourer/2018/images-videos/jcr:content,none given
/content/bmw/marketDE/bmw_de/de_DE/all-models/2-series/grantourer/2018/at-a-glance/jcr:content,none given
/content/bmw/marketDE/bmw_de/de_DE/all-models/2-series/grantourer/2018/facts/jcr:content,none given
/content/bmw/marketDE/bmw_de/de_DE/all-models/2-series/grantourer/2018/models-and-equipment/jcr:content,none given
/content/bmw/marketDE/bmw_de/de_DE/all-models/2-series/grantourer/2018/technical-data/jcr:content,none given
/content/bmw/marketDE/bmw_de/de_DE/all-models/8-series/convertible/2018/bmw-8er-cabriolet-kaufen/jcr:content,none given
/content/bmw/marketDE/bmw_de/de_DE/all-models/8-series/convertible/2018/bmw-8er-cabriolet-entdecken/jcr:content,none given
/content/bmw/marketDE/bmw_de/de_DE/all-models/8-series/convertible/2018/bmw-8er-cabriolet-informieren/jcr:content,none given
/content/bmw/marketDE/bmw_de/de_DE/all-models/8-series/coupe/2018/the-8-landingpage-old/jcr:content,none given
/content/bmw/marketDE/bmw_de/de_DE/all-models/8-series/coupe/2018/bmw-8er-bilder-videos/jcr:content,none given
/content/bmw/marketDE/bmw_de/de_DE/all-models/8-series/coupe/2018/equipment/jcr:content,none given
/content/bmw/marketDE/bmw_de/de_DE/all-models/8-series/coupe/2018/facts/jcr:content,none given
/content/bmw/marketDE/bmw_de/de_DE/all-models/8-series/coupe/2018/technical-data/jcr:content,none given
/content/bmw/marketDE/bmw_de/de_DE/all-models/8-series/jcr:content,none given
/content/bmw/marketDE/bmw_de/de_DE/all-models/6-series/gran-coupe/2014/at-a-glance/jcr:content,none given
/content/bmw/marketDE/bmw_de/de_DE/all-models/6-series/gran-coupe/jcr:content,none given
/content/bmw/marketDE/bmw_de/de_DE/all-models/6-series/convertible/2014/jcr:content,none given
/content/bmw/marketDE/bmw_de/de_DE/all-models/6-series/convertible/2014/at-a-glance/jcr:content,none given
/content/bmw/marketDE/bmw_de/de_DE/all-models/6-series/convertible/jcr:content,none given
/content/bmw/marketDE/bmw_de/de_DE/all-models/6-series/jcr:content,none given
/content/bmw/marketDE/bmw_de/de_DE/all-models/6-series/gran-turismo/jcr:content,none given
/content/bmw/marketDE/bmw_de/de_DE/all-models/6-series/gran-turismo/2017/lines-ausstattungen/original-bmw-zubehoer/jcr:content,none given
/content/bmw/marketDE/bmw_de/de_DE/all-models/6-series/gran-turismo/2017/lines-ausstattungen/ausstattungspakete/jcr:content,none given
/content/bmw/marketDE/bmw_de/de_DE/all-models/6-series/gran-turismo/2017/lines-ausstattungen/jcr:content,none given
/content/bmw/marketDE/bmw_de/de_DE/all-models/6-series/gran-turismo/2017/lines-ausstattungen/lines/jcr:content,none given
/content/bmw/marketDE/bmw_de/de_DE/all-models/6-series/gran-turismo/2017/driving-dynamics-efficiency/jcr:content,none given
/content/bmw/marketDE/bmw_de/de_DE/all-models/6-series/gran-turismo/2017/design/jcr:content,none given
/content/bmw/marketDE/bmw_de/de_DE/all-models/6-series/gran-turismo/2017/images-videos/jcr:content,none given
/content/bmw/marketDE/bmw_de/de_DE/all-models/6-series/gran-turismo/2017/finance-insurance/jcr:content,none given
/content/bmw/marketDE/bmw_de/de_DE/all-models/6-series/gran-turismo/2017/connectivity_driver-assistance/jcr:content,none given
/content/bmw/marketDE/bmw_de/de_DE/all-models/6-series/gran-turismo/2017/at-a-glance/jcr:content,none given
/content/bmw/marketDE/bmw_de/de_DE/all-models/6-series/gran-turismo/2017/technical-data/jcr:content,none given
/content/bmw/marketDE/bmw_de/de_DE/all-models/3-series/touring/2015/images-and-videos/jcr:content,none given
/content/bmw/marketDE/bmw_de/de_DE/all-models/3-series/touring/2015/services-apps/jcr:content,none given
/content/bmw/marketDE/bmw_de/de_DE/all-models/3-series/touring/2015/driving-dynamics-efficiency/jcr:content,none given
/content/bmw/marketDE/bmw_de/de_DE/all-models/3-series/touring/2015/design/jcr:content,none given
/content/bmw/marketDE/bmw_de/de_DE/all-models/3-series/touring/2015/editions/jcr:content,none given
/content/bmw/marketDE/bmw_de/de_DE/all-models/3-series/touring/2015/models-equipment/jcr:content,none given
/content/bmw/marketDE/bmw_de/de_DE/all-models/3-series/touring/2015/driver-assistance/jcr:content,none given
/content/bmw/marketDE/bmw_de/de_DE/all-models/3-series/touring/2015/facts/jcr:content,none given
/content/bmw/marketDE/bmw_de/de_DE/all-models/3-series/touring/2015/technical-data/jcr:content,none given
/content/bmw/marketDE/bmw_de/de_DE/all-models/3-series/touring/2015/comfort-and-functionality/jcr:content,none given
/content/bmw/marketDE/bmw_de/de_DE/all-models/3-series/gran_turismo/jcr:content,none given
/content/bmw/marketDE/bmw_de/de_DE/all-models/3-series/gran_turismo/2019/bmw-3er-gran-turismo-entdecken/jcr:content,none given
/content/bmw/marketDE/bmw_de/de_DE/all-models/3-series/gran_turismo/2019/bmw-3er-gran-turismo-informieren/jcr:content,none given
/content/bmw/marketDE/bmw_de/de_DE/all-models/3-series/gran_turismo/2019/bmw-3er-gran-turismo-kaufen/jcr:content,none given
/content/bmw/marketDE/bmw_de/de_DE/all-models/3-series/jcr:content,none given
/content/bmw/marketDE/bmw_de/de_DE/all-models/3-series/sedan/2015/images-and-videos/jcr:content,none given
/content/bmw/marketDE/bmw_de/de_DE/all-models/3-series/sedan/2015/jcr:content,none given
/content/bmw/marketDE/bmw_de/de_DE/all-models/3-series/sedan/2015/editions/jcr:content,none given
/content/bmw/marketDE/bmw_de/de_DE/all-models/3-series/sedan/2015/services-and-apps/jcr:content,none given
/content/bmw/marketDE/bmw_de/de_DE/all-models/3-series/sedan/2015/driving-dynamics-and-efficiency/jcr:content,none given
/content/bmw/marketDE/bmw_de/de_DE/all-models/3-series/sedan/2015/engines/jcr:content,none given
/content/bmw/marketDE/bmw_de/de_DE/all-models/3-series/sedan/2015/at-a-glance/jcr:content,none given
/content/bmw/marketDE/bmw_de/de_DE/all-models/3-series/sedan/2015/driver-assistance/jcr:content,none given
/content/bmw/marketDE/bmw_de/de_DE/all-models/3-series/sedan/2015/facts/jcr:content,none given
/content/bmw/marketDE/bmw_de/de_DE/all-models/3-series/sedan/2015/comfort-and-safety/jcr:content,none given
/content/bmw/marketDE/bmw_de/de_DE/all-models/3-series/sedan/2015/models-and-equipment/jcr:content,none given
/content/bmw/marketDE/bmw_de/de_DE/all-models/3-series/sedan/2015/technical-data/jcr:content,none given
/content/bmw/marketDE/bmw_de/de_DE/all-models/3-series/sedan/jcr:content,none given
/content/bmw/marketDE/bmw_de/de_DE/all-models/3-series/sedan/2018/bmw-3er-limousine/jcr:content,none given
/content/bmw/marketDE/bmw_de/de_DE/all-models/3-series/sedan/2018/bmw-3er-limousine-informieren/jcr:content,none given
/content/bmw/marketDE/bmw_de/de_DE/all-models/3-series/sedan/2018/bmw-3er-limousine-inspirieren/jcr:content,none given
/content/bmw/marketDE/bmw_de/de_DE/all-models/3-series/sedan/2018/technical-data/jcr:content,none given
/content/bmw/marketDE/bmw_de/de_DE/all-models/1-series/5-door/jcr:content,none given
/content/bmw/marketDE/bmw_de/de_DE/all-models/1-series/5-door/2017/connectivity-drivingassistance/jcr:content,none given
/content/bmw/marketDE/bmw_de/de_DE/all-models/1-series/5-door/2017/driving-dynamics-efficiency/jcr:content,none given
/content/bmw/marketDE/bmw_de/de_DE/all-models/1-series/5-door/2017/design/jcr:content,none given
/content/bmw/marketDE/bmw_de/de_DE/all-models/1-series/5-door/2017/images-videos/jcr:content,none given
/content/bmw/marketDE/bmw_de/de_DE/all-models/1-series/5-door/2017/at-a-glance/jcr:content,none given
/content/bmw/marketDE/bmw_de/de_DE/all-models/1-series/5-door/2017/m-performance/jcr:content,none given
/content/bmw/marketDE/bmw_de/de_DE/all-models/1-series/5-door/2017/facts/jcr:content,none given
/content/bmw/marketDE/bmw_de/de_DE/all-models/1-series/5-door/2017/technical-data/jcr:content,none given
/content/bmw/marketDE/bmw_de/de_DE/all-models/1-series/jcr:content,none given
/content/bmw/marketDE/bmw_de/de_DE/all-models/1-series/3-door/jcr:content,none given
/content/bmw/marketDE/bmw_de/de_DE/all-models/1-series/3-door/2017/mperformance/jcr:content,none given
/content/bmw/marketDE/bmw_de/de_DE/all-models/1-series/3-door/2017/design/jcr:content,none given
/content/bmw/marketDE/bmw_de/de_DE/all-models/1-series/3-door/2017/images-videos/jcr:content,none given
/content/bmw/marketDE/bmw_de/de_DE/all-models/1-series/3-door/2017/drivingdynamics/jcr:content,none given
/content/bmw/marketDE/bmw_de/de_DE/all-models/1-series/3-door/2017/at-a-glance/jcr:content,none given
/content/bmw/marketDE/bmw_de/de_DE/all-models/1-series/3-door/2017/connectivity-driver-assistance/jcr:content,none given
/content/bmw/marketDE/bmw_de/de_DE/all-models/1-series/3-door/2017/facts/jcr:content,none given
/content/bmw/marketDE/bmw_de/de_DE/all-models/1-series/3-door/2017/technical-data/jcr:content,none given
/content/bmw/marketDE/bmw_de/de_DE/all-models/z-series/roadster/2018/bmw-z4-roadster-inspirieren/jcr:content,none given
/content/bmw/marketDE/bmw_de/de_DE/all-models/z-series/roadster/2018/bmw-z4-first-edition/jcr:content,none given
/content/bmw/marketDE/bmw_de/de_DE/all-models/z-series/roadster/2018/bmw-z4-roadster-informieren/jcr:content,none given
/content/bmw/marketDE/bmw_de/de_DE/all-models/z-series/roadster/2018/technical-data/jcr:content,none given
/content/bmw/marketDE/bmw_de/de_DE/all-models/z-series/jcr:content,none given
/content/bmw/marketDE/bmw_de/de_DE/jcr:content,none given
/content/bmw/marketDE/bmw_de/de_DE/landingpage/BMW_5er_Dynamik_4/jcr:content,none given
/content/bmw/marketDE/bmw_de/de_DE/landingpage/BMW_2er_Aktivwochenende/jcr:content,none given
/content/bmw/marketDE/bmw_de/de_DE/landingpage/Der_erste_BMW_X7/jcr:content,none given
/content/bmw/marketDE/bmw_de/de_DE/landingpage/BMW_5er_Dynamik_5/jcr:content,none given
/content/bmw/marketDE/bmw_de/de_DE/landingpage/Der_neue_BMW5er/jcr:content,none given
/content/bmw/marketDE/bmw_de/de_DE/landingpage/BMW_5er_Dynamik_2/jcr:content,none given
/content/bmw/marketDE/bmw_de/de_DE/landingpage/BMW_5er_Dynamik_10/jcr:content,none given
/content/bmw/marketDE/bmw_de/de_DE/landingpage/BMW_5er_Dynamik_3/jcr:content,none given
/content/bmw/marketDE/bmw_de/de_DE/landingpage/BMW_5er_Dynamik_8/jcr:content,none given
/content/bmw/marketDE/bmw_de/de_DE/landingpage/BMW_5er_Dynamik_9/jcr:content,none given
/content/bmw/marketDE/bmw_de/de_DE/landingpage/bmw_8er_cabriolet_gewinnspiel/jcr:content,none given
/content/bmw/marketDE/bmw_de/de_DE/landingpage/BMW_7er_Erlebnis/jcr:content,none given
/content/bmw/marketDE/bmw_de/de_DE/landingpage/gwslandingpage-test/jcr:content,none given
/content/bmw/marketDE/bmw_de/de_DE/landingpage/BMW_8er_Cabriolet/jcr:content,none given
/content/bmw/marketDE/bmw_de/de_DE/landingpage/BMW_5er_Dynamik_6/jcr:content,none given
/content/bmw/marketDE/bmw_de/de_DE/landingpage/BMW_5er_Dynamik_7/jcr:content,none given
/content/bmw/marketDE/bmw_de/de_DE/landingpage/umweltbonus-test/jcr:content,none given
/content/bmw/marketDE/bmw_de/de_DE/ssl/requests/g14-rfo/jcr:content,none given
/content/bmw/marketDE/bmw_de/de_DE/ssl/requests/g11-rfo/jcr:content,none given
/content/bmw/marketDE/bmw_de/de_DE/ssl/requests/i3120ah-roi/jcr:content,none given
/content/bmw/marketDE/bmw_de/de_DE/ssl/requests/g14-roi/jcr:content,none given
/content/bmw/marketDE/bmw_de/de_DE/ssl/requests/f87-roi-test/jcr:content,none given
/content/bmw/marketDE/bmw_de/de_DE/ssl/requests/registration_camaign/jcr:content,none given
/content/bmw/marketDE/bmw_de/de_DE/ssl/requests/g21-roi/jcr:content,none given
/content/bmw/marketDE/bmw_de/de_DE/ssl/requests/g11-roi/jcr:content,none given
/content/bmw/marketDE/bmw_de/de_DE/ssl/requests/g07-rfo/jcr:content,none given
/content/bmw/marketDE/bmw_de/de_DE/ssl/requests/g29-roi/jcr:content,none given
/content/bmw/marketDE/bmw_de/de_DE/ssl/external-forms/bmw_roi/jcr:content,none given
/content/bmw/marketDE/bmw_de/de_DE/ssl/external-forms/callback/jcr:content,none given
/content/bmw/marketDE/bmw_de/de_DE/ssl/external-forms/jcr:content,none given
/content/bmw/marketDE/bmw_de/de_DE/index/jcr:content,none given
/content/bmw/marketDE/bmw_de/de_DE/trainingspool/finanzprodukte-test/jcr:content,none given
/content/bmw/marketDE/bmw_de/de_DE/trainingspool/ed-test/jcr:content,none given
/content/bmw/marketDE/bmw_de/de_DE/trainingspool/lk-pool/technical-data2/jcr:content,none given
/content/bmw/marketDE/bmw_de/de_DE/trainingspool/faq-test/jcr:content,none given
/content/bmw/marketDE/bmw_de/de_DE/topics/fascination-bmw/electromobility/bmw-i-visions/jcr:content,none given
/content/bmw/marketDE/bmw_de/de_DE/ssl/requests/f40-roi/jcr:content,none given
/content/bmw/marketDE/bmw_de/de_DE/landingpage/der-erste-bmw-x7/jcr:content,none given
/content/bmw/marketDE/bmw_de/de_DE/all-models/1-series/5-door/2019/inform/jcr:content,none given
/content/bmw/marketDE/bmw_de/de_DE/all-models/1-series/5-door/2019/inspire/jcr:content,none given
/content/bmw/marketDE/bmw_de/de_DE/all-models/m-series/m135i/2019/m135i-inform/jcr:content,none given
/content/bmw/marketDE/bmw_de/de_DE/all-models/m-series/m135i/2019/m135i-inspire/jcr:content,none given
/content/bmw/marketDE/bmw_de/de_DE/all-models/x-series/X1/2019/inform/jcr:content,none given
/content/bmw/marketDE/bmw_de/de_DE/all-models/x-series/X1/2019/inspire/jcr:content,none given
/content/bmw/marketDE/bmw_de/de_DE/all-models/x-series/X1/2019/bmw-x1-kaufen/jcr:content,none given
/content/bmw/marketDE/bmw_de/de_DE/all-models/m-series/m5-sedan/2019/inform/jcr:content,none given
/content/bmw/marketDE/bmw_de/de_DE/all-models/m-series/m5-sedan/2019/inspire/jcr:content,none given
/content/bmw/marketDE/bmw_de/de_DE/all-models/m-series/m5-sedan/2019/bmw-m5-automobiles-technical-data/jcr:content,none given
/content/bmw/marketDE/bmw_de/de_DE/all-models/m-series/m5-sedan/2019/kaufen/jcr:content,none given
/content/bmw/marketDE/bmw_de/de_DE/all-models/3-series/gran_turismo/2016/at-a-glance/jcr:content,none given
/content/bmw/marketDE/bmw_de/de_DE/all-models/2-series/convertible/2017/at-a-glance/jcr:content,none given
/content/bmw/marketDE/bmw_de/de_DE/all-models/m-series/m8-convertible/2019/bmw-m8-convertible-inspire/jcr:content,none given
/content/bmw/marketDE/bmw_de/de_DE/all-models/m-series/m8-convertible/2019/bmw-m8-convertible-inform/jcr:content,none given
/content/bmw/marketDE/bmw_de/de_DE/all-models/m-series/m8-convertible/2019/bmw-m8-convertible-technical-data/jcr:content,none given
/content/bmw/marketDE/bmw_de/de_DE/all-models/m-series/m8-coupe/2019/bmw-m8-coupe-inspire/jcr:content,none given
/content/bmw/marketDE/bmw_de/de_DE/all-models/m-series/m8-coupe/2019/bmw-m8-coupe-inform/jcr:content,none given
/content/bmw/marketDE/bmw_de/de_DE/all-models/m-series/m8-coupe/2019/bmw-m8-coupe-technical-data/jcr:content,none given
/content/bmw/marketDE/bmw_de/de_DE/all-models/m-series/m340i/2019/inform/jcr:content,none given
/content/bmw/marketDE/bmw_de/de_DE/all-models/m-series/m340i/2019/inspire/jcr:content,none given
/content/bmw/marketDE/bmw_de/de_DE/all-models/3-series/touring/2019/inform/jcr:content,none given
/content/bmw/marketDE/bmw_de/de_DE/all-models/3-series/touring/2019/inspire/jcr:content,none given
/content/bmw/marketDE/bmw_de/de_DE/all-models/3-series/touring/2019/bmw-3-series-touring-technical-data/jcr:content,none given
/content/bmw/marketDE/bmw_de/de_DE/all-models/m-series/m850i-gran-coupe/2019/bmw-m850i-xdrive-gran-coupe-technical-data/jcr:content,none given
/content/bmw/marketDE/bmw_de/de_DE/all-models/m-series/m850i-gran-coupe/2019/bmw-m850i-xdrive-gran-coupe-inform/jcr:content,none given
/content/bmw/marketDE/bmw_de/de_DE/all-models/m-series/m850i-gran-coupe/2019/bmw-m850i-xdrive-gran-coupe-inspire/jcr:content,none given
/content/bmw/marketDE/bmw_de/de_DE/all-models/8-series/gran-coupe/2019/bmw-8-series-gran-coupe-technical-data/jcr:content,none given
/content/bmw/marketDE/bmw_de/de_DE/all-models/8-series/gran-coupe/2019/bmw-8-series-gran-coupe-inspire/jcr:content,none given
/content/bmw/marketDE/bmw_de/de_DE/all-models/8-series/gran-coupe/2019/bmw-8-series-gran-coupe-inform/jcr:content,none given
/content/bmw/marketDE/bmw_de/de_DE/topics/fascination-bmw/bmw-concept-cars/bmw-vision-m-next/jcr:content,none given
/content/bmw/marketDE/bmw_de/de_DE/all-models/x-series/x3-m/2019/bmw-x3m-entdecken/jcr:content,none given
/content/bmw/marketDE/bmw_de/de_DE/all-models/x-series/x3-m/2019/bmw-x3m-kaufen/jcr:content,none given
/content/bmw/marketDE/bmw_de/de_DE/all-models/x-series/x3-m/2019/bmw-x3m-informieren/jcr:content,none given
/content/bmw/marketDE/bmw_de/de_DE/all-models/x-series/x4-m/2019/bmw-x4m-informieren/jcr:content,none given
/content/bmw/marketDE/bmw_de/de_DE/all-models/x-series/x4-m/2019/bmw-x4m-kaufen/jcr:content,none given
/content/bmw/marketDE/bmw_de/de_DE/all-models/x-series/x4-m/2019/bmw-x4m-entdecken/jcr:content,none given
/content/bmw/marketDE/bmw_de/de_DE/topics/fascination-bmw/electromobility/brand-cooperations/jcr:content,none given
/content/bmw/marketDE/bmw_de/de_DE/topics/fascination-bmw/connected-drive/connecteddrive-for-users/user-instructions/jcr:content,none given
/content/bmw/marketDE/bmw_de/de_DE/topics/neuwagen/angebote/umweltbonus/jcr:content,none given
/content/bmw/marketDE/bmw_de/de_DE/topics/neuwagen/finanzierung-leasing/jcr:content,none given
/content/bmw/marketDE/bmw_de/de_DE/topics/neuwagen/individual-2017/jcr:content,none given
/content/bmw/marketDE/bmw_de/de_DE/topics/neuwagen/warranty/jcr:content,none given
/content/bmw/marketDE/bmw_de/de_DE/topics/gebrauchtfahrzeuge/used-car-search-new/jcr:content,none given