/content/bmw/operations/bmw_de/de_de/all-models/x-series/x7/2018/bmw-x7-informieren/jcr:content,"none given",/content/bmw/operations/bmw_de/de_de/all-models/x-series/x7/2018/bmw-x7-informieren.html,ERROR,"<url> malformed"
/content/bmw/operations/bmw_de/de_de/index/jcr:content,"none given",/content/bmw/operations/bmw_de/de_de/index.html,ERROR,"<url> malformed"
/content/bmw/marketDE/bmw_de/de_GK/jcr:content,"none given",/content/bmw/marketDE/bmw_de/de_GK.html,ERROR,"<url> malformed"
/content/bmw/marketDE/bmw_de/de_DE/fastlane/grosskunden-und-behoerden/government-vehicles/contact/jcr:content,"none given",https://www.bmw.de/de/fastlane/grosskunden-und-behoerden/government-vehicles/contact.html,https://www.bmw.de/de/fastlane/grosskunden-und-behoerden/government-vehicles/contact.html,500
/content/bmw/marketDE/bmw_de/de_DE/fastlane/grosskunden-und-behoerden/government-vehicles/faq/jcr:content,"none given",https://www.bmw.de/de/fastlane/grosskunden-und-behoerden/government-vehicles/faq.html,https://www.bmw.de/de/fastlane/grosskunden-und-behoerden/government-vehicles/faq.html,500
/content/bmw/marketDE/bmw_de/de_DE/topics/offers-and-services/vehicle-service-parts/jcr:content,"none given",https://www.bmw.de/de/topics/offers-and-services/vehicle-service-parts.html,https://www.bmw.de/de/topics/offers-and-services/vehicle-service-parts.html,404
/content/bmw/marketDE/bmw_de/de_DE/topics/offers-and-services/personal-services/jcr:content,"none given",https://www.bmw.de/de/topics/offers-and-services/personal-services.html,https://www.bmw.de/de/topics/offers-and-services/personal-services.html,404
/content/bmw/marketDE/bmw_de/de_DE/topics/gebrauchtfahrzeuge/fahrzeugarten/vorfuehrwagen/jcr:content,"none given",https://www.bmw.de/de/topics/gebrauchtfahrzeuge/fahrzeugarten/vorfuehrwagen.html,https://www.bmw.de/de/topics/gebrauchtfahrzeuge/fahrzeugarten/vorfuehrwagen.html,404
/content/bmw/marketDE/bmw_de/de_DE/topics/gebrauchtfahrzeuge/fahrzeugarten/gebrauchtwagen/jcr:content,"none given",https://www.bmw.de/de/topics/gebrauchtfahrzeuge/fahrzeugarten/gebrauchtwagen.html,https://www.bmw.de/de/topics/gebrauchtfahrzeuge/fahrzeugarten/gebrauchtwagen.html,404
/content/bmw/marketDE/bmw_de/de_DE/topics/gebrauchtfahrzeuge/fahrzeugarten/junge-gebrauchte/jcr:content,"none given",https://www.bmw.de/de/topics/gebrauchtfahrzeuge/fahrzeugarten/junge-gebrauchte.html,https://www.bmw.de/de/topics/gebrauchtfahrzeuge/fahrzeugarten/junge-gebrauchte.html,404
/content/bmw/marketDE/bmw_de/de_DE/topics/gebrauchtfahrzeuge/premium-selection/vorteile/jcr:content,"none given",https://www.bmw.de/de/topics/gebrauchtfahrzeuge/premium-selection/vorteile.html,https://www.bmw.de/de/topics/gebrauchtfahrzeuge/premium-selection/vorteile.html,404
/content/bmw/marketDE/bmw_de/de_DE/topics/gebrauchtfahrzeuge/garantien/europlus-garantie/jcr:content,"none given",https://www.bmw.de/de/topics/gebrauchtfahrzeuge/garantien/europlus-garantie.html,https://www.bmw.de/de/topics/gebrauchtfahrzeuge/garantien/europlus-garantie.html,404
/content/bmw/marketDE/bmw_de/de_DE/topics/fascination-bmw/electromobility/jcr:content,"none given",https://www.bmw.de/de/topics/fascination-bmw/electromobility.html,https://www.bmw.de/de/topics/fascination-bmw/electromobility.html,404
/content/bmw/marketDE/bmw_de/de_DE/topics/fascination-bmw/jcr:content,"none given",https://www.bmw.de/de/topics/fascination-bmw.html,https://www.bmw.de/de/topics/fascination-bmw.html,404
/content/bmw/marketDE/bmw_de/de_DE/topics/fascination-bmw/sport-und-events/jcr:content,"none given",https://www.bmw.de/de/topics/fascination-bmw/sport-und-events.html,https://www.bmw.de/de/topics/fascination-bmw/sport-und-events.html,404
/content/bmw/marketDE/bmw_de/de_DE/all-models/m-series/m4-coupe/jcr:content,"none given",https://www.bmw.de/de/all-models/m-series/m4-coupe.html,https://www.bmw.de/de/all-models/m-series/m4-coupe.html,404
/content/bmw/marketDE/bmw_de/de_DE/all-models/m-series/m6-convertible/jcr:content,"none given",https://www.bmw.de/de/all-models/m-series/m6-convertible.html,https://www.bmw.de/de/all-models/m-series/m6-convertible.html,404
/content/bmw/marketDE/bmw_de/de_DE/all-models/m-series/m3-sedan/jcr:content,"none given",https://www.bmw.de/de/all-models/m-series/m3-sedan.html,https://www.bmw.de/de/all-models/m-series/m3-sedan.html,404
/content/bmw/marketDE/bmw_de/de_DE/all-models/m-series/m4-convertible/jcr:content,"none given",https://www.bmw.de/de/all-models/m-series/m4-convertible.html,https://www.bmw.de/de/all-models/m-series/m4-convertible.html,404
/content/bmw/marketDE/bmw_de/de_DE/all-models/m-series/m5-sedan/jcr:content,"none given",https://www.bmw.de/de/all-models/m-series/m5-sedan.html,https://www.bmw.de/de/all-models/m-series/m5-sedan.html,404
/content/bmw/marketDE/bmw_de/de_DE/all-models/7-series/sedan/jcr:content,"none given",https://www.bmw.de/de/all-models/7-series/sedan.html,https://www.bmw.de/de/all-models/7-series/sedan.html,404
/content/bmw/marketDE/bmw_de/de_DE/all-models/4-series/convertible/jcr:content,"none given",https://www.bmw.de/de/all-models/4-series/convertible.html,https://www.bmw.de/de/all-models/4-series/convertible.html,404
/content/bmw/marketDE/bmw_de/de_DE/all-models/5-series/sedan/jcr:content,"none given",https://www.bmw.de/de/all-models/5-series/sedan.html,https://www.bmw.de/de/all-models/5-series/sedan.html,404
/content/bmw/marketDE/bmw_de/de_DE/all-models/bmw-i/bmw-i/jcr:content,"none given",https://www.bmw.de/de/all-models/bmw-i/bmw-i.html,https://www.bmw.de/de/all-models/bmw-i/bmw-i.html,404
/content/bmw/marketDE/bmw_de/de_DE/all-models/x-series/X1/jcr:content,"none given",https://www.bmw.de/de/all-models/x-series/X1.html,https://www.bmw.de/de/all-models/x-series/X1.html,404
/content/bmw/marketDE/bmw_de/de_DE/all-models/x-series/X6/jcr:content,"none given",https://www.bmw.de/de/all-models/x-series/X6.html,https://www.bmw.de/de/all-models/x-series/X6.html,404
/content/bmw/marketDE/bmw_de/de_DE/all-models/x-series/X4/jcr:content,"none given",https://www.bmw.de/de/all-models/x-series/X4.html,https://www.bmw.de/de/all-models/x-series/X4.html,404
/content/bmw/marketDE/bmw_de/de_DE/all-models/x-series/X5/jcr:content,"none given",https://www.bmw.de/de/all-models/x-series/X5.html,https://www.bmw.de/de/all-models/x-series/X5.html,404
/content/bmw/marketDE/bmw_de/de_DE/all-models/x-series/X2/jcr:content,"none given",https://www.bmw.de/de/all-models/x-series/X2.html,https://www.bmw.de/de/all-models/x-series/X2.html,404
/content/bmw/marketDE/bmw_de/de_DE/all-models/x-series/X3/jcr:content,"none given",https://www.bmw.de/de/all-models/x-series/X3.html,https://www.bmw.de/de/all-models/x-series/X3.html,404
/content/bmw/marketDE/bmw_de/de_DE/all-models/2-series/convertible/jcr:content,"none given",https://www.bmw.de/de/all-models/2-series/convertible.html,https://www.bmw.de/de/all-models/2-series/convertible.html,404
/content/bmw/marketDE/bmw_de/de_DE/all-models/6-series/gran-coupe/jcr:content,"none given",https://www.bmw.de/de/all-models/6-series/gran-coupe.html,https://www.bmw.de/de/all-models/6-series/gran-coupe.html,404
/content/bmw/marketDE/bmw_de/de_DE/all-models/6-series/convertible/jcr:content,"none given",https://www.bmw.de/de/all-models/6-series/convertible.html,https://www.bmw.de/de/all-models/6-series/convertible.html,404
/content/bmw/marketDE/bmw_de/de_DE/all-models/6-series/gran-turismo/jcr:content,"none given",https://www.bmw.de/de/all-models/6-series/gran-turismo.html,https://www.bmw.de/de/all-models/6-series/gran-turismo.html,404
/content/bmw/marketDE/bmw_de/de_DE/all-models/1-series/5-door/jcr:content,"none given",https://www.bmw.de/de/all-models/1-series/5-door.html,https://www.bmw.de/de/all-models/1-series/5-door.html,404
/content/bmw/marketDE/bmw_de/de_DE/jcr:content,"none given",/content/bmw/marketDE/bmw_de/de_DE.html,ERROR,"<url> malformed"
/content/bmw/marketDE/bmw_de/de_DE/ssl/external-forms/jcr:content,"none given",https://www.bmw.de/de/ssl/external-forms.html,https://www.bmw.de/de/ssl/external-forms.html,404
/content/bmw/marketDE/bmw_de/de_DE/trainingspool/lk-pool/technical-data2/jcr:content,"none given",https://www.bmw.de/de/trainingspool/lk-pool/technical-data2.html,https://www.bmw.de/de/trainingspool/lk-pool/technical-data2.html,500
/content/bmw/marketDE/bmw_de/de_DE/landingpage/der-erste-bmw-x7/jcr:content,"none given",https://www.bmw.de/de/landingpage/der-erste-bmw-x7.html,https://www.bmw.de/de/landingpage/der-erste-bmw-x7.html,404
/content/bmw/marketDE/bmw_de/de_DE/topics/gebrauchtfahrzeuge/used-car-search-new/jcr:content,"none given",https://www.bmw.de/de/topics/gebrauchtfahrzeuge/used-car-search-new.html,https://www.bmw.de/de/topics/gebrauchtfahrzeuge/used-car-search-new.html,404
/content/bmw/operations/bmw_de/de_de/all-models/x-series/x7/2018/bmw-x7-informieren/jcr:content,"none given",/content/bmw/operations/bmw_de/de_de/all-models/x-series/x7/2018/bmw-x7-informieren.html,ERROR,"<url> malformed"
/content/bmw/operations/bmw_de/de_de/index/jcr:content,"none given",/content/bmw/operations/bmw_de/de_de/index.html,ERROR,"<url> malformed"
/content/bmw/marketDE/bmw_de/de_GK/jcr:content,"none given",/content/bmw/marketDE/bmw_de/de_GK.html,ERROR,"<url> malformed"
/content/bmw/marketDE/bmw_de/de_DE/fastlane/grosskunden-und-behoerden/government-vehicles/contact/jcr:content,"none given",https://www.bmw.de/de/fastlane/grosskunden-und-behoerden/government-vehicles/contact.html,https://www.bmw.de/de/fastlane/grosskunden-und-behoerden/government-vehicles/contact.html,500
/content/bmw/marketDE/bmw_de/de_DE/fastlane/grosskunden-und-behoerden/government-vehicles/faq/jcr:content,"none given",https://www.bmw.de/de/fastlane/grosskunden-und-behoerden/government-vehicles/faq.html,https://www.bmw.de/de/fastlane/grosskunden-und-behoerden/government-vehicles/faq.html,500
/content/bmw/operations/bmw_de/de_de/all-models/x-series/x7/2018/bmw-x7-informieren/jcr:content,"none given",/content/bmw/operations/bmw_de/de_de/all-models/x-series/x7/2018/bmw-x7-informieren.html,ERROR,"<url> malformed"
/content/bmw/operations/bmw_de/de_de/index/jcr:content,"none given",/content/bmw/operations/bmw_de/de_de/index.html,ERROR,"<url> malformed"
/content/bmw/marketDE/bmw_de/de_GK/jcr:content,"none given",/content/bmw/marketDE/bmw_de/de_GK.html,ERROR,"<url> malformed"
/content/bmw/marketDE/bmw_de/de_DE/fastlane/grosskunden-und-behoerden/government-vehicles/contact/jcr:content,"none given",https://www.bmw.de/de/fastlane/grosskunden-und-behoerden/government-vehicles/contact.html,https://www.bmw.de/de/fastlane/grosskunden-und-behoerden/government-vehicles/contact.html,500
/content/bmw/marketDE/bmw_de/de_DE/fastlane/grosskunden-und-behoerden/government-vehicles/faq/jcr:content,"none given",https://www.bmw.de/de/fastlane/grosskunden-und-behoerden/government-vehicles/faq.html,https://www.bmw.de/de/fastlane/grosskunden-und-behoerden/government-vehicles/faq.html,500
/content/bmw/operations/bmw_de/de_de/all-models/x-series/x7/2018/bmw-x7-informieren/jcr:content,"none given",/content/bmw/operations/bmw_de/de_de/all-models/x-series/x7/2018/bmw-x7-informieren.html,ERROR,"<url> malformed"
/content/bmw/operations/bmw_de/de_de/index/jcr:content,"none given",/content/bmw/operations/bmw_de/de_de/index.html,ERROR,"<url> malformed"
/content/bmw/marketDE/bmw_de/de_GK/jcr:content,"none given",/content/bmw/marketDE/bmw_de/de_GK.html,ERROR,"<url> malformed"
/content/bmw/marketDE/bmw_de/de_DE/fastlane/grosskunden-und-behoerden/government-vehicles/contact/jcr:content,"none given",https://www.bmw.de/de/fastlane/grosskunden-und-behoerden/government-vehicles/contact.html,https://www.bmw.de/de/fastlane/grosskunden-und-behoerden/government-vehicles/contact.html,500
/content/bmw/marketDE/bmw_de/de_DE/fastlane/grosskunden-und-behoerden/government-vehicles/faq/jcr:content,"none given",https://www.bmw.de/de/fastlane/grosskunden-und-behoerden/government-vehicles/faq.html,https://www.bmw.de/de/fastlane/grosskunden-und-behoerden/government-vehicles/faq.html,500
/content/bmw/operations/bmw_de/de_de/all-models/x-series/x7/2018/bmw-x7-informieren/jcr:content,"none given",/content/bmw/operations/bmw_de/de_de/all-models/x-series/x7/2018/bmw-x7-informieren.html,ERROR,"<url> malformed"
/content/bmw/operations/bmw_de/de_de/index/jcr:content,"none given",/content/bmw/operations/bmw_de/de_de/index.html,ERROR,"<url> malformed"
/content/bmw/marketDE/bmw_de/de_GK/jcr:content,"none given",/content/bmw/marketDE/bmw_de/de_GK.html,ERROR,"<url> malformed"
/content/bmw/marketDE/bmw_de/de_DE/fastlane/grosskunden-und-behoerden/government-vehicles/contact/jcr:content,"none given",https://www.bmw.de/de/fastlane/grosskunden-und-behoerden/government-vehicles/contact.html,https://www.bmw.de/de/fastlane/grosskunden-und-behoerden/government-vehicles/contact.html,500
/content/bmw/marketDE/bmw_de/de_DE/fastlane/grosskunden-und-behoerden/government-vehicles/faq/jcr:content,"none given",https://www.bmw.de/de/fastlane/grosskunden-und-behoerden/government-vehicles/faq.html,https://www.bmw.de/de/fastlane/grosskunden-und-behoerden/government-vehicles/faq.html,500
/content/bmw/operations/bmw_de/de_de/all-models/x-series/x7/2018/bmw-x7-informieren/jcr:content,"none given",/content/bmw/operations/bmw_de/de_de/all-models/x-series/x7/2018/bmw-x7-informieren.html,ERROR,"<url> malformed"
/content/bmw/operations/bmw_de/de_de/index/jcr:content,"none given",/content/bmw/operations/bmw_de/de_de/index.html,ERROR,"<url> malformed"
/content/bmw/marketDE/bmw_de/de_GK/jcr:content,"none given",/content/bmw/marketDE/bmw_de/de_GK.html,ERROR,"<url> malformed"
/content/bmw/marketDE/bmw_de/de_DE/fastlane/grosskunden-und-behoerden/government-vehicles/contact/jcr:content,"none given",https://www.bmw.de/de/fastlane/grosskunden-und-behoerden/government-vehicles/contact.html,https://www.bmw.de/de/fastlane/grosskunden-und-behoerden/government-vehicles/contact.html,500
