HTTP/1.1 200 OK
Server: Apache
X-Frame-Options: SAMEORIGIN
Last-Modified: Wed, 13 Nov 2019 13:47:06 GMT
ETag: "3d-5973a99b18a92"
X-Content-Type-Options: nosniff
Content-Type: text/plain; charset=utf-8
Date: Wed, 25 Mar 2020 11:21:45 GMT
Content-Length: 61
Connection: keep-alive
Set-Cookie: visitorid=bfbe1402f2530000c93e7b5e7b02000072260100; expires=Sun, 24-Mar-2024 11:21:45 GMT
Set-Cookie: bw=5000Kbps+; path=/; domain=bmw.com.cn
Strict-Transport-Security: max-age=86400

User-agent: *

Sitemap: http://www.bmw.com.cn/zh/sitemap.xml
